time, cpu_percent
2018-12-14 21:28:48.327492, 6.2
2018-12-14 21:28:49.228911, 6.2
2018-12-14 21:28:50.130336, 6.2
2018-12-14 21:28:51.031801, 6.3
2018-12-14 21:28:51.933212, 6.3
2018-12-14 21:28:52.834666, 6.2
2018-12-14 21:28:53.736070, 6.2
2018-12-14 21:28:54.637509, 6.2
2018-12-14 21:28:55.538925, 6.3
2018-12-14 21:28:56.440336, 6.3
2018-12-14 21:28:57.341815, 6.2
2018-12-14 21:28:58.243235, 6.3
2018-12-14 21:28:59.144686, 6.2
2018-12-14 21:29:00.046110, 6.3
2018-12-14 21:29:00.947560, 6.2
2018-12-14 21:29:01.848969, 6.2
2018-12-14 21:29:02.750377, 6.2
2018-12-14 21:29:03.651829, 6.3
2018-12-14 21:29:04.553244, 6.2
2018-12-14 21:29:05.454721, 6.2
2018-12-14 21:29:06.356128, 6.3
2018-12-14 21:29:07.257560, 6.3
2018-12-14 21:29:08.158980, 6.2
2018-12-14 21:29:09.060405, 6.2
2018-12-14 21:29:09.961850, 6.4
2018-12-14 21:29:10.863263, 6.2
2018-12-14 21:29:11.764710, 6.2
2018-12-14 21:29:12.666138, 6.2
2018-12-14 21:29:13.567578, 6.2
2018-12-14 21:29:14.468998, 6.2
2018-12-14 21:29:15.370419, 6.2
2018-12-14 21:29:16.271872, 6.3
2018-12-14 21:29:17.173293, 6.2
2018-12-14 21:29:18.074755, 6.2
2018-12-14 21:29:18.976178, 6.2
2018-12-14 21:29:19.877617, 6.2
2018-12-14 21:29:20.779042, 6.2
2018-12-14 21:29:21.680492, 6.3
2018-12-14 21:29:22.581901, 6.2
2018-12-14 21:29:23.483319, 6.2
2018-12-14 21:29:24.384770, 6.2
2018-12-14 21:29:25.286191, 6.3
2018-12-14 21:29:26.187643, 6.2
2018-12-14 21:29:27.089066, 6.2
2018-12-14 21:29:27.990525, 6.2
2018-12-14 21:29:28.891946, 6.3
2018-12-14 21:29:29.793354, 6.2
2018-12-14 21:29:30.694794, 6.3
2018-12-14 21:29:31.596205, 6.2
2018-12-14 21:29:32.497649, 6.2
2018-12-14 21:29:33.399071, 6.3
2018-12-14 21:29:34.300523, 6.2
2018-12-14 21:29:35.201945, 6.2
2018-12-14 21:29:36.103365, 6.3
2018-12-14 21:29:37.004828, 6.2
2018-12-14 21:29:37.906232, 6.2
2018-12-14 21:29:38.807662, 6.3
2018-12-14 21:29:39.709072, 6.2
2018-12-14 21:29:40.610519, 6.4
2018-12-14 21:29:41.511923, 6.2
2018-12-14 21:29:42.413315, 6.2
2018-12-14 21:29:43.314773, 6.3
2018-12-14 21:29:44.216198, 6.2
2018-12-14 21:29:45.117654, 6.3
2018-12-14 21:29:46.019075, 6.2
2018-12-14 21:29:46.920515, 6.2
2018-12-14 21:29:47.821931, 6.2
2018-12-14 21:29:48.723352, 6.2
2018-12-14 21:29:49.624810, 6.3
2018-12-14 21:29:50.526216, 6.2
2018-12-14 21:29:51.427648, 6.3
2018-12-14 21:29:52.329067, 6.2
2018-12-14 21:29:53.230512, 6.2
2018-12-14 21:29:54.131933, 6.2
2018-12-14 21:29:55.033358, 6.3
2018-12-14 21:29:55.934795, 6.2
2018-12-14 21:29:56.836213, 6.2
2018-12-14 21:29:57.737640, 6.3
2018-12-14 21:29:58.639045, 6.2
2018-12-14 21:29:59.540496, 13.1
2018-12-14 21:30:00.441840, 6.2
2018-12-14 21:30:01.343220, 6.5
2018-12-14 21:30:02.244676, 6.3
2018-12-14 21:30:03.146099, 6.2
2018-12-14 21:30:04.047548, 6.2
2018-12-14 21:30:04.948967, 6.2
2018-12-14 21:30:05.850380, 6.2
2018-12-14 21:30:06.751826, 6.2
2018-12-14 21:30:07.653237, 6.3
2018-12-14 21:30:08.554688, 6.2
2018-12-14 21:30:09.456105, 6.2
2018-12-14 21:30:10.357547, 6.3
2018-12-14 21:30:11.258974, 6.3
2018-12-14 21:30:12.160396, 6.2
2018-12-14 21:30:13.061859, 6.3
2018-12-14 21:30:13.963263, 6.2
2018-12-14 21:30:14.864706, 6.2
2018-12-14 21:30:15.766116, 6.3
2018-12-14 21:30:16.667570, 6.2
2018-12-14 21:30:17.568984, 6.2
2018-12-14 21:30:18.470398, 6.3
2018-12-14 21:30:19.371857, 6.2
2018-12-14 21:30:20.273274, 6.2
2018-12-14 21:30:21.174974, 6.3
2018-12-14 21:30:22.076396, 6.2
2018-12-14 21:30:22.977852, 6.2
2018-12-14 21:30:23.879260, 6.2
2018-12-14 21:30:24.780726, 6.2
2018-12-14 21:30:25.682135, 6.3
2018-12-14 21:30:26.583574, 6.2
2018-12-14 21:30:27.484983, 6.2
2018-12-14 21:30:28.386384, 6.2
2018-12-14 21:30:29.287847, 6.2
2018-12-14 21:30:30.189264, 6.3
2018-12-14 21:30:31.090739, 6.2
2018-12-14 21:30:31.992162, 6.2
2018-12-14 21:30:32.893615, 6.2
2018-12-14 21:30:33.795019, 6.3
2018-12-14 21:30:34.696416, 6.2
2018-12-14 21:30:35.597870, 6.3
2018-12-14 21:30:36.499280, 6.2
2018-12-14 21:30:37.400736, 6.2
2018-12-14 21:30:38.302149, 6.2
2018-12-14 21:30:39.203595, 6.2
2018-12-14 21:30:40.105008, 6.4
2018-12-14 21:30:41.006462, 6.2
2018-12-14 21:30:41.907880, 6.2
2018-12-14 21:30:42.809283, 6.3
2018-12-14 21:30:43.710742, 6.2
2018-12-14 21:30:44.612156, 6.2
2018-12-14 21:30:45.513600, 6.2
2018-12-14 21:30:46.415006, 6.2
2018-12-14 21:30:47.316412, 6.2
2018-12-14 21:30:48.217863, 6.2
2018-12-14 21:30:49.119285, 6.3
2018-12-14 21:30:50.020743, 6.2
2018-12-14 21:30:50.922146, 6.3
2018-12-14 21:30:51.823582, 6.2
2018-12-14 21:30:52.724997, 6.2
2018-12-14 21:30:53.626396, 6.2
2018-12-14 21:30:54.527850, 6.2
2018-12-14 21:30:55.429268, 6.2
2018-12-14 21:30:56.330724, 6.3
2018-12-14 21:30:57.232147, 6.2
2018-12-14 21:30:58.133598, 6.2
2018-12-14 21:30:59.035013, 6.2
2018-12-14 21:30:59.936408, 6.2
2018-12-14 21:31:00.837864, 6.2
2018-12-14 21:31:01.739272, 6.2
2018-12-14 21:31:02.640724, 6.3
2018-12-14 21:31:03.542141, 6.2
2018-12-14 21:31:04.443585, 6.2
2018-12-14 21:31:05.344997, 6.3
2018-12-14 21:31:06.246400, 6.2
2018-12-14 21:31:07.147863, 6.3
2018-12-14 21:31:08.049286, 6.2
2018-12-14 21:31:08.950743, 6.3
2018-12-14 21:31:09.852150, 6.2
2018-12-14 21:31:10.753584, 6.3
2018-12-14 21:31:11.654999, 6.3
2018-12-14 21:31:12.556413, 6.2
2018-12-14 21:31:13.457869, 6.3
2018-12-14 21:31:14.359286, 6.2
2018-12-14 21:31:15.260744, 6.2
2018-12-14 21:31:16.162165, 6.2
2018-12-14 21:31:17.063622, 6.2
2018-12-14 21:31:17.965014, 6.2
2018-12-14 21:31:18.866415, 6.3
2018-12-14 21:31:19.767874, 6.2
2018-12-14 21:31:20.669301, 6.2
2018-12-14 21:31:21.570749, 6.3
2018-12-14 21:31:22.472161, 6.2
2018-12-14 21:31:23.373604, 6.2
2018-12-14 21:31:24.275022, 6.3
2018-12-14 21:31:25.175734, 6.2
2018-12-14 21:31:26.077136, 6.3
2018-12-14 21:31:26.978546, 6.2
2018-12-14 21:31:27.879954, 6.2
2018-12-14 21:31:28.781376, 6.2
2018-12-14 21:31:29.682829, 6.2
2018-12-14 21:31:30.584239, 6.2
2018-12-14 21:31:31.485713, 6.3
2018-12-14 21:31:32.387102, 6.2
2018-12-14 21:31:33.288535, 6.3
2018-12-14 21:31:34.189960, 6.2
2018-12-14 21:31:35.091381, 6.3
2018-12-14 21:31:35.992846, 6.2
2018-12-14 21:31:36.894267, 6.2
2018-12-14 21:31:37.795718, 6.2
2018-12-14 21:31:38.697124, 6.2
2018-12-14 21:31:39.598564, 6.2
2018-12-14 21:31:40.499975, 6.4
2018-12-14 21:31:41.401377, 6.2
2018-12-14 21:31:42.302838, 6.2
2018-12-14 21:31:43.204259, 6.3
2018-12-14 21:31:44.105718, 6.2
2018-12-14 21:31:45.007144, 6.2
2018-12-14 21:31:45.908577, 6.2
2018-12-14 21:31:46.809980, 6.2
2018-12-14 21:31:47.711388, 6.2
2018-12-14 21:31:48.612830, 6.3
2018-12-14 21:31:49.514246, 6.2
2018-12-14 21:31:50.415721, 6.2
2018-12-14 21:31:51.317111, 6.2
2018-12-14 21:31:52.218536, 6.3
2018-12-14 21:31:53.119961, 6.2
2018-12-14 21:31:54.021385, 6.2
2018-12-14 21:31:54.922828, 6.3
2018-12-14 21:31:55.824234, 6.2
2018-12-14 21:31:56.725684, 6.2
2018-12-14 21:31:57.627070, 6.3
2018-12-14 21:31:58.528484, 6.2
2018-12-14 21:31:59.429903, 12.7
2018-12-14 21:32:00.331521, 7.1
2018-12-14 21:32:01.233095, 6.2
2018-12-14 21:32:02.134550, 6.2
2018-12-14 21:32:03.035978, 6.2
2018-12-14 21:32:03.937383, 6.2
2018-12-14 21:32:04.838832, 6.3
2018-12-14 21:32:05.740243, 6.2
2018-12-14 21:32:06.641694, 6.2
2018-12-14 21:32:07.543110, 6.3
2018-12-14 21:32:08.444548, 6.2
2018-12-14 21:32:09.345969, 6.2
2018-12-14 21:32:10.247384, 6.4
2018-12-14 21:32:11.148838, 6.2
2018-12-14 21:32:12.050263, 6.3
2018-12-14 21:32:12.951724, 6.2
2018-12-14 21:32:13.853133, 6.2
2018-12-14 21:32:14.754572, 6.2
2018-12-14 21:32:15.655985, 6.2
2018-12-14 21:32:16.557394, 6.2
2018-12-14 21:32:17.458850, 6.2
2018-12-14 21:32:18.360266, 6.2
2018-12-14 21:32:19.261724, 6.2
2018-12-14 21:32:20.163145, 6.2
2018-12-14 21:32:21.064601, 6.2
2018-12-14 21:32:21.965998, 6.3
2018-12-14 21:32:22.867388, 6.2
2018-12-14 21:32:23.768833, 6.2
2018-12-14 21:32:24.670257, 6.2
2018-12-14 21:32:25.571700, 6.3
2018-12-14 21:32:26.473112, 6.2
2018-12-14 21:32:27.374557, 6.2
2018-12-14 21:32:28.275967, 6.2
2018-12-14 21:32:29.177381, 6.2
2018-12-14 21:32:30.078835, 6.2
2018-12-14 21:32:30.980237, 6.3
2018-12-14 21:32:31.881695, 6.3
2018-12-14 21:32:32.783109, 6.2
2018-12-14 21:32:33.684543, 6.2
2018-12-14 21:32:34.585955, 6.3
2018-12-14 21:32:35.487371, 6.2
2018-12-14 21:32:36.388826, 6.2
2018-12-14 21:32:37.290246, 6.3
2018-12-14 21:32:38.191722, 6.2
2018-12-14 21:32:39.093185, 6.2
2018-12-14 21:32:39.994628, 6.5
2018-12-14 21:32:40.896045, 6.2
2018-12-14 21:32:41.797477, 6.2
2018-12-14 21:32:42.698885, 6.3
2018-12-14 21:32:43.600297, 6.2
2018-12-14 21:32:44.501749, 6.3
2018-12-14 21:32:45.403170, 6.2
2018-12-14 21:32:46.304618, 6.2
2018-12-14 21:32:47.206031, 6.2
2018-12-14 21:32:48.107481, 6.3
2018-12-14 21:32:49.008912, 6.2
2018-12-14 21:32:49.910319, 6.2
2018-12-14 21:32:50.811755, 6.3
2018-12-14 21:32:51.713164, 6.2
2018-12-14 21:32:52.614605, 6.2
2018-12-14 21:32:53.516014, 6.2
2018-12-14 21:32:54.417418, 6.2
2018-12-14 21:32:55.318876, 6.2
2018-12-14 21:32:56.220296, 6.2
2018-12-14 21:32:57.121757, 6.3
2018-12-14 21:32:58.023176, 6.2
2018-12-14 21:32:58.924612, 6.3
2018-12-14 21:32:59.826022, 6.2
2018-12-14 21:33:00.727483, 6.2
2018-12-14 21:33:01.628895, 6.3
2018-12-14 21:33:02.530308, 6.2
2018-12-14 21:33:03.431783, 6.2
2018-12-14 21:33:04.333204, 6.3
2018-12-14 21:33:05.234647, 6.2
2018-12-14 21:33:06.136060, 6.2
2018-12-14 21:33:07.037511, 6.2
2018-12-14 21:33:07.938920, 6.2
2018-12-14 21:33:08.840342, 6.3
2018-12-14 21:33:09.741793, 6.2
2018-12-14 21:33:10.643200, 6.4
2018-12-14 21:33:11.544642, 6.2
2018-12-14 21:33:12.446050, 6.2
2018-12-14 21:33:13.347491, 6.3
2018-12-14 21:33:14.248917, 6.2
2018-12-14 21:33:15.150338, 6.2
2018-12-14 21:33:16.051800, 6.3
2018-12-14 21:33:16.953217, 6.2
2018-12-14 21:33:17.854648, 6.2
2018-12-14 21:33:18.756044, 6.3
2018-12-14 21:33:19.657476, 6.2
2018-12-14 21:33:20.558891, 6.3
2018-12-14 21:33:21.460310, 6.2
2018-12-14 21:33:22.361757, 6.2
2018-12-14 21:33:23.263179, 6.2
2018-12-14 21:33:24.164631, 6.3
2018-12-14 21:33:25.066055, 6.2
2018-12-14 21:33:25.967499, 6.2
2018-12-14 21:33:26.868902, 6.2
2018-12-14 21:33:27.770311, 6.2
2018-12-14 21:33:28.671770, 6.2
2018-12-14 21:33:29.573185, 6.2
2018-12-14 21:33:30.474626, 6.3
2018-12-14 21:33:31.376035, 6.2
2018-12-14 21:33:32.277477, 6.2
2018-12-14 21:33:33.178905, 6.3
2018-12-14 21:33:34.080328, 6.2
2018-12-14 21:33:34.981772, 6.2
2018-12-14 21:33:35.883178, 6.2
2018-12-14 21:33:36.784633, 6.2
2018-12-14 21:33:37.686039, 6.3
2018-12-14 21:33:38.587471, 6.2
2018-12-14 21:33:39.488888, 6.2
2018-12-14 21:33:40.390304, 6.4
2018-12-14 21:33:41.291765, 6.3
2018-12-14 21:33:42.193187, 6.2
2018-12-14 21:33:43.094640, 6.2
2018-12-14 21:33:43.996052, 6.2
2018-12-14 21:33:44.897508, 6.3
2018-12-14 21:33:45.798923, 6.2
2018-12-14 21:33:46.700329, 6.3
2018-12-14 21:33:47.601784, 6.2
2018-12-14 21:33:48.503195, 6.2
2018-12-14 21:33:49.404640, 6.2
2018-12-14 21:33:50.306046, 6.3
2018-12-14 21:33:51.207484, 6.2
2018-12-14 21:33:52.108881, 6.2
2018-12-14 21:33:53.010307, 6.2
2018-12-14 21:33:53.911766, 6.3
2018-12-14 21:33:54.813174, 6.2
2018-12-14 21:33:55.714614, 6.2
2018-12-14 21:33:56.616018, 6.3
2018-12-14 21:33:57.517459, 6.2
2018-12-14 21:33:58.418886, 6.3
2018-12-14 21:33:59.320305, 11.9
2018-12-14 21:34:00.221828, 7.4
2018-12-14 21:34:01.123361, 6.2
2018-12-14 21:34:02.024824, 6.2
2018-12-14 21:34:02.926226, 6.3
2018-12-14 21:34:03.827654, 6.2
2018-12-14 21:34:04.729077, 6.2
2018-12-14 21:34:05.630518, 6.2
2018-12-14 21:34:06.531932, 6.2
2018-12-14 21:34:07.433351, 6.3
2018-12-14 21:34:08.334790, 6.2
2018-12-14 21:34:09.236215, 6.2
2018-12-14 21:34:10.137657, 6.4
2018-12-14 21:34:11.039082, 6.2
2018-12-14 21:34:11.940525, 6.3
2018-12-14 21:34:12.841947, 6.2
2018-12-14 21:34:13.743356, 6.2
2018-12-14 21:34:14.644802, 6.3
2018-12-14 21:34:15.546223, 6.2
2018-12-14 21:34:16.447663, 6.2
2018-12-14 21:34:17.349083, 6.2
2018-12-14 21:34:18.250531, 6.3
2018-12-14 21:34:19.151953, 6.2
2018-12-14 21:34:20.053375, 6.2
2018-12-14 21:34:20.954829, 6.2
2018-12-14 21:34:21.856239, 6.3
2018-12-14 21:34:22.757705, 6.2
2018-12-14 21:34:23.659118, 6.3
2018-12-14 21:34:24.560562, 6.2
2018-12-14 21:34:25.461980, 6.3
2018-12-14 21:34:26.363396, 6.2
2018-12-14 21:34:27.264855, 6.2
2018-12-14 21:34:28.166274, 6.3
2018-12-14 21:34:29.067746, 6.2
2018-12-14 21:34:29.969153, 6.2
2018-12-14 21:34:30.870589, 6.2
2018-12-14 21:34:31.772003, 6.2
2018-12-14 21:34:32.673465, 6.2
2018-12-14 21:34:33.574889, 6.3
2018-12-14 21:34:34.476307, 6.3
2018-12-14 21:34:35.377760, 6.2
2018-12-14 21:34:36.279177, 6.2
2018-12-14 21:34:37.180623, 6.3
2018-12-14 21:34:38.082045, 6.2
2018-12-14 21:34:38.983486, 6.2
2018-12-14 21:34:39.884891, 6.4
2018-12-14 21:34:40.786318, 6.2
2018-12-14 21:34:41.687779, 6.3
2018-12-14 21:34:42.589190, 6.2
2018-12-14 21:34:43.490633, 6.3
2018-12-14 21:34:44.392055, 6.2
2018-12-14 21:34:45.293507, 6.2
2018-12-14 21:34:46.194919, 6.2
2018-12-14 21:34:47.096331, 6.3
2018-12-14 21:34:47.997773, 6.2
2018-12-14 21:34:48.899191, 6.2
2018-12-14 21:34:49.800631, 6.2
2018-12-14 21:34:50.702038, 6.3
2018-12-14 21:34:51.603489, 6.2
2018-12-14 21:34:52.504908, 6.2
2018-12-14 21:34:53.406326, 6.2
2018-12-14 21:34:54.307795, 6.3
2018-12-14 21:34:55.209220, 6.2
2018-12-14 21:34:56.110671, 6.3
2018-12-14 21:34:57.012099, 6.2
2018-12-14 21:34:57.913552, 6.2
2018-12-14 21:34:58.814958, 6.3
2018-12-14 21:34:59.716372, 6.2
2018-12-14 21:35:00.617815, 6.2
2018-12-14 21:35:01.519236, 6.3
2018-12-14 21:35:02.420679, 6.2
2018-12-14 21:35:03.322101, 6.2
2018-12-14 21:35:04.223549, 6.3
2018-12-14 21:35:05.124964, 6.2
2018-12-14 21:35:06.026376, 6.3
2018-12-14 21:35:06.927818, 6.2
2018-12-14 21:35:07.829226, 6.3
2018-12-14 21:35:08.730676, 6.2
2018-12-14 21:35:09.632090, 6.2
2018-12-14 21:35:10.533544, 6.4
2018-12-14 21:35:11.434966, 6.2
2018-12-14 21:35:12.336382, 6.2
2018-12-14 21:35:13.237844, 6.3
2018-12-14 21:35:14.139264, 6.2
2018-12-14 21:35:15.040727, 6.3
2018-12-14 21:35:15.942134, 6.2
2018-12-14 21:35:16.843586, 6.2
2018-12-14 21:35:17.744995, 6.2
2018-12-14 21:35:18.646387, 6.3
2018-12-14 21:35:19.547843, 6.2
2018-12-14 21:35:20.449255, 6.2
2018-12-14 21:35:21.350712, 6.3
2018-12-14 21:35:22.252128, 6.2
2018-12-14 21:35:23.153583, 6.3
2018-12-14 21:35:24.055006, 6.2
2018-12-14 21:35:24.956459, 6.2
2018-12-14 21:35:25.857869, 6.2
2018-12-14 21:35:26.759275, 6.3
2018-12-14 21:35:27.660727, 6.2
2018-12-14 21:35:28.562139, 6.3
2018-12-14 21:35:29.463585, 6.2
2018-12-14 21:35:30.364991, 6.3
2018-12-14 21:35:31.266398, 6.2
2018-12-14 21:35:32.167851, 6.2
2018-12-14 21:35:33.069276, 6.2
2018-12-14 21:35:33.970720, 6.3
2018-12-14 21:35:34.872124, 6.2
2018-12-14 21:35:35.773560, 6.2
2018-12-14 21:35:36.674975, 6.2
2018-12-14 21:35:37.576377, 6.3
2018-12-14 21:35:38.477822, 6.2
2018-12-14 21:35:39.379238, 6.3
2018-12-14 21:35:40.280706, 6.4
2018-12-14 21:35:41.182135, 6.2
2018-12-14 21:35:42.083586, 6.2
2018-12-14 21:35:42.984978, 6.3
2018-12-14 21:35:43.886371, 6.2
2018-12-14 21:35:44.787831, 6.2
2018-12-14 21:35:45.689244, 6.3
2018-12-14 21:35:46.590705, 6.2
2018-12-14 21:35:47.492124, 6.2
2018-12-14 21:35:48.393569, 6.2
2018-12-14 21:35:49.294982, 6.2
2018-12-14 21:35:50.196386, 6.2
2018-12-14 21:35:51.097850, 6.3
2018-12-14 21:35:51.999252, 6.2
2018-12-14 21:35:52.900707, 6.3
2018-12-14 21:35:53.802116, 6.2
2018-12-14 21:35:54.703556, 6.2
2018-12-14 21:35:55.604960, 6.3
2018-12-14 21:35:56.506357, 6.2
2018-12-14 21:35:57.407816, 6.2
2018-12-14 21:35:58.309232, 6.3
2018-12-14 21:35:59.210672, 11.0
2018-12-14 21:36:00.112163, 8.3
2018-12-14 21:36:01.013703, 6.2
2018-12-14 21:36:01.915117, 6.3
2018-12-14 21:36:02.816546, 6.2
2018-12-14 21:36:03.717960, 6.2
2018-12-14 21:36:04.619371, 6.2
2018-12-14 21:36:05.520815, 6.2
2018-12-14 21:36:06.422218, 6.3
2018-12-14 21:36:07.323660, 6.2
2018-12-14 21:36:08.225063, 6.2
2018-12-14 21:36:09.126509, 6.2
2018-12-14 21:36:10.027918, 6.4
2018-12-14 21:36:10.929327, 6.3
2018-12-14 21:36:11.830773, 6.3
2018-12-14 21:36:12.732199, 6.2
2018-12-14 21:36:13.633637, 6.2
2018-12-14 21:36:14.535053, 6.3
2018-12-14 21:36:15.436522, 6.3
2018-12-14 21:36:16.337929, 6.2
2018-12-14 21:36:17.239354, 6.2
2018-12-14 21:36:18.140786, 6.3
2018-12-14 21:36:19.042185, 6.2
2018-12-14 21:36:19.943618, 6.2
2018-12-14 21:36:20.845033, 6.2
2018-12-14 21:36:21.746460, 6.3
2018-12-14 21:36:22.647868, 6.2
2018-12-14 21:36:23.549284, 6.2
2018-12-14 21:36:24.450736, 6.2
2018-12-14 21:36:25.352160, 6.2
2018-12-14 21:36:26.253599, 6.2
2018-12-14 21:36:27.154990, 6.3
2018-12-14 21:36:28.056404, 6.2
2018-12-14 21:36:28.957853, 6.2
2018-12-14 21:36:29.859297, 6.2
2018-12-14 21:36:30.760743, 6.2
2018-12-14 21:36:31.662155, 6.3
2018-12-14 21:36:32.563593, 6.3
2018-12-14 21:36:33.465014, 6.2
2018-12-14 21:36:34.366457, 6.2
2018-12-14 21:36:35.267881, 6.2
2018-12-14 21:36:36.169282, 6.4
2018-12-14 21:36:37.070727, 6.2
2018-12-14 21:36:37.972131, 6.3
2018-12-14 21:36:38.873564, 6.2
2018-12-14 21:36:39.774976, 6.2
2018-12-14 21:36:40.676405, 6.4
2018-12-14 21:36:41.577868, 6.3
2018-12-14 21:36:42.479274, 6.2
2018-12-14 21:36:43.380736, 6.2
2018-12-14 21:36:44.282159, 6.2
2018-12-14 21:36:45.183612, 6.3
2018-12-14 21:36:46.085007, 6.2
2018-12-14 21:36:46.986399, 6.3
2018-12-14 21:36:47.887847, 6.2
2018-12-14 21:36:48.789269, 6.2
2018-12-14 21:36:49.690717, 6.3
2018-12-14 21:36:50.592122, 6.2
2018-12-14 21:36:51.493564, 6.2
2018-12-14 21:36:52.394974, 6.2
2018-12-14 21:36:53.296387, 6.2
2018-12-14 21:36:54.197844, 6.2
2018-12-14 21:36:55.099245, 6.3
2018-12-14 21:36:56.000706, 6.2
2018-12-14 21:36:56.902128, 6.2
2018-12-14 21:36:57.803566, 6.2
2018-12-14 21:36:58.704967, 6.3
2018-12-14 21:36:59.606367, 6.2
2018-12-14 21:37:00.507806, 6.2
2018-12-14 21:37:01.409230, 6.2
2018-12-14 21:37:02.310666, 6.3
2018-12-14 21:37:03.212091, 6.2
2018-12-14 21:37:04.113532, 6.2
2018-12-14 21:37:05.014950, 6.2
2018-12-14 21:37:05.916356, 6.3
2018-12-14 21:37:06.817797, 6.2
2018-12-14 21:37:07.719213, 6.2
2018-12-14 21:37:08.620650, 6.3
2018-12-14 21:37:09.522072, 6.2
2018-12-14 21:37:10.423519, 6.4
2018-12-14 21:37:11.324953, 6.2
2018-12-14 21:37:12.226356, 6.2
2018-12-14 21:37:13.127807, 6.2
2018-12-14 21:37:14.029215, 6.3
2018-12-14 21:37:14.930650, 6.2
2018-12-14 21:37:15.832059, 6.3
2018-12-14 21:37:16.733521, 6.2
2018-12-14 21:37:17.634938, 6.2
2018-12-14 21:37:18.536340, 6.2
2018-12-14 21:37:19.437814, 6.3
2018-12-14 21:37:20.339216, 6.2
2018-12-14 21:37:21.240661, 6.3
2018-12-14 21:37:22.142066, 6.2
2018-12-14 21:37:23.043526, 6.2
2018-12-14 21:37:23.944935, 6.3
2018-12-14 21:37:24.846356, 6.2
2018-12-14 21:37:25.747803, 6.2
2018-12-14 21:37:26.649203, 6.2
2018-12-14 21:37:27.550645, 6.3
2018-12-14 21:37:28.452044, 6.2
2018-12-14 21:37:29.353516, 6.2
2018-12-14 21:37:30.254919, 6.2
2018-12-14 21:37:31.156322, 6.2
2018-12-14 21:37:32.057765, 6.2
2018-12-14 21:37:32.959186, 6.3
2018-12-14 21:37:33.860624, 6.2
2018-12-14 21:37:34.762033, 6.3
2018-12-14 21:37:35.663479, 6.2
2018-12-14 21:37:36.564885, 6.3
2018-12-14 21:37:37.466306, 6.2
2018-12-14 21:37:38.367759, 6.2
2018-12-14 21:37:39.269183, 6.2
2018-12-14 21:37:40.170616, 6.4
2018-12-14 21:37:41.072035, 6.3
2018-12-14 21:37:41.973483, 6.2
2018-12-14 21:37:42.874894, 6.2
2018-12-14 21:37:43.776301, 6.2
2018-12-14 21:37:44.677766, 6.3
2018-12-14 21:37:45.579179, 6.2
2018-12-14 21:37:46.480612, 6.2
2018-12-14 21:37:47.382035, 6.2
2018-12-14 21:37:48.283480, 6.2
2018-12-14 21:37:49.184911, 6.2
2018-12-14 21:37:50.086310, 6.3
2018-12-14 21:37:50.987751, 6.2
2018-12-14 21:37:51.889158, 6.3
2018-12-14 21:37:52.790612, 6.2
2018-12-14 21:37:53.692025, 6.2
2018-12-14 21:37:54.593471, 6.2
2018-12-14 21:37:55.494888, 6.3
2018-12-14 21:37:56.396292, 6.3
2018-12-14 21:37:57.297768, 6.2
2018-12-14 21:37:58.199146, 6.2
2018-12-14 21:37:59.100577, 6.3
2018-12-14 21:38:00.001779, 12.8
2018-12-14 21:38:00.903364, 6.2
2018-12-14 21:38:01.804816, 6.3
2018-12-14 21:38:02.706237, 6.2
2018-12-14 21:38:03.607671, 6.2
2018-12-14 21:38:04.509088, 6.2
2018-12-14 21:38:05.410538, 6.2
2018-12-14 21:38:06.311959, 6.2
2018-12-14 21:38:07.213383, 6.2
2018-12-14 21:38:08.114804, 6.2
2018-12-14 21:38:09.016218, 6.2
2018-12-14 21:38:09.917656, 6.4
2018-12-14 21:38:10.818767, 6.2
2018-12-14 21:38:11.720187, 6.2
2018-12-14 21:38:12.621635, 6.2
2018-12-14 21:38:13.523052, 6.3
2018-12-14 21:38:14.424504, 6.2
2018-12-14 21:38:15.325925, 6.2
2018-12-14 21:38:16.227350, 6.2
2018-12-14 21:38:17.128800, 6.3
2018-12-14 21:38:18.030215, 6.2
2018-12-14 21:38:18.931656, 6.2
2018-12-14 21:38:19.833057, 6.2
2018-12-14 21:38:20.734500, 6.2
2018-12-14 21:38:21.635921, 6.3
2018-12-14 21:38:22.537335, 6.2
2018-12-14 21:38:23.438784, 6.2
2018-12-14 21:38:24.340203, 6.3
2018-12-14 21:38:25.241658, 6.3
2018-12-14 21:38:26.143060, 6.2
2018-12-14 21:38:27.044507, 6.3
2018-12-14 21:38:27.945913, 6.2
2018-12-14 21:38:28.847319, 6.3
2018-12-14 21:38:29.748780, 6.2
2018-12-14 21:38:30.650205, 6.2
2018-12-14 21:38:31.551644, 6.2
2018-12-14 21:38:32.453064, 6.3
2018-12-14 21:38:33.354529, 6.2
2018-12-14 21:38:34.255955, 6.3
2018-12-14 21:38:35.157353, 6.2
2018-12-14 21:38:36.058806, 6.2
2018-12-14 21:38:36.960220, 6.3
2018-12-14 21:38:37.861669, 6.2
2018-12-14 21:38:38.763079, 6.2
2018-12-14 21:38:39.664517, 6.2
2018-12-14 21:38:40.565939, 6.4
2018-12-14 21:38:41.467360, 6.2
2018-12-14 21:38:42.368832, 6.3
2018-12-14 21:38:43.270258, 6.2
2018-12-14 21:38:44.171709, 6.2
2018-12-14 21:38:45.073119, 6.3
2018-12-14 21:38:45.974577, 6.2
2018-12-14 21:38:46.875993, 6.2
2018-12-14 21:38:47.777409, 6.3
2018-12-14 21:38:48.678878, 6.2
2018-12-14 21:38:49.580301, 6.2
2018-12-14 21:38:50.481764, 6.3
2018-12-14 21:38:51.383184, 6.2
2018-12-14 21:38:52.284629, 6.2
2018-12-14 21:38:53.186037, 6.3
2018-12-14 21:38:54.087484, 6.2
2018-12-14 21:38:54.988902, 6.3
2018-12-14 21:38:55.890314, 6.2
2018-12-14 21:38:56.791783, 6.3
2018-12-14 21:38:57.693207, 6.2
2018-12-14 21:38:58.594645, 6.2
2018-12-14 21:38:59.496052, 6.2
2018-12-14 21:39:00.397492, 6.2
2018-12-14 21:39:01.298915, 6.2
2018-12-14 21:39:02.200339, 6.3
2018-12-14 21:39:03.101778, 6.2
2018-12-14 21:39:04.003191, 6.2
2018-12-14 21:39:04.904632, 6.3
2018-12-14 21:39:05.806045, 6.2
2018-12-14 21:39:06.707481, 6.2
2018-12-14 21:39:07.608901, 6.2
2018-12-14 21:39:08.510320, 6.3
2018-12-14 21:39:09.411775, 6.3
2018-12-14 21:39:10.313198, 6.3
2018-12-14 21:39:11.214657, 6.2
2018-12-14 21:39:12.116085, 6.3
2018-12-14 21:39:13.017537, 6.2
2018-12-14 21:39:13.918956, 6.2
2018-12-14 21:39:14.820364, 6.2
2018-12-14 21:39:15.721820, 6.3
2018-12-14 21:39:16.623240, 6.2
2018-12-14 21:39:17.524721, 6.2
2018-12-14 21:39:18.426133, 6.2
2018-12-14 21:39:19.327573, 6.2
2018-12-14 21:39:20.228996, 6.3
2018-12-14 21:39:21.130409, 6.2
2018-12-14 21:39:22.031876, 6.2
2018-12-14 21:39:22.933280, 6.2
2018-12-14 21:39:23.834748, 6.2
2018-12-14 21:39:24.736173, 6.3
2018-12-14 21:39:25.637633, 6.2
2018-12-14 21:39:26.539059, 6.3
2018-12-14 21:39:27.440513, 6.2
2018-12-14 21:39:28.341935, 6.3
2018-12-14 21:39:29.243361, 6.2
2018-12-14 21:39:30.144820, 6.2
2018-12-14 21:39:31.046228, 6.3
2018-12-14 21:39:31.947670, 6.2
2018-12-14 21:39:32.849092, 6.2
2018-12-14 21:39:33.750540, 6.3
2018-12-14 21:39:34.651955, 6.2
2018-12-14 21:39:35.553375, 6.2
2018-12-14 21:39:36.454830, 6.2
2018-12-14 21:39:37.356251, 6.3
2018-12-14 21:39:38.257716, 6.2
2018-12-14 21:39:39.159126, 6.2
2018-12-14 21:39:40.060565, 6.4
2018-12-14 21:39:40.961991, 6.2
2018-12-14 21:39:41.863407, 6.3
2018-12-14 21:39:42.764859, 6.2
2018-12-14 21:39:43.666284, 6.3
2018-12-14 21:39:44.567741, 6.2
2018-12-14 21:39:45.469164, 6.2
2018-12-14 21:39:46.370624, 6.3
2018-12-14 21:39:47.272048, 6.2
2018-12-14 21:39:48.173499, 6.2
2018-12-14 21:39:49.074920, 6.2
2018-12-14 21:39:49.976330, 6.3
2018-12-14 21:39:50.877789, 6.2
2018-12-14 21:39:51.779214, 6.2
2018-12-14 21:39:52.680676, 6.3
2018-12-14 21:39:53.582104, 6.2
2018-12-14 21:39:54.483550, 6.2
2018-12-14 21:39:55.384962, 6.3
2018-12-14 21:39:56.286370, 6.2
2018-12-14 21:39:57.187830, 6.2
2018-12-14 21:39:58.089240, 6.3
2018-12-14 21:39:58.990712, 6.2
2018-12-14 21:39:59.892133, 13.0
2018-12-14 21:40:00.793733, 6.6
2018-12-14 21:40:01.695186, 6.2
2018-12-14 21:40:02.596631, 6.3
2018-12-14 21:40:03.498054, 6.2
2018-12-14 21:40:04.399500, 6.2
2018-12-14 21:40:05.300922, 6.2
2018-12-14 21:40:06.202336, 6.2
2018-12-14 21:40:07.103780, 6.2
2018-12-14 21:40:08.005186, 6.3
2018-12-14 21:40:08.906628, 6.2
2018-12-14 21:40:09.808048, 6.3
2018-12-14 21:40:10.709508, 6.4
2018-12-14 21:40:11.610929, 6.2
2018-12-14 21:40:12.512353, 6.2
2018-12-14 21:40:13.413804, 6.3
2018-12-14 21:40:14.315227, 6.3
2018-12-14 21:40:15.216690, 6.2
2018-12-14 21:40:16.118102, 6.2
2018-12-14 21:40:17.019548, 6.2
2018-12-14 21:40:17.920968, 6.3
2018-12-14 21:40:18.822390, 6.2
2018-12-14 21:40:19.723831, 6.2
2018-12-14 21:40:20.625289, 6.3
2018-12-14 21:40:21.526757, 6.2
2018-12-14 21:40:22.428183, 6.2
2018-12-14 21:40:23.329644, 6.2
2018-12-14 21:40:24.231068, 6.2
2018-12-14 21:40:25.132520, 6.3
2018-12-14 21:40:26.033931, 6.2
2018-12-14 21:40:26.935352, 6.2
2018-12-14 21:40:27.836823, 6.2
2018-12-14 21:40:28.738245, 6.3
2018-12-14 21:40:29.639707, 6.2
2018-12-14 21:40:30.541131, 6.2
2018-12-14 21:40:31.442588, 6.2
2018-12-14 21:40:32.344010, 6.2
2018-12-14 21:40:33.245482, 6.2
2018-12-14 21:40:34.146898, 6.3
2018-12-14 21:40:35.048298, 6.2
2018-12-14 21:40:35.949769, 6.2
2018-12-14 21:40:36.851194, 6.3
2018-12-14 21:40:37.752653, 6.2
2018-12-14 21:40:38.654061, 6.2
2018-12-14 21:40:39.555497, 6.2
2018-12-14 21:40:40.456858, 6.4
2018-12-14 21:40:41.358278, 6.2
2018-12-14 21:40:42.259755, 6.2
2018-12-14 21:40:43.161157, 6.3
2018-12-14 21:40:44.062603, 6.2
2018-12-14 21:40:44.964017, 6.2
2018-12-14 21:40:45.865455, 6.2
2018-12-14 21:40:46.766875, 6.2
2018-12-14 21:40:47.668294, 6.3
2018-12-14 21:40:48.569766, 6.2
2018-12-14 21:40:49.471183, 6.2
2018-12-14 21:40:50.372635, 6.2
2018-12-14 21:40:51.274049, 6.2
2018-12-14 21:40:52.175493, 6.3
2018-12-14 21:40:53.076899, 6.2
2018-12-14 21:40:53.978296, 6.2
2018-12-14 21:40:54.879751, 6.3
2018-12-14 21:40:55.781156, 6.2
2018-12-14 21:40:56.682617, 6.2
2018-12-14 21:40:57.584043, 6.2
2018-12-14 21:40:58.485508, 6.2
2018-12-14 21:40:59.386928, 6.2
2018-12-14 21:41:00.288354, 6.3
2018-12-14 21:41:01.189802, 6.2
2018-12-14 21:41:02.091226, 6.2
2018-12-14 21:41:02.992689, 6.2
2018-12-14 21:41:03.894117, 6.2
2018-12-14 21:41:04.795563, 6.3
2018-12-14 21:41:05.696983, 6.2
2018-12-14 21:41:06.598409, 6.2
2018-12-14 21:41:07.499856, 6.2
2018-12-14 21:41:08.401277, 6.3
2018-12-14 21:41:09.302740, 6.2
2018-12-14 21:41:10.204155, 6.4
2018-12-14 21:41:11.105598, 6.2
2018-12-14 21:41:12.007022, 6.2
2018-12-14 21:41:12.908476, 6.2
2018-12-14 21:41:13.809894, 6.2
2018-12-14 21:41:14.711314, 6.3
2018-12-14 21:41:15.612775, 6.2
2018-12-14 21:41:16.514189, 6.2
2018-12-14 21:41:17.415647, 6.2
2018-12-14 21:41:18.317072, 6.2
2018-12-14 21:41:19.218537, 6.3
2018-12-14 21:41:20.119939, 6.2
2018-12-14 21:41:21.021361, 6.2
2018-12-14 21:41:21.922830, 6.3
2018-12-14 21:41:22.824247, 6.2
2018-12-14 21:41:23.725722, 6.2
2018-12-14 21:41:24.627146, 6.2
2018-12-14 21:41:25.528597, 6.2
2018-12-14 21:41:26.430018, 6.2
2018-12-14 21:41:27.331489, 6.3
2018-12-14 21:41:28.232915, 6.2
2018-12-14 21:41:29.134328, 6.4
2018-12-14 21:41:30.035787, 6.2
2018-12-14 21:41:30.937212, 6.3
2018-12-14 21:41:31.838659, 6.2
2018-12-14 21:41:32.740083, 6.3
2018-12-14 21:41:33.641536, 6.2
2018-12-14 21:41:34.542951, 6.3
2018-12-14 21:41:35.444372, 6.2
2018-12-14 21:41:36.345838, 6.2
2018-12-14 21:41:37.247264, 6.2
2018-12-14 21:41:38.148711, 6.2
2018-12-14 21:41:39.050130, 6.2
2018-12-14 21:41:39.951561, 6.4
2018-12-14 21:41:40.852990, 6.2
2018-12-14 21:41:41.754410, 6.3
2018-12-14 21:41:42.655872, 6.2
2018-12-14 21:41:43.557293, 6.2
2018-12-14 21:41:44.458743, 6.2
2018-12-14 21:41:45.360166, 6.3
2018-12-14 21:41:46.261621, 6.2
2018-12-14 21:41:47.163023, 6.2
2018-12-14 21:41:48.064483, 6.2
2018-12-14 21:41:48.965903, 6.3
2018-12-14 21:41:49.867318, 6.2
2018-12-14 21:41:50.768788, 6.2
2018-12-14 21:41:51.670207, 6.3
2018-12-14 21:41:52.571659, 6.2
2018-12-14 21:41:53.473070, 6.2
2018-12-14 21:41:54.374516, 6.2
2018-12-14 21:41:55.275937, 6.2
2018-12-14 21:41:56.177338, 6.2
2018-12-14 21:41:57.078805, 6.3
2018-12-14 21:41:57.980226, 6.2
2018-12-14 21:41:58.881666, 6.2
2018-12-14 21:41:59.783072, 13.1
2018-12-14 21:42:00.684664, 6.2
2018-12-14 21:42:01.586097, 6.2
2018-12-14 21:42:02.487540, 6.2
2018-12-14 21:42:03.388964, 6.2
2018-12-14 21:42:04.290381, 6.2
2018-12-14 21:42:05.191832, 6.2
2018-12-14 21:42:06.093239, 6.3
2018-12-14 21:42:06.994706, 6.2
2018-12-14 21:42:07.896126, 6.2
2018-12-14 21:42:08.797574, 6.2
2018-12-14 21:42:09.698997, 6.2
2018-12-14 21:42:10.600412, 6.5
2018-12-14 21:42:11.501858, 6.2
2018-12-14 21:42:12.403279, 6.2
2018-12-14 21:42:13.304740, 6.2
2018-12-14 21:42:14.206158, 6.3
2018-12-14 21:42:15.107612, 6.2
2018-12-14 21:42:16.009028, 6.2
2018-12-14 21:42:16.910482, 6.3
2018-12-14 21:42:17.811906, 6.2
2018-12-14 21:42:18.713328, 6.3
2018-12-14 21:42:19.614773, 6.2
2018-12-14 21:42:20.516189, 6.2
2018-12-14 21:42:21.417647, 6.2
2018-12-14 21:42:22.319070, 6.2
2018-12-14 21:42:23.220542, 6.3
2018-12-14 21:42:24.121963, 6.2
2018-12-14 21:42:25.023385, 6.2
2018-12-14 21:42:25.924833, 6.2
2018-12-14 21:42:26.826253, 6.3
2018-12-14 21:42:27.727722, 6.2
2018-12-14 21:42:28.629146, 6.3
2018-12-14 21:42:29.530599, 6.2
2018-12-14 21:42:30.432015, 6.3
2018-12-14 21:42:31.333478, 6.2
2018-12-14 21:42:32.234905, 6.2
2018-12-14 21:42:33.136328, 6.3
2018-12-14 21:42:34.037783, 6.2
2018-12-14 21:42:34.939202, 6.2
2018-12-14 21:42:35.840645, 6.3
2018-12-14 21:42:36.742073, 6.2
2018-12-14 21:42:37.643544, 6.2
2018-12-14 21:42:38.544963, 6.2
2018-12-14 21:42:39.446383, 6.3
2018-12-14 21:42:40.347852, 6.4
2018-12-14 21:42:41.249276, 6.2
2018-12-14 21:42:42.150749, 6.2
2018-12-14 21:42:43.052163, 6.2
2018-12-14 21:42:43.953601, 6.3
2018-12-14 21:42:44.855024, 6.2
2018-12-14 21:42:45.756476, 6.2
2018-12-14 21:42:46.657888, 6.2
2018-12-14 21:42:47.559301, 6.2
2018-12-14 21:42:48.460759, 6.3
2018-12-14 21:42:49.362182, 6.2
2018-12-14 21:42:50.263628, 6.2
2018-12-14 21:42:51.165038, 6.4
2018-12-14 21:42:52.066480, 6.2
2018-12-14 21:42:52.967898, 6.3
2018-12-14 21:42:53.869317, 6.2
2018-12-14 21:42:54.770789, 6.2
2018-12-14 21:42:55.672198, 6.2
2018-12-14 21:42:56.573652, 6.2
2018-12-14 21:42:57.475060, 6.3
2018-12-14 21:42:58.376502, 6.2
2018-12-14 21:42:59.277923, 6.2
2018-12-14 21:43:00.179341, 6.3
2018-12-14 21:43:01.080797, 6.2
2018-12-14 21:43:01.982206, 6.2
2018-12-14 21:43:02.883659, 6.2
2018-12-14 21:43:03.785077, 6.3
2018-12-14 21:43:04.686521, 6.2
2018-12-14 21:43:05.587945, 6.2
2018-12-14 21:43:06.489362, 6.3
2018-12-14 21:43:07.390818, 6.2
2018-12-14 21:43:08.292243, 6.2
2018-12-14 21:43:09.193716, 6.2
2018-12-14 21:43:10.095134, 6.4
2018-12-14 21:43:10.996585, 6.2
2018-12-14 21:43:11.898008, 6.3
2018-12-14 21:43:12.799457, 6.2
2018-12-14 21:43:13.700878, 6.2
2018-12-14 21:43:14.602291, 6.2
2018-12-14 21:43:15.503756, 6.3
2018-12-14 21:43:16.405175, 6.2
2018-12-14 21:43:17.306638, 6.3
2018-12-14 21:43:18.208074, 6.2
2018-12-14 21:43:19.109524, 6.3
2018-12-14 21:43:20.010927, 6.2
2018-12-14 21:43:20.912347, 6.2
2018-12-14 21:43:21.813808, 6.3
2018-12-14 21:43:22.715219, 6.2
2018-12-14 21:43:23.616670, 6.2
2018-12-14 21:43:24.518086, 6.2
2018-12-14 21:43:25.419548, 6.2
2018-12-14 21:43:26.320969, 6.2
2018-12-14 21:43:27.222390, 6.2
2018-12-14 21:43:28.123855, 6.3
2018-12-14 21:43:29.025269, 6.2
2018-12-14 21:43:29.926733, 6.3
2018-12-14 21:43:30.828154, 6.2
2018-12-14 21:43:31.729592, 6.3
2018-12-14 21:43:32.631014, 6.2
2018-12-14 21:43:33.532474, 6.3
2018-12-14 21:43:34.433901, 6.2
2018-12-14 21:43:35.335322, 6.2
2018-12-14 21:43:36.236792, 6.3
2018-12-14 21:43:37.138207, 6.2
2018-12-14 21:43:38.039655, 6.2
2018-12-14 21:43:38.941080, 6.3
2018-12-14 21:43:39.842541, 6.2
2018-12-14 21:43:40.743960, 6.4
2018-12-14 21:43:41.645384, 6.2
2018-12-14 21:43:42.546855, 6.2
2018-12-14 21:43:43.448284, 6.2
2018-12-14 21:43:44.349741, 6.3
2018-12-14 21:43:45.251163, 6.2
2018-12-14 21:43:46.152604, 6.2
2018-12-14 21:43:47.053996, 6.2
2018-12-14 21:43:47.955404, 6.2
2018-12-14 21:43:48.856868, 6.2
2018-12-14 21:43:49.758285, 6.3
2018-12-14 21:43:50.659731, 6.2
2018-12-14 21:43:51.561148, 6.2
2018-12-14 21:43:52.462605, 6.2
2018-12-14 21:43:53.364021, 6.3
2018-12-14 21:43:54.265477, 6.2
2018-12-14 21:43:55.166897, 6.2
2018-12-14 21:43:56.068316, 6.2
2018-12-14 21:43:56.969786, 6.3
2018-12-14 21:43:57.871200, 6.2
2018-12-14 21:43:58.772640, 6.2
2018-12-14 21:43:59.674043, 12.9
2018-12-14 21:44:00.575632, 6.2
2018-12-14 21:44:01.477044, 6.2
2018-12-14 21:44:02.378491, 6.3
2018-12-14 21:44:03.279915, 6.2
2018-12-14 21:44:04.181333, 6.3
2018-12-14 21:44:05.082784, 6.2
2018-12-14 21:44:05.984206, 6.3
2018-12-14 21:44:06.885639, 6.2
2018-12-14 21:44:07.787049, 6.2
2018-12-14 21:44:08.688505, 6.2
2018-12-14 21:44:09.589927, 6.3
2018-12-14 21:44:10.491351, 6.4
2018-12-14 21:44:11.392887, 6.2
2018-12-14 21:44:12.294320, 6.2
2018-12-14 21:44:13.195768, 6.2
2018-12-14 21:44:14.097178, 6.3
2018-12-14 21:44:14.998616, 6.2
2018-12-14 21:44:15.900044, 6.2
2018-12-14 21:44:16.801497, 6.2
2018-12-14 21:44:17.702916, 6.2
2018-12-14 21:44:18.604333, 6.3
2018-12-14 21:44:19.505784, 6.2
2018-12-14 21:44:20.407203, 6.2
2018-12-14 21:44:21.308650, 6.2
2018-12-14 21:44:22.209736, 6.2
2018-12-14 21:44:23.111153, 6.2
2018-12-14 21:44:24.012614, 6.3
2018-12-14 21:44:24.914040, 6.2
2018-12-14 21:44:25.815506, 6.3
2018-12-14 21:44:26.716921, 6.2
2018-12-14 21:44:27.618338, 6.2
2018-12-14 21:44:28.519804, 6.3
2018-12-14 21:44:29.421222, 6.2
2018-12-14 21:44:30.322664, 6.2
2018-12-14 21:44:31.224080, 6.2
2018-12-14 21:44:32.125520, 6.2
2018-12-14 21:44:33.026924, 6.3
2018-12-14 21:44:33.928324, 6.2
2018-12-14 21:44:34.829761, 6.2
2018-12-14 21:44:35.731177, 6.3
2018-12-14 21:44:36.632626, 6.2
2018-12-14 21:44:37.534041, 6.3
2018-12-14 21:44:38.435487, 6.2
2018-12-14 21:44:39.336911, 6.2
2018-12-14 21:44:40.238335, 6.4
2018-12-14 21:44:41.139800, 6.2
2018-12-14 21:44:42.041226, 6.3
2018-12-14 21:44:42.941768, 6.2
2018-12-14 21:44:43.843168, 6.2
2018-12-14 21:44:44.744602, 6.3
2018-12-14 21:44:45.646015, 6.2
2018-12-14 21:44:46.547418, 6.2
2018-12-14 21:44:47.448884, 6.3
2018-12-14 21:44:48.350308, 6.2
2018-12-14 21:44:49.251763, 6.2
2018-12-14 21:44:50.153169, 6.2
2018-12-14 21:44:51.054630, 6.2
2018-12-14 21:44:51.956032, 6.3
2018-12-14 21:44:52.857485, 6.2
2018-12-14 21:44:53.758907, 6.2
2018-12-14 21:44:54.660323, 6.2
2018-12-14 21:44:55.561771, 6.2
2018-12-14 21:44:56.463190, 6.2
2018-12-14 21:44:57.364634, 6.3
2018-12-14 21:44:58.266046, 6.2
2018-12-14 21:44:59.167480, 6.3
2018-12-14 21:45:00.068903, 6.2
2018-12-14 21:45:00.970320, 6.3
2018-12-14 21:45:01.871770, 6.2
2018-12-14 21:45:02.773187, 6.2
2018-12-14 21:45:03.674628, 6.2
2018-12-14 21:45:04.576044, 6.3
2018-12-14 21:45:05.477493, 6.2
2018-12-14 21:45:06.378917, 6.2
2018-12-14 21:45:07.280340, 6.2
2018-12-14 21:45:08.181782, 6.3
2018-12-14 21:45:09.083208, 6.2
2018-12-14 21:45:09.984645, 6.4
2018-12-14 21:45:10.886070, 6.2
2018-12-14 21:45:11.787523, 6.3
2018-12-14 21:45:12.688949, 6.2
2018-12-14 21:45:13.590367, 6.2
2018-12-14 21:45:14.491839, 6.2
2018-12-14 21:45:15.393260, 6.2
2018-12-14 21:45:16.294705, 6.3
2018-12-14 21:45:17.196132, 6.2
2018-12-14 21:45:18.097592, 6.3
2018-12-14 21:45:18.998999, 6.2
2018-12-14 21:45:19.900404, 6.2
2018-12-14 21:45:20.801873, 6.2
2018-12-14 21:45:21.703294, 6.3
2018-12-14 21:45:22.604748, 6.2
2018-12-14 21:45:23.506172, 6.2
2018-12-14 21:45:24.407619, 6.2
2018-12-14 21:45:25.309042, 6.3
2018-12-14 21:45:26.209735, 6.3
2018-12-14 21:45:27.111160, 6.2
2018-12-14 21:45:28.012597, 6.2
2018-12-14 21:45:28.914015, 6.2
2018-12-14 21:45:29.815469, 6.3
2018-12-14 21:45:30.716890, 6.2
2018-12-14 21:45:31.618300, 6.3
2018-12-14 21:45:32.519768, 6.2
2018-12-14 21:45:33.421195, 6.3
2018-12-14 21:45:34.322649, 6.2
2018-12-14 21:45:35.224061, 6.2
2018-12-14 21:45:36.125512, 6.3
2018-12-14 21:45:37.026925, 6.2
2018-12-14 21:45:37.928336, 6.2
2018-12-14 21:45:38.829797, 6.3
2018-12-14 21:45:39.731214, 6.2
2018-12-14 21:45:40.632672, 6.4
2018-12-14 21:45:41.534100, 6.2
2018-12-14 21:45:42.435534, 6.2
2018-12-14 21:45:43.336955, 6.2
2018-12-14 21:45:44.238382, 6.2
2018-12-14 21:45:45.139855, 6.3
2018-12-14 21:45:46.041263, 6.2
2018-12-14 21:45:46.942701, 6.2
2018-12-14 21:45:47.844115, 6.2
2018-12-14 21:45:48.745562, 6.2
2018-12-14 21:45:49.646979, 6.3
2018-12-14 21:45:50.548403, 6.2
2018-12-14 21:45:51.449762, 6.2
2018-12-14 21:45:52.351184, 6.2
2018-12-14 21:45:53.252649, 6.2
2018-12-14 21:45:54.154067, 6.2
2018-12-14 21:45:55.055501, 6.2
2018-12-14 21:45:55.956915, 6.2
2018-12-14 21:45:56.858332, 6.2
2018-12-14 21:45:57.759781, 6.3
2018-12-14 21:45:58.661203, 6.2
2018-12-14 21:45:59.562642, 12.8
2018-12-14 21:46:00.464203, 6.4
2018-12-14 21:46:01.365666, 6.2
2018-12-14 21:46:02.267090, 6.2
2018-12-14 21:46:03.168538, 6.2
2018-12-14 21:46:04.069948, 6.2
2018-12-14 21:46:04.971365, 6.2
2018-12-14 21:46:05.872807, 6.2
2018-12-14 21:46:06.774227, 6.3
2018-12-14 21:46:07.675655, 6.2
2018-12-14 21:46:08.577079, 6.3
2018-12-14 21:46:09.478534, 6.2
2018-12-14 21:46:10.379957, 6.4
2018-12-14 21:46:11.281383, 6.2
2018-12-14 21:46:12.182862, 6.3
2018-12-14 21:46:13.084272, 6.2
2018-12-14 21:46:13.985718, 6.2
2018-12-14 21:46:14.887132, 6.2
2018-12-14 21:46:15.788576, 6.2
2018-12-14 21:46:16.690004, 6.3
2018-12-14 21:46:17.591459, 6.2
2018-12-14 21:46:18.492880, 6.2
2018-12-14 21:46:19.394296, 6.3
2018-12-14 21:46:20.295755, 6.2
2018-12-14 21:46:21.197180, 6.3
2018-12-14 21:46:22.098629, 6.2
2018-12-14 21:46:23.000033, 6.2
2018-12-14 21:46:23.901486, 6.2
2018-12-14 21:46:24.802909, 6.2
2018-12-14 21:46:25.704328, 6.3
2018-12-14 21:46:26.605783, 6.2
2018-12-14 21:46:27.507201, 6.3
2018-12-14 21:46:28.408672, 6.2
2018-12-14 21:46:29.310096, 6.2
2018-12-14 21:46:30.211552, 6.3
2018-12-14 21:46:31.112975, 6.2
2018-12-14 21:46:32.014398, 6.2
2018-12-14 21:46:32.915827, 6.2
2018-12-14 21:46:33.817244, 6.2
2018-12-14 21:46:34.718702, 6.3
2018-12-14 21:46:35.620123, 6.2
2018-12-14 21:46:36.521567, 6.2
2018-12-14 21:46:37.422990, 6.3
2018-12-14 21:46:38.324409, 6.2
2018-12-14 21:46:39.225882, 6.2
2018-12-14 21:46:40.127308, 6.4
2018-12-14 21:46:41.028768, 6.2
2018-12-14 21:46:41.930180, 6.2
2018-12-14 21:46:42.831623, 6.2
2018-12-14 21:46:43.733033, 6.3
2018-12-14 21:46:44.634515, 6.2
2018-12-14 21:46:45.535946, 6.3
2018-12-14 21:46:46.437364, 6.2
2018-12-14 21:46:47.338823, 6.2
2018-12-14 21:46:48.240249, 6.2
2018-12-14 21:46:49.141723, 6.2
2018-12-14 21:46:50.043133, 6.3
2018-12-14 21:46:50.944576, 6.2
2018-12-14 21:46:51.845983, 6.2
2018-12-14 21:46:52.747404, 6.2
2018-12-14 21:46:53.648863, 6.2
2018-12-14 21:46:54.550276, 6.3
2018-12-14 21:46:55.451735, 6.2
2018-12-14 21:46:56.353155, 6.3
2018-12-14 21:46:57.254600, 6.2
2018-12-14 21:46:58.156013, 6.2
2018-12-14 21:46:59.057412, 6.3
2018-12-14 21:46:59.958864, 6.2
2018-12-14 21:47:00.860280, 6.2
2018-12-14 21:47:01.761731, 6.2
2018-12-14 21:47:02.663154, 6.2
2018-12-14 21:47:03.564596, 6.3
2018-12-14 21:47:04.466008, 6.2
2018-12-14 21:47:05.367419, 6.2
2018-12-14 21:47:06.268877, 6.2
2018-12-14 21:47:07.170302, 6.2
2018-12-14 21:47:08.071743, 6.3
2018-12-14 21:47:08.973157, 6.2
2018-12-14 21:47:09.874600, 6.2
2018-12-14 21:47:10.776019, 6.4
2018-12-14 21:47:11.677469, 6.2
2018-12-14 21:47:12.578897, 6.2
2018-12-14 21:47:13.480316, 6.3
2018-12-14 21:47:14.381769, 6.2
2018-12-14 21:47:15.283190, 6.2
2018-12-14 21:47:16.184640, 6.2
2018-12-14 21:47:17.086043, 6.2
2018-12-14 21:47:17.987478, 6.2
2018-12-14 21:47:18.888894, 6.3
2018-12-14 21:47:19.790312, 6.2
2018-12-14 21:47:20.691771, 6.2
2018-12-14 21:47:21.593191, 6.2
2018-12-14 21:47:22.494646, 6.2
2018-12-14 21:47:23.396057, 6.2
2018-12-14 21:47:24.297519, 6.3
2018-12-14 21:47:25.198944, 6.2
2018-12-14 21:47:26.100367, 6.2
2018-12-14 21:47:27.001815, 6.2
2018-12-14 21:47:27.903234, 6.3
2018-12-14 21:47:28.804688, 6.2
2018-12-14 21:47:29.706101, 6.2
2018-12-14 21:47:30.607556, 6.2
2018-12-14 21:47:31.508974, 6.3
2018-12-14 21:47:32.410394, 6.2
2018-12-14 21:47:33.311866, 6.2
2018-12-14 21:47:34.213289, 6.2
2018-12-14 21:47:35.114755, 6.2
2018-12-14 21:47:36.016172, 6.2
2018-12-14 21:47:36.917617, 6.2
2018-12-14 21:47:37.819029, 6.2
2018-12-14 21:47:38.720497, 6.2
2018-12-14 21:47:39.621914, 6.2
2018-12-14 21:47:40.523330, 6.4
2018-12-14 21:47:41.424806, 6.3
2018-12-14 21:47:42.326234, 6.2
2018-12-14 21:47:43.227691, 6.3
2018-12-14 21:47:44.129118, 6.2
2018-12-14 21:47:45.030579, 6.2
2018-12-14 21:47:45.931998, 6.2
2018-12-14 21:47:46.833408, 6.2
2018-12-14 21:47:47.734879, 6.3
2018-12-14 21:47:48.636304, 6.2
2018-12-14 21:47:49.537761, 6.2
2018-12-14 21:47:50.439178, 6.3
2018-12-14 21:47:51.340622, 6.2
2018-12-14 21:47:52.242049, 6.2
2018-12-14 21:47:53.143512, 6.2
2018-12-14 21:47:54.044923, 6.2
2018-12-14 21:47:54.946328, 6.2
2018-12-14 21:47:55.847769, 6.3
2018-12-14 21:47:56.749189, 6.2
2018-12-14 21:47:57.650634, 6.2
2018-12-14 21:47:58.552048, 6.2
2018-12-14 21:47:59.453506, 12.2
2018-12-14 21:48:00.355094, 6.9
2018-12-14 21:48:01.256650, 6.3
2018-12-14 21:48:02.158111, 6.2
2018-12-14 21:48:03.059549, 6.2
2018-12-14 21:48:03.960960, 6.3
2018-12-14 21:48:04.862377, 6.2
2018-12-14 21:48:05.763822, 6.2
2018-12-14 21:48:06.665236, 6.3
2018-12-14 21:48:07.566673, 6.2
2018-12-14 21:48:08.468094, 6.2
2018-12-14 21:48:09.369547, 6.2
2018-12-14 21:48:10.270974, 6.4
2018-12-14 21:48:11.172414, 6.2
2018-12-14 21:48:12.073876, 6.2
2018-12-14 21:48:12.975295, 6.3
2018-12-14 21:48:13.876751, 6.2
2018-12-14 21:48:14.778177, 6.2
2018-12-14 21:48:15.679639, 6.3
2018-12-14 21:48:16.581062, 6.2
2018-12-14 21:48:17.482530, 6.2
2018-12-14 21:48:18.383954, 6.2
2018-12-14 21:48:19.285376, 6.3
2018-12-14 21:48:20.186841, 6.2
2018-12-14 21:48:21.088258, 6.3
2018-12-14 21:48:21.989718, 6.2
2018-12-14 21:48:22.891140, 6.2
2018-12-14 21:48:23.792581, 6.3
2018-12-14 21:48:24.693993, 6.2
2018-12-14 21:48:25.595404, 6.2
2018-12-14 21:48:26.496859, 6.2
2018-12-14 21:48:27.398284, 6.2
2018-12-14 21:48:28.299735, 6.2
2018-12-14 21:48:29.201158, 6.3
2018-12-14 21:48:30.102338, 6.2
2018-12-14 21:48:31.003796, 6.2
2018-12-14 21:48:31.905216, 6.2
2018-12-14 21:48:32.806659, 6.2
2018-12-14 21:48:33.708077, 6.3
2018-12-14 21:48:34.609537, 6.2
2018-12-14 21:48:35.510941, 6.2
2018-12-14 21:48:36.412365, 6.3
2018-12-14 21:48:37.313815, 6.2
2018-12-14 21:48:38.215232, 6.2
2018-12-14 21:48:39.116673, 6.2
2018-12-14 21:48:40.018092, 6.4
2018-12-14 21:48:40.919555, 6.2
2018-12-14 21:48:41.820979, 6.3
2018-12-14 21:48:42.722397, 6.2
2018-12-14 21:48:43.623854, 6.2
2018-12-14 21:48:44.525278, 6.2
2018-12-14 21:48:45.426741, 6.3
2018-12-14 21:48:46.328156, 6.2
2018-12-14 21:48:47.229601, 6.2
2018-12-14 21:48:48.131017, 6.2
2018-12-14 21:48:49.032478, 6.3
2018-12-14 21:48:49.933903, 6.2
2018-12-14 21:48:50.835315, 6.2
2018-12-14 21:48:51.736773, 6.2
2018-12-14 21:48:52.638197, 6.2
2018-12-14 21:48:53.539649, 6.2
2018-12-14 21:48:54.441059, 6.3
2018-12-14 21:48:55.342514, 6.2
2018-12-14 21:48:56.243931, 6.2
2018-12-14 21:48:57.145346, 6.3
2018-12-14 21:48:58.046808, 6.2
2018-12-14 21:48:58.948229, 6.2
2018-12-14 21:48:59.849669, 6.2
2018-12-14 21:49:00.751091, 6.3
2018-12-14 21:49:01.652540, 6.2
2018-12-14 21:49:02.553957, 6.2
2018-12-14 21:49:03.455358, 6.3
2018-12-14 21:49:04.356803, 6.2
2018-12-14 21:49:05.258211, 6.2
2018-12-14 21:49:06.159654, 6.2
2018-12-14 21:49:07.061072, 6.3
2018-12-14 21:49:07.962522, 6.2
2018-12-14 21:49:08.863944, 6.2
2018-12-14 21:49:09.765348, 6.3
2018-12-14 21:49:10.666807, 6.4
2018-12-14 21:49:11.568236, 6.3
2018-12-14 21:49:12.469673, 6.2
2018-12-14 21:49:13.371077, 6.2
2018-12-14 21:49:14.272532, 6.3
2018-12-14 21:49:15.173950, 6.2
2018-12-14 21:49:16.075367, 6.2
2018-12-14 21:49:16.976822, 6.2
2018-12-14 21:49:17.878243, 6.2
2018-12-14 21:49:18.779718, 6.3
2018-12-14 21:49:19.681138, 6.2
2018-12-14 21:49:20.582581, 6.2
2018-12-14 21:49:21.483983, 6.2
2018-12-14 21:49:22.385389, 6.3
2018-12-14 21:49:23.286818, 6.2
2018-12-14 21:49:24.188208, 6.2
2018-12-14 21:49:25.089651, 6.2
2018-12-14 21:49:25.991075, 6.2
2018-12-14 21:49:26.892526, 6.2
2018-12-14 21:49:27.793930, 6.3
2018-12-14 21:49:28.695353, 6.2
2018-12-14 21:49:29.596792, 6.3
2018-12-14 21:49:30.498200, 6.2
2018-12-14 21:49:31.399646, 6.2
2018-12-14 21:49:32.301064, 6.3
2018-12-14 21:49:33.202517, 6.2
2018-12-14 21:49:34.103938, 6.2
2018-12-14 21:49:35.005359, 6.2
2018-12-14 21:49:35.906787, 6.3
2018-12-14 21:49:36.808207, 6.2
2018-12-14 21:49:37.709655, 6.2
2018-12-14 21:49:38.611079, 6.2
2018-12-14 21:49:39.512524, 6.2
2018-12-14 21:49:40.413925, 6.4
2018-12-14 21:49:41.315355, 6.2
2018-12-14 21:49:42.216810, 6.3
2018-12-14 21:49:43.118212, 6.2
2018-12-14 21:49:44.019660, 6.2
2018-12-14 21:49:44.921089, 6.3
2018-12-14 21:49:45.822528, 6.2
2018-12-14 21:49:46.723948, 6.2
2018-12-14 21:49:47.625371, 6.3
2018-12-14 21:49:48.526801, 6.2
2018-12-14 21:49:49.428192, 6.2
2018-12-14 21:49:50.329640, 6.3
2018-12-14 21:49:51.231059, 6.2
2018-12-14 21:49:52.132514, 6.2
2018-12-14 21:49:53.033939, 6.3
2018-12-14 21:49:53.935366, 6.2
2018-12-14 21:49:54.836787, 6.3
2018-12-14 21:49:55.738204, 6.2
2018-12-14 21:49:56.639646, 6.2
2018-12-14 21:49:57.541056, 6.2
2018-12-14 21:49:58.442508, 6.2
2018-12-14 21:49:59.343925, 12.0
2018-12-14 21:50:00.244860, 7.1
2018-12-14 21:50:01.146464, 6.5
2018-12-14 21:50:02.047909, 6.2
2018-12-14 21:50:02.949336, 6.3
2018-12-14 21:50:03.850774, 6.2
2018-12-14 21:50:04.752194, 6.2
2018-12-14 21:50:05.653635, 6.3
2018-12-14 21:50:06.555054, 6.2
2018-12-14 21:50:07.456511, 6.2
2018-12-14 21:50:08.357933, 6.3
2018-12-14 21:50:09.259347, 6.2
2018-12-14 21:50:10.160786, 6.4
2018-12-14 21:50:11.062212, 6.2
2018-12-14 21:50:11.963659, 6.2
2018-12-14 21:50:12.865084, 6.2
2018-12-14 21:50:13.766545, 6.3
2018-12-14 21:50:14.667967, 6.2
2018-12-14 21:50:15.569385, 6.2
2018-12-14 21:50:16.470845, 6.2
2018-12-14 21:50:17.372261, 6.2
2018-12-14 21:50:18.273715, 6.3
2018-12-14 21:50:19.175103, 6.2
2018-12-14 21:50:20.076556, 6.2
2018-12-14 21:50:20.977981, 6.2
2018-12-14 21:50:21.879400, 6.3
2018-12-14 21:50:22.780858, 6.2
2018-12-14 21:50:23.682275, 6.2
2018-12-14 21:50:24.583732, 6.3
2018-12-14 21:50:25.485154, 6.2
2018-12-14 21:50:26.386599, 6.2
2018-12-14 21:50:27.288010, 6.3
2018-12-14 21:50:28.189467, 6.2
2018-12-14 21:50:29.090890, 6.2
2018-12-14 21:50:29.992316, 6.2
2018-12-14 21:50:30.893767, 6.2
2018-12-14 21:50:31.795188, 6.3
2018-12-14 21:50:32.696637, 6.2
2018-12-14 21:50:33.598056, 6.3
2018-12-14 21:50:34.499520, 6.2
2018-12-14 21:50:35.400932, 6.2
2018-12-14 21:50:36.302342, 6.2
2018-12-14 21:50:37.203799, 6.3
2018-12-14 21:50:38.105218, 6.2
2018-12-14 21:50:39.006668, 6.2
2018-12-14 21:50:39.908078, 6.4
2018-12-14 21:50:40.808766, 6.2
2018-12-14 21:50:41.710189, 6.3
2018-12-14 21:50:42.611641, 6.2
2018-12-14 21:50:43.513056, 6.2
2018-12-14 21:50:44.414497, 6.2
2018-12-14 21:50:45.315911, 6.2
2018-12-14 21:50:46.217328, 6.2
2018-12-14 21:50:47.118798, 6.2
2018-12-14 21:50:48.020220, 6.3
2018-12-14 21:50:48.921666, 6.2
2018-12-14 21:50:49.823083, 6.2
2018-12-14 21:50:50.724523, 6.2
2018-12-14 21:50:51.625943, 6.2
2018-12-14 21:50:52.527366, 6.3
2018-12-14 21:50:53.428824, 6.2
2018-12-14 21:50:54.330241, 6.3
2018-12-14 21:50:55.231713, 6.2
2018-12-14 21:50:56.133126, 6.2
2018-12-14 21:50:57.034568, 6.2
2018-12-14 21:50:57.935977, 6.3
2018-12-14 21:50:58.836771, 6.2
2018-12-14 21:50:59.738188, 6.3
2018-12-14 21:51:00.639638, 6.2
2018-12-14 21:51:01.541060, 6.3
2018-12-14 21:51:02.442514, 6.2
2018-12-14 21:51:03.343935, 6.2
2018-12-14 21:51:04.245354, 6.3
2018-12-14 21:51:05.146815, 6.2
2018-12-14 21:51:06.048239, 6.2
2018-12-14 21:51:06.949704, 6.2
2018-12-14 21:51:07.851125, 6.2
2018-12-14 21:51:08.752572, 6.3
2018-12-14 21:51:09.653982, 6.2
2018-12-14 21:51:10.555391, 6.4
2018-12-14 21:51:11.456848, 6.2
2018-12-14 21:51:12.358263, 6.3
2018-12-14 21:51:13.259722, 6.2
2018-12-14 21:51:14.161147, 6.2
2018-12-14 21:51:15.062599, 6.3
2018-12-14 21:51:15.964002, 6.2
2018-12-14 21:51:16.865411, 6.2
2018-12-14 21:51:17.766871, 6.2
2018-12-14 21:51:18.668291, 6.3
2018-12-14 21:51:19.569744, 6.2
2018-12-14 21:51:20.471154, 6.2
2018-12-14 21:51:21.372605, 6.3
2018-12-14 21:51:22.274023, 6.2
2018-12-14 21:51:23.175415, 6.2
2018-12-14 21:51:24.076885, 6.2
2018-12-14 21:51:24.977936, 6.2
2018-12-14 21:51:25.879353, 6.2
2018-12-14 21:51:26.780801, 6.2
2018-12-14 21:51:27.682216, 6.3
2018-12-14 21:51:28.583660, 6.2
2018-12-14 21:51:29.484773, 6.2
2018-12-14 21:51:30.386194, 6.3
2018-12-14 21:51:31.287635, 6.2
2018-12-14 21:51:32.189058, 6.2
2018-12-14 21:51:33.090512, 6.2
2018-12-14 21:51:33.991936, 6.2
2018-12-14 21:51:34.893355, 6.2
2018-12-14 21:51:35.794808, 6.3
2018-12-14 21:51:36.696230, 6.2
2018-12-14 21:51:37.597668, 6.2
2018-12-14 21:51:38.499088, 6.3
2018-12-14 21:51:39.400538, 6.2
2018-12-14 21:51:40.301963, 6.4
2018-12-14 21:51:41.203388, 6.2
2018-12-14 21:51:42.104846, 6.2
2018-12-14 21:51:43.006268, 6.2
2018-12-14 21:51:43.907719, 6.3
2018-12-14 21:51:44.809143, 6.2
2018-12-14 21:51:45.710578, 6.3
2018-12-14 21:51:46.611999, 6.2
2018-12-14 21:51:47.513449, 6.2
2018-12-14 21:51:48.414881, 6.3
2018-12-14 21:51:49.316303, 6.2
2018-12-14 21:51:50.217754, 6.2
2018-12-14 21:51:51.119176, 6.3
2018-12-14 21:51:52.020618, 6.2
2018-12-14 21:51:52.922069, 6.3
2018-12-14 21:51:53.823523, 6.2
2018-12-14 21:51:54.724946, 6.2
2018-12-14 21:51:55.626365, 6.2
2018-12-14 21:51:56.527819, 6.3
2018-12-14 21:51:57.429242, 6.2
2018-12-14 21:51:58.330711, 6.2
2018-12-14 21:51:59.232132, 10.9
2018-12-14 21:52:00.132845, 8.5
2018-12-14 21:52:01.034390, 6.2
2018-12-14 21:52:01.935842, 6.2
2018-12-14 21:52:02.837265, 6.2
2018-12-14 21:52:03.738712, 6.3
2018-12-14 21:52:04.640134, 6.2
2018-12-14 21:52:05.541573, 6.2
2018-12-14 21:52:06.442996, 6.2
2018-12-14 21:52:07.344416, 6.3
2018-12-14 21:52:08.245866, 6.2
2018-12-14 21:52:09.147288, 6.2
2018-12-14 21:52:10.048739, 6.4
2018-12-14 21:52:10.950167, 6.3
2018-12-14 21:52:11.851613, 6.2
2018-12-14 21:52:12.753041, 6.2
2018-12-14 21:52:13.654494, 6.2
2018-12-14 21:52:14.555918, 6.3
2018-12-14 21:52:15.456779, 6.2
2018-12-14 21:52:16.358198, 6.3
2018-12-14 21:52:17.259643, 6.2
2018-12-14 21:52:18.161065, 6.2
2018-12-14 21:52:19.062514, 6.2
2018-12-14 21:52:19.963936, 6.3
2018-12-14 21:52:20.865360, 6.2
2018-12-14 21:52:21.766815, 6.2
2018-12-14 21:52:22.668236, 6.3
2018-12-14 21:52:23.569693, 6.2
2018-12-14 21:52:24.471113, 6.2
2018-12-14 21:52:25.372555, 6.2
2018-12-14 21:52:26.273978, 6.2
2018-12-14 21:52:27.175401, 6.2
2018-12-14 21:52:28.076849, 6.2
2018-12-14 21:52:28.978275, 6.3
2018-12-14 21:52:29.879729, 6.2
2018-12-14 21:52:30.781148, 6.3
2018-12-14 21:52:31.682592, 6.2
2018-12-14 21:52:32.584015, 6.2
2018-12-14 21:52:33.484774, 6.3
2018-12-14 21:52:34.386197, 6.2
2018-12-14 21:52:35.287642, 6.3
2018-12-14 21:52:36.189065, 6.2
2018-12-14 21:52:37.090520, 6.3
2018-12-14 21:52:37.991940, 6.2
2018-12-14 21:52:38.893360, 6.2
2018-12-14 21:52:39.794807, 6.2
2018-12-14 21:52:40.696232, 6.4
2018-12-14 21:52:41.597674, 6.3
2018-12-14 21:52:42.499101, 6.2
2018-12-14 21:52:43.400546, 6.2
2018-12-14 21:52:44.301972, 6.3
2018-12-14 21:52:45.203394, 6.2
2018-12-14 21:52:46.104847, 6.2
2018-12-14 21:52:47.006275, 6.3
2018-12-14 21:52:47.907727, 6.2
2018-12-14 21:52:48.809148, 6.2
2018-12-14 21:52:49.710579, 6.2
2018-12-14 21:52:50.611999, 6.2
2018-12-14 21:52:51.513420, 6.3
2018-12-14 21:52:52.414870, 6.2
2018-12-14 21:52:53.316292, 6.3
2018-12-14 21:52:54.217746, 6.2
2018-12-14 21:52:55.119168, 6.2
2018-12-14 21:52:56.020612, 6.2
2018-12-14 21:52:56.922035, 6.2
2018-12-14 21:52:57.823483, 6.3
2018-12-14 21:52:58.724909, 6.2
2018-12-14 21:52:59.626348, 6.3
2018-12-14 21:53:00.527804, 6.2
2018-12-14 21:53:01.429224, 6.3
2018-12-14 21:53:02.330666, 6.2
2018-12-14 21:53:03.232091, 6.2
2018-12-14 21:53:04.133542, 6.2
2018-12-14 21:53:05.034968, 6.2
2018-12-14 21:53:05.936389, 6.3
2018-12-14 21:53:06.837838, 6.2
2018-12-14 21:53:07.739262, 6.3
2018-12-14 21:53:08.640713, 6.2
2018-12-14 21:53:09.542136, 6.2
2018-12-14 21:53:10.443581, 6.4
2018-12-14 21:53:11.345007, 6.2
2018-12-14 21:53:12.246461, 6.2
2018-12-14 21:53:13.147888, 6.2
2018-12-14 21:53:14.049306, 6.2
2018-12-14 21:53:14.950755, 6.3
2018-12-14 21:53:15.852175, 6.2
2018-12-14 21:53:16.753622, 6.2
2018-12-14 21:53:17.655043, 6.2
2018-12-14 21:53:18.556494, 6.2
2018-12-14 21:53:19.457757, 6.3
2018-12-14 21:53:20.359178, 6.2
2018-12-14 21:53:21.260621, 6.2
2018-12-14 21:53:22.162045, 6.3
2018-12-14 21:53:23.063498, 6.2
2018-12-14 21:53:23.964924, 6.2
2018-12-14 21:53:24.866342, 6.3
2018-12-14 21:53:25.767801, 6.2
2018-12-14 21:53:26.669221, 6.2
2018-12-14 21:53:27.570664, 6.2
2018-12-14 21:53:28.472088, 6.3
2018-12-14 21:53:29.373537, 6.2
2018-12-14 21:53:30.274958, 6.2
2018-12-14 21:53:31.176377, 6.2
2018-12-14 21:53:32.077830, 6.2
2018-12-14 21:53:32.979256, 6.2
2018-12-14 21:53:33.880704, 6.3
2018-12-14 21:53:34.782125, 6.2
2018-12-14 21:53:35.683567, 6.3
2018-12-14 21:53:36.584990, 6.2
2018-12-14 21:53:37.485761, 6.2
2018-12-14 21:53:38.387183, 6.2
2018-12-14 21:53:39.288623, 6.2
2018-12-14 21:53:40.190045, 6.4
2018-12-14 21:53:41.091498, 6.3
2018-12-14 21:53:41.992927, 6.2
2018-12-14 21:53:42.894353, 6.2
2018-12-14 21:53:43.795808, 6.2
2018-12-14 21:53:44.697237, 6.3
2018-12-14 21:53:45.598691, 6.2
2018-12-14 21:53:46.500110, 6.2
2018-12-14 21:53:47.401554, 6.2
2018-12-14 21:53:48.302979, 6.2
2018-12-14 21:53:49.204400, 6.3
2018-12-14 21:53:50.105853, 6.2
2018-12-14 21:53:51.007277, 6.2
2018-12-14 21:53:51.908727, 6.2
2018-12-14 21:53:52.810147, 6.3
2018-12-14 21:53:53.711579, 6.2
2018-12-14 21:53:54.612999, 6.2
2018-12-14 21:53:55.514447, 6.2
2018-12-14 21:53:56.415876, 6.2
2018-12-14 21:53:57.317299, 6.2
2018-12-14 21:53:58.218751, 6.3
2018-12-14 21:53:59.120173, 7.4
2018-12-14 21:54:00.020911, 11.7
2018-12-14 21:54:00.922567, 6.2
2018-12-14 21:54:01.823996, 6.3
2018-12-14 21:54:02.725419, 6.2
2018-12-14 21:54:03.626862, 6.2
2018-12-14 21:54:04.528284, 6.2
2018-12-14 21:54:05.429727, 6.3
2018-12-14 21:54:06.331147, 6.2
2018-12-14 21:54:07.232583, 6.2
2018-12-14 21:54:08.134005, 6.2
2018-12-14 21:54:09.035450, 6.2
2018-12-14 21:54:09.936873, 6.4
2018-12-14 21:54:10.838299, 6.2
2018-12-14 21:54:11.739755, 6.3
2018-12-14 21:54:12.641175, 6.2
2018-12-14 21:54:13.542621, 6.3
2018-12-14 21:54:14.444042, 6.2
2018-12-14 21:54:15.345496, 6.2
2018-12-14 21:54:16.246919, 6.2
2018-12-14 21:54:17.148341, 6.2
2018-12-14 21:54:18.049787, 6.2
2018-12-14 21:54:18.951208, 6.3
2018-12-14 21:54:19.852649, 6.2
2018-12-14 21:54:20.754072, 6.2
2018-12-14 21:54:21.655525, 6.2
2018-12-14 21:54:22.556947, 6.3
2018-12-14 21:54:23.457758, 6.2
2018-12-14 21:54:24.359177, 6.2
2018-12-14 21:54:25.260623, 6.3
2018-12-14 21:54:26.162045, 6.2
2018-12-14 21:54:27.063494, 6.2
2018-12-14 21:54:27.964918, 6.2
2018-12-14 21:54:28.866338, 6.2
2018-12-14 21:54:29.767792, 6.2
2018-12-14 21:54:30.669212, 6.2
2018-12-14 21:54:31.570655, 6.3
2018-12-14 21:54:32.472078, 6.2
2018-12-14 21:54:33.373529, 6.2
2018-12-14 21:54:34.274951, 6.2
2018-12-14 21:54:35.176374, 6.3
2018-12-14 21:54:36.077820, 6.2
2018-12-14 21:54:36.979247, 6.2
2018-12-14 21:54:37.880712, 6.3
2018-12-14 21:54:38.782129, 6.2
2018-12-14 21:54:39.683571, 6.2
2018-12-14 21:54:40.584993, 6.4
2018-12-14 21:54:41.485763, 6.3
2018-12-14 21:54:42.387186, 6.2
2018-12-14 21:54:43.288631, 6.2
2018-12-14 21:54:44.190056, 6.2
2018-12-14 21:54:45.091517, 6.2
2018-12-14 21:54:45.992939, 6.2
2018-12-14 21:54:46.894363, 6.3
2018-12-14 21:54:47.795814, 6.2
2018-12-14 21:54:48.697239, 6.2
2018-12-14 21:54:49.598708, 6.2
2018-12-14 21:54:50.500132, 6.3
2018-12-14 21:54:51.401573, 6.2
2018-12-14 21:54:52.302998, 6.2
2018-12-14 21:54:53.204449, 6.2
2018-12-14 21:54:54.105878, 6.3
2018-12-14 21:54:55.007302, 6.2
2018-12-14 21:54:55.908754, 6.2
2018-12-14 21:54:56.810178, 6.2
2018-12-14 21:54:57.711610, 6.2
2018-12-14 21:54:58.613030, 6.2
2018-12-14 21:54:59.514480, 6.3
2018-12-14 21:55:00.415903, 6.2
2018-12-14 21:55:01.317329, 6.2
2018-12-14 21:55:02.218784, 6.2
2018-12-14 21:55:03.120203, 6.2
2018-12-14 21:55:04.021644, 6.2
2018-12-14 21:55:04.923066, 6.3
2018-12-14 21:55:05.824514, 6.2
2018-12-14 21:55:06.725938, 6.2
2018-12-14 21:55:07.627359, 6.2
2018-12-14 21:55:08.528810, 6.3
2018-12-14 21:55:09.430231, 6.2
2018-12-14 21:55:10.331671, 6.4
2018-12-14 21:55:11.233097, 6.2
2018-12-14 21:55:12.134548, 6.2
2018-12-14 21:55:13.035973, 6.3
2018-12-14 21:55:13.937397, 6.2
2018-12-14 21:55:14.838849, 6.2
2018-12-14 21:55:15.740268, 6.2
2018-12-14 21:55:16.641721, 6.3
2018-12-14 21:55:17.543141, 6.2
2018-12-14 21:55:18.444587, 6.2
2018-12-14 21:55:19.346007, 6.2
2018-12-14 21:55:20.247464, 6.2
2018-12-14 21:55:21.148890, 6.2
2018-12-14 21:55:22.050314, 6.3
2018-12-14 21:55:22.951765, 6.2
2018-12-14 21:55:23.853185, 6.2
2018-12-14 21:55:24.754631, 6.3
2018-12-14 21:55:25.656052, 6.2
2018-12-14 21:55:26.557500, 6.2
2018-12-14 21:55:27.458926, 6.2
2018-12-14 21:55:28.360346, 6.3
2018-12-14 21:55:29.261796, 6.2
2018-12-14 21:55:30.163218, 6.2
2018-12-14 21:55:31.064656, 6.2
2018-12-14 21:55:31.966078, 6.2
2018-12-14 21:55:32.867530, 6.2
2018-12-14 21:55:33.768954, 6.3
2018-12-14 21:55:34.670377, 6.2
2018-12-14 21:55:35.571823, 6.3
2018-12-14 21:55:36.473247, 6.2
2018-12-14 21:55:37.374714, 6.3
2018-12-14 21:55:38.276133, 6.2
2018-12-14 21:55:39.177575, 6.2
2018-12-14 21:55:40.078991, 6.4
2018-12-14 21:55:40.980413, 6.2
2018-12-14 21:55:41.881864, 6.3
2018-12-14 21:55:42.783284, 6.2
2018-12-14 21:55:43.684827, 6.2
2018-12-14 21:55:44.586257, 6.4
2018-12-14 21:55:45.487709, 6.2
2018-12-14 21:55:46.389128, 6.2
2018-12-14 21:55:47.290572, 6.2
2018-12-14 21:55:48.191992, 6.2
2018-12-14 21:55:49.093419, 6.3
2018-12-14 21:55:49.994870, 6.3
2018-12-14 21:55:50.896294, 6.2
2018-12-14 21:55:51.797745, 6.2
2018-12-14 21:55:52.699169, 6.3
2018-12-14 21:55:53.600610, 6.2
2018-12-14 21:55:54.502034, 6.2
2018-12-14 21:55:55.403484, 6.2
2018-12-14 21:55:56.304906, 6.3
2018-12-14 21:55:57.206325, 6.2
2018-12-14 21:55:58.107781, 6.2
2018-12-14 21:55:59.009204, 6.2
2018-12-14 21:55:59.910647, 13.1
2018-12-14 21:56:00.812233, 6.3
2018-12-14 21:56:01.713698, 6.2
2018-12-14 21:56:02.615122, 6.2
2018-12-14 21:56:03.516559, 6.2
2018-12-14 21:56:04.417984, 6.2
2018-12-14 21:56:05.319406, 6.2
2018-12-14 21:56:06.220849, 6.2
2018-12-14 21:56:07.122273, 6.2
2018-12-14 21:56:08.023717, 6.3
2018-12-14 21:56:08.925142, 6.2
2018-12-14 21:56:09.826580, 6.3
2018-12-14 21:56:10.728002, 6.4
2018-12-14 21:56:11.629452, 6.2
2018-12-14 21:56:12.530878, 6.2
2018-12-14 21:56:13.432300, 6.3
2018-12-14 21:56:14.333755, 6.2
2018-12-14 21:56:15.235177, 6.2
2018-12-14 21:56:16.136620, 6.2
2018-12-14 21:56:17.038045, 6.3
2018-12-14 21:56:17.939500, 6.2
2018-12-14 21:56:18.840921, 6.2
2018-12-14 21:56:19.742344, 6.3
2018-12-14 21:56:20.643796, 6.2
2018-12-14 21:56:21.545218, 6.2
2018-12-14 21:56:22.446660, 6.3
2018-12-14 21:56:23.348079, 6.2
2018-12-14 21:56:24.249528, 6.2
2018-12-14 21:56:25.150952, 6.2
2018-12-14 21:56:26.052370, 6.2
2018-12-14 21:56:26.953821, 6.3
2018-12-14 21:56:27.855242, 6.2
2018-12-14 21:56:28.756716, 6.2
2018-12-14 21:56:29.658135, 6.2
2018-12-14 21:56:30.559580, 6.2
2018-12-14 21:56:31.461004, 6.3
2018-12-14 21:56:32.362456, 6.2
2018-12-14 21:56:33.263882, 6.2
2018-12-14 21:56:34.165309, 6.2
2018-12-14 21:56:35.066760, 6.3
2018-12-14 21:56:35.968181, 6.2
2018-12-14 21:56:36.869627, 6.3
2018-12-14 21:56:37.771049, 6.2
2018-12-14 21:56:38.671728, 6.2
2018-12-14 21:56:39.573151, 6.2
2018-12-14 21:56:40.474597, 6.4
2018-12-14 21:56:41.376021, 6.2
2018-12-14 21:56:42.277476, 6.2
2018-12-14 21:56:43.178900, 6.2
2018-12-14 21:56:44.080322, 6.2
2018-12-14 21:56:44.981777, 6.3
2018-12-14 21:56:45.883194, 6.2
2018-12-14 21:56:46.784637, 6.3
2018-12-14 21:56:47.685760, 6.2
2018-12-14 21:56:48.587179, 6.2
2018-12-14 21:56:49.488626, 6.2
2018-12-14 21:56:50.390049, 6.3
2018-12-14 21:56:51.291502, 6.2
2018-12-14 21:56:52.192930, 6.2
2018-12-14 21:56:53.094356, 6.3
2018-12-14 21:56:53.995806, 6.2
2018-12-14 21:56:54.897229, 6.2
2018-12-14 21:56:55.798666, 6.2
2018-12-14 21:56:56.700091, 6.3
2018-12-14 21:56:57.601539, 6.2
2018-12-14 21:56:58.502963, 6.3
2018-12-14 21:56:59.404385, 6.2
2018-12-14 21:57:00.305839, 6.3
2018-12-14 21:57:01.206781, 6.3
2018-12-14 21:57:02.108207, 6.2
2018-12-14 21:57:03.009648, 6.2
2018-12-14 21:57:03.911071, 6.2
2018-12-14 21:57:04.812522, 6.3
2018-12-14 21:57:05.713943, 6.2
2018-12-14 21:57:06.615362, 6.2
2018-12-14 21:57:07.516816, 6.2
2018-12-14 21:57:08.418233, 6.3
2018-12-14 21:57:09.319674, 6.2
2018-12-14 21:57:10.221096, 6.4
2018-12-14 21:57:11.122543, 6.3
2018-12-14 21:57:12.023969, 6.2
2018-12-14 21:57:12.925393, 6.2
2018-12-14 21:57:13.826842, 6.2
2018-12-14 21:57:14.728264, 6.2
2018-12-14 21:57:15.629710, 6.3
2018-12-14 21:57:16.531131, 6.2
2018-12-14 21:57:17.432577, 6.2
2018-12-14 21:57:18.333999, 6.2
2018-12-14 21:57:19.235420, 6.2
2018-12-14 21:57:20.136874, 6.2
2018-12-14 21:57:21.038296, 6.3
2018-12-14 21:57:21.939747, 6.2
2018-12-14 21:57:22.841168, 6.2
2018-12-14 21:57:23.742614, 6.2
2018-12-14 21:57:24.644037, 6.2
2018-12-14 21:57:25.545487, 6.2
2018-12-14 21:57:26.446907, 6.3
2018-12-14 21:57:27.348330, 6.2
2018-12-14 21:57:28.249780, 6.2
2018-12-14 21:57:29.151203, 6.3
2018-12-14 21:57:30.052647, 6.2
2018-12-14 21:57:30.954068, 6.2
2018-12-14 21:57:31.855522, 6.3
2018-12-14 21:57:32.756946, 6.2
2018-12-14 21:57:33.658367, 6.2
2018-12-14 21:57:34.559819, 6.2
2018-12-14 21:57:35.461243, 6.2
2018-12-14 21:57:36.362703, 6.2
2018-12-14 21:57:37.264124, 6.3
2018-12-14 21:57:38.165567, 6.2
2018-12-14 21:57:39.066989, 6.2
2018-12-14 21:57:39.968409, 6.4
2018-12-14 21:57:40.869878, 6.2
2018-12-14 21:57:41.771301, 6.2
2018-12-14 21:57:42.672753, 6.3
2018-12-14 21:57:43.574175, 6.2
2018-12-14 21:57:44.475623, 6.2
2018-12-14 21:57:45.377047, 6.2
2018-12-14 21:57:46.278500, 6.2
2018-12-14 21:57:47.179925, 6.2
2018-12-14 21:57:48.081345, 6.3
2018-12-14 21:57:48.982797, 6.2
2018-12-14 21:57:49.884215, 6.4
2018-12-14 21:57:50.785661, 6.2
2018-12-14 21:57:51.687084, 6.3
2018-12-14 21:57:52.588537, 6.2
2018-12-14 21:57:53.489961, 6.2
2018-12-14 21:57:54.391381, 6.2
2018-12-14 21:57:55.292833, 6.2
2018-12-14 21:57:56.194258, 6.2
2018-12-14 21:57:57.095707, 6.3
2018-12-14 21:57:57.997131, 6.2
2018-12-14 21:57:58.898578, 6.2
2018-12-14 21:57:59.800000, 12.9
2018-12-14 21:58:00.701603, 6.2
2018-12-14 21:58:01.603034, 6.2
2018-12-14 21:58:02.504481, 6.2
2018-12-14 21:58:03.405902, 6.3
2018-12-14 21:58:04.307323, 6.2
2018-12-14 21:58:05.208772, 6.3
2018-12-14 21:58:06.110191, 6.2
2018-12-14 21:58:07.011628, 6.2
2018-12-14 21:58:07.913050, 6.2
2018-12-14 21:58:08.814494, 6.2
2018-12-14 21:58:09.715917, 6.2
2018-12-14 21:58:10.617337, 6.4
2018-12-14 21:58:11.518796, 6.2
2018-12-14 21:58:12.420217, 6.3
2018-12-14 21:58:13.321657, 6.2
2018-12-14 21:58:14.223081, 6.3
2018-12-14 21:58:15.124533, 6.2
2018-12-14 21:58:16.025951, 6.2
2018-12-14 21:58:16.927381, 6.3
2018-12-14 21:58:17.828834, 6.2
2018-12-14 21:58:18.730256, 6.2
2018-12-14 21:58:19.631703, 6.2
2018-12-14 21:58:20.533122, 6.2
2018-12-14 21:58:21.434568, 6.2
2018-12-14 21:58:22.335990, 6.2
2018-12-14 21:58:23.237412, 6.3
2018-12-14 21:58:24.138861, 6.2
2018-12-14 21:58:25.040280, 6.2
2018-12-14 21:58:25.941732, 6.2
2018-12-14 21:58:26.843152, 6.2
2018-12-14 21:58:27.744594, 6.2
2018-12-14 21:58:28.646016, 6.2
2018-12-14 21:58:29.547465, 6.3
2018-12-14 21:58:30.448882, 6.2
2018-12-14 21:58:31.350303, 6.2
2018-12-14 21:58:32.251759, 6.2
2018-12-14 21:58:33.153184, 6.2
2018-12-14 21:58:34.054626, 6.3
2018-12-14 21:58:34.956045, 6.2
2018-12-14 21:58:35.857499, 6.3
2018-12-14 21:58:36.758926, 6.2
2018-12-14 21:58:37.660344, 6.3
2018-12-14 21:58:38.561796, 6.2
2018-12-14 21:58:39.463219, 6.2
2018-12-14 21:58:40.364662, 6.4
2018-12-14 21:58:41.266089, 6.3
2018-12-14 21:58:42.167535, 6.2
2018-12-14 21:58:43.068954, 6.2
2018-12-14 21:58:43.970378, 6.3
2018-12-14 21:58:44.871833, 6.2
2018-12-14 21:58:45.773256, 6.2
2018-12-14 21:58:46.674702, 6.2
2018-12-14 21:58:47.576123, 4.5
