time, cpu_percent
2018-12-12 10:29:20.503346, 100.0
2018-12-12 10:29:21.404706, 100.0
2018-12-12 10:29:22.306058, 100.0
2018-12-12 10:29:23.206573, 100.0
2018-12-12 10:29:24.107916, 100.0
2018-12-12 10:29:25.009228, 100.0
2018-12-12 10:29:25.910564, 100.0
2018-12-12 10:29:26.811913, 100.0
2018-12-12 10:29:27.713229, 100.0
2018-12-12 10:29:28.614584, 100.0
2018-12-12 10:29:29.515870, 100.0
2018-12-12 10:29:30.417200, 100.0
2018-12-12 10:29:31.318534, 100.0
2018-12-12 10:29:32.219863, 100.0
2018-12-12 10:29:33.121206, 100.0
2018-12-12 10:29:34.022580, 100.0
2018-12-12 10:29:34.923896, 100.0
2018-12-12 10:29:35.825258, 100.0
2018-12-12 10:29:36.726604, 100.0
2018-12-12 10:29:37.627954, 100.0
2018-12-12 10:29:38.529289, 100.0
2018-12-12 10:29:39.430590, 100.0
2018-12-12 10:29:40.331931, 100.0
2018-12-12 10:29:41.233283, 100.0
2018-12-12 10:29:42.134608, 100.0
2018-12-12 10:29:43.035958, 100.0
2018-12-12 10:29:43.937295, 100.0
2018-12-12 10:29:44.838601, 100.0
2018-12-12 10:29:45.739939, 100.0
2018-12-12 10:29:46.641273, 100.0
2018-12-12 10:29:47.542604, 100.0
2018-12-12 10:29:48.443913, 100.0
2018-12-12 10:29:49.345271, 100.0
2018-12-12 10:29:50.246562, 100.0
2018-12-12 10:29:51.147880, 100.0
2018-12-12 10:29:52.049214, 100.0
2018-12-12 10:29:52.950529, 100.0
2018-12-12 10:29:53.851833, 100.0
2018-12-12 10:29:54.753160, 100.0
2018-12-12 10:29:55.654496, 100.0
2018-12-12 10:29:56.555817, 100.0
2018-12-12 10:29:57.457170, 100.0
2018-12-12 10:29:58.358537, 100.0
2018-12-12 10:29:59.259867, 100.0
2018-12-12 10:30:00.161208, 100.0
2018-12-12 10:30:01.062530, 100.0
2018-12-12 10:30:01.963861, 100.0
2018-12-12 10:30:02.865206, 100.0
2018-12-12 10:30:03.766580, 100.0
2018-12-12 10:30:04.667907, 100.0
2018-12-12 10:30:05.569239, 100.0
2018-12-12 10:30:06.470576, 100.0
2018-12-12 10:30:07.371932, 100.0
2018-12-12 10:30:08.273287, 100.0
2018-12-12 10:30:09.174587, 100.0
2018-12-12 10:30:10.075902, 100.0
2018-12-12 10:30:10.977248, 100.0
2018-12-12 10:30:11.878577, 100.0
2018-12-12 10:30:12.779897, 100.0
2018-12-12 10:30:13.681222, 100.0
2018-12-12 10:30:14.582549, 100.0
2018-12-12 10:30:15.483866, 100.0
2018-12-12 10:30:16.385211, 100.0
2018-12-12 10:30:17.286532, 100.0
2018-12-12 10:30:18.187852, 100.0
2018-12-12 10:30:19.089191, 100.0
2018-12-12 10:30:19.990516, 100.0
2018-12-12 10:30:20.891834, 100.0
2018-12-12 10:30:21.793141, 100.0
2018-12-12 10:30:22.694468, 100.0
2018-12-12 10:30:23.595789, 100.0
2018-12-12 10:30:24.497111, 100.0
2018-12-12 10:30:25.398435, 100.0
2018-12-12 10:30:26.299758, 100.0
2018-12-12 10:30:27.203077, 100.0
2018-12-12 10:30:28.104435, 100.0
2018-12-12 10:30:29.005744, 100.0
2018-12-12 10:30:29.906572, 100.0
2018-12-12 10:30:30.807891, 100.0
2018-12-12 10:30:31.709215, 100.0
2018-12-12 10:30:32.610520, 100.0
2018-12-12 10:30:33.511832, 100.0
2018-12-12 10:30:34.413187, 100.0
2018-12-12 10:30:35.314612, 100.0
2018-12-12 10:30:36.215969, 100.0
2018-12-12 10:30:37.117284, 100.0
2018-12-12 10:30:38.018592, 100.0
2018-12-12 10:30:38.919922, 100.0
2018-12-12 10:30:39.821248, 100.0
2018-12-12 10:30:40.722579, 100.0
2018-12-12 10:30:41.623899, 100.0
2018-12-12 10:30:42.525239, 100.0
2018-12-12 10:30:43.426604, 100.0
2018-12-12 10:30:44.327989, 100.0
2018-12-12 10:30:45.229337, 100.0
2018-12-12 10:30:46.130592, 100.0
2018-12-12 10:30:47.031947, 100.0
2018-12-12 10:30:47.933280, 100.0
2018-12-12 10:30:48.834566, 100.0
2018-12-12 10:30:49.735874, 100.0
2018-12-12 10:30:50.637208, 100.0
2018-12-12 10:30:51.538597, 100.0
2018-12-12 10:30:52.439964, 100.0
2018-12-12 10:30:53.341303, 100.0
2018-12-12 10:30:54.242620, 100.0
2018-12-12 10:30:55.144004, 100.0
2018-12-12 10:30:56.045331, 100.0
2018-12-12 10:30:56.946599, 100.0
2018-12-12 10:30:57.847923, 100.0
2018-12-12 10:30:58.749249, 100.0
2018-12-12 10:30:59.650590, 100.0
2018-12-12 10:31:00.551935, 100.0
2018-12-12 10:31:01.453259, 100.0
2018-12-12 10:31:02.354596, 100.0
2018-12-12 10:31:03.255942, 100.0
2018-12-12 10:31:04.157280, 100.0
2018-12-12 10:31:05.058621, 100.0
2018-12-12 10:31:05.959956, 100.0
2018-12-12 10:31:06.861271, 100.0
2018-12-12 10:31:07.762585, 100.0
2018-12-12 10:31:08.663899, 100.0
2018-12-12 10:31:09.565216, 100.0
2018-12-12 10:31:10.466544, 100.0
2018-12-12 10:31:11.367873, 100.0
2018-12-12 10:31:12.269205, 100.0
2018-12-12 10:31:13.170533, 100.0
2018-12-12 10:31:14.071855, 100.0
2018-12-12 10:31:14.973176, 100.0
2018-12-12 10:31:15.874519, 100.0
2018-12-12 10:31:16.775835, 100.0
2018-12-12 10:31:17.677158, 100.0
2018-12-12 10:31:18.578503, 100.0
2018-12-12 10:31:19.479845, 100.0
2018-12-12 10:31:20.381189, 100.0
2018-12-12 10:31:21.282547, 100.0
2018-12-12 10:31:22.183858, 100.0
2018-12-12 10:31:23.085138, 100.0
2018-12-12 10:31:23.986482, 100.0
2018-12-12 10:31:24.887783, 100.0
2018-12-12 10:31:25.789106, 100.0
2018-12-12 10:31:26.690433, 100.0
2018-12-12 10:31:27.591777, 100.0
2018-12-12 10:31:28.493122, 100.0
2018-12-12 10:31:29.394464, 100.0
2018-12-12 10:31:30.295808, 100.0
2018-12-12 10:31:31.197190, 100.0
2018-12-12 10:31:32.098508, 100.0
2018-12-12 10:31:32.999849, 100.0
2018-12-12 10:31:33.901175, 100.0
2018-12-12 10:31:34.802574, 100.0
2018-12-12 10:31:35.703924, 100.0
2018-12-12 10:31:36.605256, 100.0
2018-12-12 10:31:37.506661, 100.0
2018-12-12 10:31:38.408027, 100.0
2018-12-12 10:31:39.309348, 100.0
2018-12-12 10:31:40.210598, 100.0
2018-12-12 10:31:41.111943, 100.0
2018-12-12 10:31:42.013259, 100.0
2018-12-12 10:31:42.914606, 100.0
2018-12-12 10:31:43.815939, 100.0
2018-12-12 10:31:44.717256, 100.0
2018-12-12 10:31:45.618624, 100.0
2018-12-12 10:31:46.519997, 100.0
2018-12-12 10:31:47.421324, 100.0
2018-12-12 10:31:48.322558, 100.0
2018-12-12 10:31:49.223876, 100.0
2018-12-12 10:31:50.125191, 100.0
2018-12-12 10:31:51.026512, 100.0
2018-12-12 10:31:51.927867, 100.0
2018-12-12 10:31:52.829164, 100.0
2018-12-12 10:31:53.730496, 100.0
2018-12-12 10:31:54.631822, 100.0
2018-12-12 10:31:55.533164, 100.0
2018-12-12 10:31:56.434510, 100.0
2018-12-12 10:31:57.335820, 100.0
2018-12-12 10:31:58.237166, 100.0
2018-12-12 10:31:59.138526, 100.0
2018-12-12 10:32:00.039864, 100.0
2018-12-12 10:32:00.941173, 100.0
2018-12-12 10:32:01.842534, 100.0
2018-12-12 10:32:02.743868, 100.0
2018-12-12 10:32:03.645201, 100.0
2018-12-12 10:32:04.546524, 100.0
2018-12-12 10:32:05.447862, 100.0
2018-12-12 10:32:06.349173, 100.0
2018-12-12 10:32:07.250535, 100.0
2018-12-12 10:32:08.151870, 100.0
2018-12-12 10:32:09.053215, 100.0
2018-12-12 10:32:09.954560, 100.0
2018-12-12 10:32:10.855896, 100.0
2018-12-12 10:32:11.757228, 100.0
2018-12-12 10:32:12.658567, 100.0
2018-12-12 10:32:13.559883, 100.0
2018-12-12 10:32:14.461214, 100.0
2018-12-12 10:32:15.362534, 100.0
2018-12-12 10:32:16.263840, 100.0
2018-12-12 10:32:17.165181, 100.0
2018-12-12 10:32:18.066540, 100.0
2018-12-12 10:32:18.967872, 100.0
2018-12-12 10:32:19.869198, 100.0
2018-12-12 10:32:20.770562, 100.0
2018-12-12 10:32:21.671877, 100.0
2018-12-12 10:32:22.573216, 100.0
2018-12-12 10:32:23.474545, 100.0
2018-12-12 10:32:24.375875, 100.0
2018-12-12 10:32:25.277273, 100.0
2018-12-12 10:32:26.178582, 100.0
2018-12-12 10:32:27.079893, 100.0
2018-12-12 10:32:27.981229, 100.0
2018-12-12 10:32:28.882561, 100.0
2018-12-12 10:32:29.783888, 100.0
2018-12-12 10:32:30.685217, 100.0
2018-12-12 10:32:31.586555, 100.0
2018-12-12 10:32:32.487892, 100.0
2018-12-12 10:32:33.389229, 100.0
2018-12-12 10:32:34.290563, 100.0
2018-12-12 10:32:35.191906, 100.0
2018-12-12 10:32:36.093242, 100.0
2018-12-12 10:32:36.994588, 100.0
2018-12-12 10:32:37.895927, 100.0
2018-12-12 10:32:38.797282, 100.0
2018-12-12 10:32:39.698610, 100.0
2018-12-12 10:32:40.599987, 100.0
2018-12-12 10:32:41.501284, 100.0
2018-12-12 10:32:42.402619, 100.0
2018-12-12 10:32:43.303939, 100.0
2018-12-12 10:32:44.205242, 100.0
2018-12-12 10:32:45.106579, 100.0
2018-12-12 10:32:46.007883, 100.0
2018-12-12 10:32:46.909218, 100.0
2018-12-12 10:32:47.810568, 100.0
2018-12-12 10:32:48.711909, 100.0
2018-12-12 10:32:49.613254, 100.0
2018-12-12 10:32:50.514589, 100.0
2018-12-12 10:32:51.415918, 100.0
2018-12-12 10:32:52.317246, 100.0
2018-12-12 10:32:53.218577, 100.0
2018-12-12 10:32:54.119902, 100.0
2018-12-12 10:32:55.021234, 100.0
2018-12-12 10:32:55.922542, 100.0
2018-12-12 10:32:56.823877, 100.0
2018-12-12 10:32:57.728202, 100.0
2018-12-12 10:32:58.629527, 100.0
2018-12-12 10:32:59.530589, 100.0
2018-12-12 10:33:00.431939, 100.0
2018-12-12 10:33:01.333290, 100.0
2018-12-12 10:33:02.234601, 100.0
2018-12-12 10:33:03.135927, 100.0
2018-12-12 10:33:04.037262, 100.0
2018-12-12 10:33:04.938590, 100.0
2018-12-12 10:33:05.839907, 100.0
2018-12-12 10:33:06.741252, 100.0
2018-12-12 10:33:07.642579, 100.0
2018-12-12 10:33:08.543918, 100.0
2018-12-12 10:33:09.445249, 100.0
2018-12-12 10:33:10.346575, 100.0
2018-12-12 10:33:11.247888, 100.0
2018-12-12 10:33:12.149230, 100.0
2018-12-12 10:33:13.050571, 100.0
2018-12-12 10:33:13.951881, 100.0
2018-12-12 10:33:14.853206, 100.0
2018-12-12 10:33:15.754533, 100.0
2018-12-12 10:33:16.655873, 100.0
2018-12-12 10:33:17.557215, 100.0
2018-12-12 10:33:18.458536, 100.0
2018-12-12 10:33:19.359870, 100.0
2018-12-12 10:33:20.261209, 100.0
2018-12-12 10:33:21.162576, 100.0
2018-12-12 10:33:22.063934, 100.0
2018-12-12 10:33:22.965311, 100.0
2018-12-12 10:33:23.866585, 100.0
2018-12-12 10:33:24.767910, 100.0
2018-12-12 10:33:25.669279, 100.0
2018-12-12 10:33:26.570576, 100.0
2018-12-12 10:33:27.471914, 100.0
2018-12-12 10:33:28.373244, 100.0
2018-12-12 10:33:29.274590, 100.0
2018-12-12 10:33:30.175912, 100.0
2018-12-12 10:33:31.077228, 100.0
2018-12-12 10:33:31.978567, 100.0
2018-12-12 10:33:32.879915, 100.0
2018-12-12 10:33:33.781262, 100.0
2018-12-12 10:33:34.682588, 100.0
2018-12-12 10:33:35.583920, 100.0
2018-12-12 10:33:36.485248, 100.0
2018-12-12 10:33:37.386572, 100.0
2018-12-12 10:33:38.287927, 100.0
2018-12-12 10:33:39.189264, 100.0
2018-12-12 10:33:40.090581, 100.0
2018-12-12 10:33:40.991917, 100.0
2018-12-12 10:33:41.893255, 100.0
2018-12-12 10:33:42.794601, 100.0
2018-12-12 10:33:43.695938, 100.0
2018-12-12 10:33:44.597243, 100.0
2018-12-12 10:33:45.498598, 100.0
2018-12-12 10:33:46.399945, 100.0
2018-12-12 10:33:47.301261, 100.0
2018-12-12 10:33:48.202594, 100.0
2018-12-12 10:33:49.103952, 100.0
2018-12-12 10:33:50.005301, 100.0
2018-12-12 10:33:50.906617, 100.0
2018-12-12 10:33:51.807946, 100.0
2018-12-12 10:33:52.709274, 100.0
2018-12-12 10:33:53.610598, 100.0
2018-12-12 10:33:54.511943, 100.0
2018-12-12 10:33:55.413273, 100.0
2018-12-12 10:33:56.314607, 100.0
2018-12-12 10:33:57.215938, 100.0
2018-12-12 10:33:58.117293, 100.0
2018-12-12 10:33:59.018639, 100.0
2018-12-12 10:33:59.919961, 100.0
2018-12-12 10:34:00.821317, 100.0
2018-12-12 10:34:01.722540, 100.0
2018-12-12 10:34:02.623878, 100.0
2018-12-12 10:34:03.525228, 100.0
2018-12-12 10:34:04.426584, 100.0
2018-12-12 10:34:05.327910, 100.0
2018-12-12 10:34:06.229259, 100.0
2018-12-12 10:34:07.130586, 100.0
2018-12-12 10:34:08.031942, 100.0
2018-12-12 10:34:08.933247, 100.0
2018-12-12 10:34:09.834587, 100.0
2018-12-12 10:34:10.735926, 100.0
2018-12-12 10:34:11.637295, 100.0
2018-12-12 10:34:12.538589, 100.0
2018-12-12 10:34:13.439935, 100.0
2018-12-12 10:34:14.341243, 100.0
2018-12-12 10:34:15.242553, 100.0
2018-12-12 10:34:16.143878, 100.0
2018-12-12 10:34:17.045217, 100.0
2018-12-12 10:34:17.946523, 100.0
2018-12-12 10:34:18.847839, 100.0
2018-12-12 10:34:19.749127, 100.0
2018-12-12 10:34:20.650482, 100.0
2018-12-12 10:34:21.551822, 100.0
2018-12-12 10:34:22.453132, 100.0
2018-12-12 10:34:23.354461, 100.0
2018-12-12 10:34:24.255793, 100.0
2018-12-12 10:34:25.157112, 100.0
2018-12-12 10:34:26.058490, 100.0
2018-12-12 10:34:26.959824, 100.0
2018-12-12 10:34:27.861162, 100.0
2018-12-12 10:34:28.762520, 100.0
2018-12-12 10:34:29.663824, 100.0
2018-12-12 10:34:30.565204, 100.0
2018-12-12 10:34:31.466549, 100.0
2018-12-12 10:34:32.367877, 100.0
2018-12-12 10:34:33.269219, 100.0
2018-12-12 10:34:34.170579, 100.0
2018-12-12 10:34:35.071916, 100.0
2018-12-12 10:34:35.973275, 100.0
2018-12-12 10:34:36.874603, 100.0
2018-12-12 10:34:37.775909, 100.0
2018-12-12 10:34:38.677221, 100.0
2018-12-12 10:34:39.578553, 100.0
2018-12-12 10:34:40.479867, 100.0
2018-12-12 10:34:41.381232, 100.0
2018-12-12 10:34:42.282615, 100.0
2018-12-12 10:34:43.183944, 100.0
2018-12-12 10:34:44.085279, 100.0
2018-12-12 10:34:44.986575, 100.0
2018-12-12 10:34:45.887895, 100.0
2018-12-12 10:34:46.789244, 100.0
2018-12-12 10:34:47.690595, 100.0
2018-12-12 10:34:48.591893, 100.0
2018-12-12 10:34:49.493222, 100.0
2018-12-12 10:34:50.394578, 100.0
2018-12-12 10:34:51.295907, 100.0
2018-12-12 10:34:52.197251, 100.0
2018-12-12 10:34:53.098605, 100.0
2018-12-12 10:34:53.999945, 100.0
2018-12-12 10:34:54.901235, 100.0
2018-12-12 10:34:55.802577, 100.0
2018-12-12 10:34:56.703911, 100.0
2018-12-12 10:34:57.605240, 100.0
2018-12-12 10:34:58.506554, 100.0
2018-12-12 10:34:59.407896, 100.0
2018-12-12 10:35:00.309241, 100.0
2018-12-12 10:35:01.210569, 100.0
2018-12-12 10:35:02.111896, 100.0
2018-12-12 10:35:03.013245, 100.0
2018-12-12 10:35:03.914606, 100.0
2018-12-12 10:35:04.815908, 100.0
2018-12-12 10:35:05.717252, 100.0
2018-12-12 10:35:06.618589, 100.0
2018-12-12 10:35:07.519924, 100.0
2018-12-12 10:35:08.421282, 100.0
2018-12-12 10:35:09.322620, 100.0
2018-12-12 10:35:10.223952, 100.0
2018-12-12 10:35:11.125300, 100.0
2018-12-12 10:35:12.026582, 100.0
2018-12-12 10:35:12.927916, 100.0
2018-12-12 10:35:13.829277, 100.0
2018-12-12 10:35:14.730576, 100.0
2018-12-12 10:35:15.631915, 100.0
2018-12-12 10:35:16.533261, 100.0
2018-12-12 10:35:17.434604, 100.0
2018-12-12 10:35:18.335954, 100.0
2018-12-12 10:35:19.237284, 100.0
2018-12-12 10:35:20.138600, 100.0
2018-12-12 10:35:21.039937, 100.0
2018-12-12 10:35:21.941274, 100.0
2018-12-12 10:35:22.842589, 100.0
2018-12-12 10:35:23.743921, 100.0
2018-12-12 10:35:24.645264, 100.0
2018-12-12 10:35:25.546584, 100.0
2018-12-12 10:35:26.447935, 100.0
2018-12-12 10:35:27.349278, 100.0
2018-12-12 10:35:28.250658, 100.0
2018-12-12 10:35:29.151977, 100.0
2018-12-12 10:35:30.053311, 100.0
2018-12-12 10:35:30.954559, 100.0
2018-12-12 10:35:31.855882, 100.0
2018-12-12 10:35:32.757223, 100.0
2018-12-12 10:35:33.658583, 100.0
2018-12-12 10:35:34.559927, 100.0
2018-12-12 10:35:35.461260, 100.0
2018-12-12 10:35:36.362587, 100.0
2018-12-12 10:35:37.263912, 100.0
2018-12-12 10:35:38.165270, 100.0
2018-12-12 10:35:39.066614, 100.0
2018-12-12 10:35:39.967933, 100.0
2018-12-12 10:35:40.869237, 100.0
2018-12-12 10:35:41.770587, 100.0
2018-12-12 10:35:42.671922, 100.0
2018-12-12 10:35:43.573265, 100.0
2018-12-12 10:35:44.474585, 100.0
2018-12-12 10:35:45.375911, 100.0
2018-12-12 10:35:46.277249, 100.0
2018-12-12 10:35:47.178549, 100.0
2018-12-12 10:35:48.079889, 100.0
2018-12-12 10:35:48.981239, 100.0
2018-12-12 10:35:49.882521, 100.0
2018-12-12 10:35:50.783834, 100.0
2018-12-12 10:35:51.685185, 100.0
2018-12-12 10:35:52.586558, 100.0
2018-12-12 10:35:53.487868, 100.0
2018-12-12 10:35:54.389203, 100.0
2018-12-12 10:35:55.290532, 100.0
2018-12-12 10:35:56.191833, 100.0
2018-12-12 10:35:57.093146, 100.0
2018-12-12 10:35:57.994516, 100.0
2018-12-12 10:35:58.895866, 100.0
2018-12-12 10:35:59.797177, 100.0
2018-12-12 10:36:00.698519, 100.0
2018-12-12 10:36:01.599861, 100.0
2018-12-12 10:36:02.501188, 100.0
2018-12-12 10:36:03.402560, 100.0
2018-12-12 10:36:04.303873, 100.0
2018-12-12 10:36:05.205184, 100.0
2018-12-12 10:36:06.106544, 100.0
2018-12-12 10:36:07.007887, 100.0
2018-12-12 10:36:07.909237, 100.0
2018-12-12 10:36:08.810565, 100.0
2018-12-12 10:36:09.711905, 100.0
2018-12-12 10:36:10.613245, 100.0
2018-12-12 10:36:11.514586, 100.0
2018-12-12 10:36:12.415928, 100.0
2018-12-12 10:36:13.317255, 100.0
2018-12-12 10:36:14.218599, 100.0
2018-12-12 10:36:15.119965, 100.0
2018-12-12 10:36:16.021288, 100.0
2018-12-12 10:36:16.922601, 100.0
2018-12-12 10:36:17.823932, 100.0
2018-12-12 10:36:18.725234, 100.0
2018-12-12 10:36:19.626580, 100.0
2018-12-12 10:36:20.527876, 100.0
2018-12-12 10:36:21.429232, 100.0
2018-12-12 10:36:22.330599, 100.0
2018-12-12 10:36:23.231949, 100.0
2018-12-12 10:36:24.133287, 100.0
2018-12-12 10:36:25.034618, 100.0
2018-12-12 10:36:25.935950, 100.0
2018-12-12 10:36:26.837312, 100.0
2018-12-12 10:36:27.738609, 100.0
2018-12-12 10:36:28.639942, 100.0
2018-12-12 10:36:29.541292, 100.0
2018-12-12 10:36:30.442611, 100.0
2018-12-12 10:36:31.343978, 100.0
2018-12-12 10:36:32.245319, 100.0
2018-12-12 10:36:33.146593, 100.0
2018-12-12 10:36:34.047969, 100.0
