time, cpu_percent
2018-12-12 14:44:16.879792, 100.0
2018-12-12 14:44:17.781151, 100.0
2018-12-12 14:44:18.682512, 100.0
2018-12-12 14:44:19.583837, 100.0
2018-12-12 14:44:20.485198, 100.0
2018-12-12 14:44:21.386588, 100.0
2018-12-12 14:44:22.287903, 100.0
2018-12-12 14:44:23.189229, 100.0
2018-12-12 14:44:24.090565, 100.0
2018-12-12 14:44:24.991888, 100.0
2018-12-12 14:44:25.893209, 100.0
2018-12-12 14:44:26.794515, 100.0
2018-12-12 14:44:27.695837, 100.0
2018-12-12 14:44:28.597211, 100.0
2018-12-12 14:44:29.498536, 100.0
2018-12-12 14:44:30.399870, 100.0
2018-12-12 14:44:31.301199, 100.0
2018-12-12 14:44:32.202530, 100.0
2018-12-12 14:44:33.103860, 100.0
2018-12-12 14:44:34.005180, 100.0
2018-12-12 14:44:34.906514, 100.0
2018-12-12 14:44:35.807883, 100.0
2018-12-12 14:44:36.709255, 100.0
2018-12-12 14:44:37.610580, 100.0
2018-12-12 14:44:38.511907, 100.0
2018-12-12 14:44:39.413239, 100.0
2018-12-12 14:44:40.315079, 100.0
2018-12-12 14:44:41.216422, 100.0
2018-12-12 14:44:42.117758, 100.0
2018-12-12 14:44:43.018565, 100.0
2018-12-12 14:44:43.919901, 100.0
2018-12-12 14:44:44.821224, 100.0
2018-12-12 14:44:45.722566, 100.0
2018-12-12 14:44:46.623898, 100.0
2018-12-12 14:44:47.525243, 100.0
2018-12-12 14:44:48.426589, 100.0
2018-12-12 14:44:49.327911, 100.0
2018-12-12 14:44:50.229253, 100.0
2018-12-12 14:44:51.130577, 100.0
2018-12-12 14:44:52.031923, 100.0
2018-12-12 14:44:52.933253, 100.0
2018-12-12 14:44:53.834585, 100.0
2018-12-12 14:44:54.735913, 100.0
2018-12-12 14:44:55.637216, 100.0
2018-12-12 14:44:56.538538, 100.0
2018-12-12 14:44:57.439874, 100.0
2018-12-12 14:44:58.341186, 100.0
2018-12-12 14:44:59.242521, 100.0
2018-12-12 14:45:00.143854, 100.0
2018-12-12 14:45:01.045187, 100.0
2018-12-12 14:45:01.946556, 100.0
2018-12-12 14:45:02.847877, 100.0
2018-12-12 14:45:03.749188, 100.0
2018-12-12 14:45:04.650547, 100.0
2018-12-12 14:45:05.551935, 100.0
2018-12-12 14:45:06.453260, 100.0
2018-12-12 14:45:07.354578, 100.0
2018-12-12 14:45:08.255920, 100.0
2018-12-12 14:45:09.157265, 100.0
2018-12-12 14:45:10.058576, 100.0
2018-12-12 14:45:10.959903, 100.0
2018-12-12 14:45:11.861247, 100.0
2018-12-12 14:45:12.762578, 100.0
2018-12-12 14:45:13.663912, 100.0
2018-12-12 14:45:14.565252, 100.0
2018-12-12 14:45:15.466562, 100.0
2018-12-12 14:45:16.367889, 100.0
2018-12-12 14:45:17.269357, 100.0
2018-12-12 14:45:18.170580, 100.0
2018-12-12 14:45:19.071954, 100.0
2018-12-12 14:45:19.973282, 100.0
2018-12-12 14:45:20.874593, 100.0
2018-12-12 14:45:21.775930, 100.0
2018-12-12 14:45:22.677275, 100.0
2018-12-12 14:45:23.578611, 100.0
2018-12-12 14:45:24.479934, 100.0
2018-12-12 14:45:25.381262, 100.0
2018-12-12 14:45:26.282585, 100.0
2018-12-12 14:45:27.183969, 100.0
2018-12-12 14:45:28.085464, 100.0
2018-12-12 14:45:28.986581, 100.0
2018-12-12 14:45:29.887899, 100.0
2018-12-12 14:45:30.789218, 100.0
2018-12-12 14:45:31.694028, 100.0
2018-12-12 14:45:32.594731, 100.0
2018-12-12 14:45:33.496095, 100.0
2018-12-12 14:45:34.397430, 100.0
2018-12-12 14:45:35.298580, 100.0
2018-12-12 14:45:36.199910, 100.0
2018-12-12 14:45:37.101246, 100.0
2018-12-12 14:45:38.002600, 100.0
2018-12-12 14:45:38.903935, 100.0
2018-12-12 14:45:39.805242, 100.0
2018-12-12 14:45:40.706553, 100.0
2018-12-12 14:45:41.607880, 100.0
2018-12-12 14:45:42.509214, 100.0
2018-12-12 14:45:43.410555, 100.0
2018-12-12 14:45:44.311876, 100.0
2018-12-12 14:45:45.213220, 100.0
2018-12-12 14:45:46.114591, 100.0
2018-12-12 14:45:47.015915, 100.0
2018-12-12 14:45:47.917238, 100.0
2018-12-12 14:45:48.818583, 100.0
2018-12-12 14:45:49.719903, 100.0
2018-12-12 14:45:50.621235, 100.0
2018-12-12 14:45:51.522563, 100.0
2018-12-12 14:45:52.423894, 100.0
2018-12-12 14:45:53.325223, 100.0
2018-12-12 14:45:54.226586, 100.0
2018-12-12 14:45:55.127957, 100.0
2018-12-12 14:45:56.029289, 100.0
2018-12-12 14:45:56.930606, 100.0
2018-12-12 14:45:57.831923, 100.0
2018-12-12 14:45:58.733231, 100.0
2018-12-12 14:45:59.634564, 100.0
2018-12-12 14:46:00.535889, 100.0
2018-12-12 14:46:01.437215, 100.0
2018-12-12 14:46:02.338557, 100.0
2018-12-12 14:46:03.239914, 100.0
2018-12-12 14:46:04.141236, 100.0
2018-12-12 14:46:05.042563, 100.0
2018-12-12 14:46:05.943897, 100.0
2018-12-12 14:46:06.845227, 100.0
2018-12-12 14:46:07.746554, 100.0
2018-12-12 14:46:08.650197, 100.0
2018-12-12 14:46:09.550569, 100.0
2018-12-12 14:46:10.451901, 100.0
2018-12-12 14:46:11.353223, 100.0
2018-12-12 14:46:12.254561, 100.0
2018-12-12 14:46:13.155893, 100.0
2018-12-12 14:46:14.057223, 100.0
2018-12-12 14:46:14.958556, 100.0
2018-12-12 14:46:15.859911, 100.0
2018-12-12 14:46:16.761295, 100.0
2018-12-12 14:46:17.662588, 100.0
2018-12-12 14:46:18.563944, 100.0
2018-12-12 14:46:19.465280, 100.0
2018-12-12 14:46:20.366596, 100.0
2018-12-12 14:46:21.267944, 100.0
2018-12-12 14:46:22.169265, 100.0
2018-12-12 14:46:23.070601, 100.0
2018-12-12 14:46:23.971991, 100.0
2018-12-12 14:46:24.873326, 100.0
2018-12-12 14:46:25.774583, 100.0
2018-12-12 14:46:26.675900, 100.0
2018-12-12 14:46:27.577228, 100.0
2018-12-12 14:46:28.478568, 100.0
2018-12-12 14:46:29.379907, 100.0
2018-12-12 14:46:30.281253, 100.0
2018-12-12 14:46:31.182587, 100.0
2018-12-12 14:46:32.083933, 100.0
2018-12-12 14:46:32.985259, 100.0
2018-12-12 14:46:33.886599, 100.0
2018-12-12 14:46:34.787902, 100.0
2018-12-12 14:46:35.689229, 100.0
2018-12-12 14:46:36.590548, 100.0
2018-12-12 14:46:37.491901, 100.0
2018-12-12 14:46:38.393288, 100.0
2018-12-12 14:46:39.294603, 100.0
2018-12-12 14:46:40.195916, 100.0
2018-12-12 14:46:41.097252, 100.0
2018-12-12 14:46:41.998587, 100.0
2018-12-12 14:46:42.899898, 100.0
2018-12-12 14:46:43.801221, 100.0
2018-12-12 14:46:44.702571, 100.0
2018-12-12 14:46:45.603935, 100.0
2018-12-12 14:46:46.505279, 100.0
2018-12-12 14:46:47.406582, 100.0
2018-12-12 14:46:48.307915, 100.0
2018-12-12 14:46:49.209235, 100.0
2018-12-12 14:46:50.110585, 100.0
2018-12-12 14:46:51.011922, 100.0
2018-12-12 14:46:51.913255, 100.0
2018-12-12 14:46:52.814618, 100.0
2018-12-12 14:46:53.715928, 100.0
2018-12-12 14:46:54.617236, 100.0
2018-12-12 14:46:55.518532, 100.0
2018-12-12 14:46:56.419883, 100.0
2018-12-12 14:46:57.321206, 100.0
2018-12-12 14:46:58.222507, 100.0
2018-12-12 14:46:59.123785, 100.0
2018-12-12 14:47:00.025121, 100.0
2018-12-12 14:47:00.926495, 100.0
2018-12-12 14:47:01.827834, 100.0
2018-12-12 14:47:02.729169, 100.0
2018-12-12 14:47:03.630491, 100.0
2018-12-12 14:47:04.531820, 100.0
2018-12-12 14:47:05.433170, 100.0
2018-12-12 14:47:06.334529, 100.0
2018-12-12 14:47:07.235870, 100.0
2018-12-12 14:47:08.137200, 100.0
2018-12-12 14:47:09.038545, 100.0
2018-12-12 14:47:09.939919, 100.0
2018-12-12 14:47:10.841269, 100.0
2018-12-12 14:47:11.742582, 100.0
2018-12-12 14:47:12.643928, 100.0
2018-12-12 14:47:13.545280, 100.0
2018-12-12 14:47:14.446627, 100.0
2018-12-12 14:47:15.347943, 100.0
2018-12-12 14:47:16.248599, 100.0
2018-12-12 14:47:17.149901, 100.0
2018-12-12 14:47:18.050585, 100.0
2018-12-12 14:47:18.951930, 100.0
2018-12-12 14:47:19.853268, 100.0
2018-12-12 14:47:20.754600, 100.0
2018-12-12 14:47:21.655959, 100.0
2018-12-12 14:47:22.557289, 100.0
2018-12-12 14:47:23.458598, 100.0
2018-12-12 14:47:24.359918, 100.0
2018-12-12 14:47:25.261251, 100.0
2018-12-12 14:47:26.162600, 100.0
2018-12-12 14:47:27.063966, 100.0
2018-12-12 14:47:27.965296, 100.0
2018-12-12 14:47:28.866570, 100.0
2018-12-12 14:47:29.767894, 100.0
2018-12-12 14:47:30.669229, 100.0
2018-12-12 14:47:31.570567, 100.0
2018-12-12 14:47:32.471896, 100.0
2018-12-12 14:47:33.373232, 100.0
2018-12-12 14:47:34.274561, 100.0
2018-12-12 14:47:35.175903, 100.0
2018-12-12 14:47:36.077281, 100.0
2018-12-12 14:47:36.978579, 100.0
2018-12-12 14:47:37.879928, 100.0
2018-12-12 14:47:38.781228, 100.0
2018-12-12 14:47:39.682564, 100.0
2018-12-12 14:47:40.583937, 100.0
2018-12-12 14:47:41.485252, 100.0
2018-12-12 14:47:42.386576, 100.0
2018-12-12 14:47:43.287916, 100.0
2018-12-12 14:47:44.189247, 100.0
2018-12-12 14:47:45.090598, 100.0
2018-12-12 14:47:45.991938, 100.0
2018-12-12 14:47:46.893281, 100.0
2018-12-12 14:47:47.794597, 100.0
2018-12-12 14:47:48.695931, 100.0
2018-12-12 14:47:49.597285, 100.0
2018-12-12 14:47:50.498579, 100.0
2018-12-12 14:47:51.399912, 100.0
2018-12-12 14:47:52.301251, 100.0
2018-12-12 14:47:53.202587, 100.0
2018-12-12 14:47:54.104026, 100.0
2018-12-12 14:47:55.005383, 100.0
2018-12-12 14:47:55.906606, 100.0
2018-12-12 14:47:56.807946, 100.0
2018-12-12 14:47:57.709299, 100.0
2018-12-12 14:47:58.610595, 100.0
2018-12-12 14:47:59.511946, 100.0
2018-12-12 14:48:00.413273, 100.0
2018-12-12 14:48:01.314662, 100.0
2018-12-12 14:48:02.216025, 100.0
2018-12-12 14:48:03.117363, 100.0
2018-12-12 14:48:04.018584, 100.0
2018-12-12 14:48:04.919927, 100.0
2018-12-12 14:48:05.821264, 100.0
2018-12-12 14:48:06.722595, 100.0
2018-12-12 14:48:07.623914, 100.0
2018-12-12 14:48:08.525238, 100.0
2018-12-12 14:48:09.426557, 100.0
2018-12-12 14:48:10.327904, 100.0
2018-12-12 14:48:11.229256, 100.0
2018-12-12 14:48:12.130596, 100.0
2018-12-12 14:48:13.031938, 100.0
2018-12-12 14:48:13.933286, 100.0
2018-12-12 14:48:14.834616, 100.0
2018-12-12 14:48:15.735935, 100.0
2018-12-12 14:48:16.637268, 100.0
2018-12-12 14:48:17.538567, 100.0
2018-12-12 14:48:18.439888, 100.0
2018-12-12 14:48:19.341223, 100.0
2018-12-12 14:48:20.242559, 100.0
2018-12-12 14:48:21.143866, 100.0
2018-12-12 14:48:22.045188, 100.0
2018-12-12 14:48:22.946537, 100.0
2018-12-12 14:48:23.847866, 100.0
2018-12-12 14:48:24.749194, 100.0
2018-12-12 14:48:25.650532, 100.0
2018-12-12 14:48:26.551881, 100.0
2018-12-12 14:48:27.453231, 100.0
2018-12-12 14:48:28.354589, 100.0
2018-12-12 14:48:29.255929, 100.0
2018-12-12 14:48:30.157281, 100.0
2018-12-12 14:48:31.058593, 100.0
2018-12-12 14:48:31.959902, 100.0
2018-12-12 14:48:32.861210, 100.0
2018-12-12 14:48:33.762533, 100.0
2018-12-12 14:48:34.663872, 100.0
2018-12-12 14:48:35.565184, 100.0
2018-12-12 14:48:36.466522, 100.0
2018-12-12 14:48:37.367866, 100.0
2018-12-12 14:48:38.269196, 100.0
2018-12-12 14:48:39.170533, 100.0
2018-12-12 14:48:40.071875, 100.0
2018-12-12 14:48:40.973226, 100.0
2018-12-12 14:48:41.874550, 100.0
2018-12-12 14:48:42.775884, 100.0
2018-12-12 14:48:43.677238, 100.0
2018-12-12 14:48:44.578573, 100.0
2018-12-12 14:48:45.479917, 100.0
2018-12-12 14:48:46.381210, 100.0
2018-12-12 14:48:47.282570, 100.0
2018-12-12 14:48:48.183908, 100.0
2018-12-12 14:48:49.085219, 100.0
2018-12-12 14:48:49.986551, 100.0
2018-12-12 14:48:50.887856, 100.0
2018-12-12 14:48:51.789201, 100.0
2018-12-12 14:48:52.690546, 100.0
2018-12-12 14:48:53.591871, 100.0
2018-12-12 14:48:54.493225, 100.0
2018-12-12 14:48:55.394567, 100.0
2018-12-12 14:48:56.295883, 100.0
2018-12-12 14:48:57.197231, 100.0
2018-12-12 14:48:58.098563, 100.0
2018-12-12 14:48:58.999918, 100.0
2018-12-12 14:48:59.901266, 100.0
2018-12-12 14:49:00.802548, 100.0
2018-12-12 14:49:01.703873, 100.0
2018-12-12 14:49:02.605183, 100.0
2018-12-12 14:49:03.506526, 100.0
2018-12-12 14:49:04.407883, 100.0
2018-12-12 14:49:05.309212, 100.0
2018-12-12 14:49:06.210549, 100.0
2018-12-12 14:49:07.111878, 100.0
2018-12-12 14:49:08.013212, 100.0
2018-12-12 14:49:08.914545, 100.0
2018-12-12 14:49:09.815893, 100.0
2018-12-12 14:49:10.717230, 100.0
2018-12-12 14:49:11.618529, 100.0
2018-12-12 14:49:12.519861, 100.0
2018-12-12 14:49:13.421194, 100.0
2018-12-12 14:49:14.322547, 100.0
2018-12-12 14:49:15.223872, 100.0
2018-12-12 14:49:16.125221, 100.0
2018-12-12 14:49:17.026567, 100.0
2018-12-12 14:49:17.927921, 100.0
2018-12-12 14:49:18.829231, 100.0
2018-12-12 14:49:19.730581, 100.0
2018-12-12 14:49:20.631879, 100.0
2018-12-12 14:49:21.533220, 100.0
2018-12-12 14:49:22.434569, 100.0
2018-12-12 14:49:23.335893, 100.0
2018-12-12 14:49:24.237229, 100.0
2018-12-12 14:49:25.138583, 100.0
2018-12-12 14:49:26.039916, 100.0
2018-12-12 14:49:26.941245, 100.0
2018-12-12 14:49:27.842571, 100.0
2018-12-12 14:49:28.743942, 100.0
2018-12-12 14:49:29.645304, 100.0
2018-12-12 14:49:30.546600, 100.0
2018-12-12 14:49:31.447925, 100.0
2018-12-12 14:49:32.349270, 100.0
2018-12-12 14:49:33.250597, 100.0
2018-12-12 14:49:34.151939, 100.0
2018-12-12 14:49:35.053290, 100.0
2018-12-12 14:49:35.954563, 100.0
2018-12-12 14:49:36.855897, 100.0
2018-12-12 14:49:37.757230, 100.0
2018-12-12 14:49:38.658570, 100.0
2018-12-12 14:49:39.559909, 100.0
2018-12-12 14:49:40.461266, 100.0
2018-12-12 14:49:41.362614, 100.0
2018-12-12 14:49:42.263951, 100.0
2018-12-12 14:49:43.165298, 100.0
2018-12-12 14:49:44.066594, 100.0
2018-12-12 14:49:44.967945, 100.0
2018-12-12 14:49:45.869266, 100.0
2018-12-12 14:49:46.770591, 100.0
2018-12-12 14:49:47.671923, 100.0
2018-12-12 14:49:48.573241, 100.0
2018-12-12 14:49:49.474594, 100.0
2018-12-12 14:49:50.375910, 100.0
2018-12-12 14:49:51.277228, 100.0
2018-12-12 14:49:52.178550, 100.0
2018-12-12 14:49:53.079886, 100.0
2018-12-12 14:49:53.981192, 100.0
2018-12-12 14:49:54.882537, 100.0
2018-12-12 14:49:55.783878, 100.0
2018-12-12 14:49:56.685197, 100.0
2018-12-12 14:49:57.586537, 100.0
2018-12-12 14:49:58.487861, 100.0
2018-12-12 14:49:59.389171, 100.0
2018-12-12 14:50:00.290511, 100.0
2018-12-12 14:50:01.191852, 100.0
2018-12-12 14:50:02.093193, 100.0
2018-12-12 14:50:02.994553, 100.0
2018-12-12 14:50:03.895917, 100.0
2018-12-12 14:50:04.797228, 100.0
2018-12-12 14:50:05.698543, 100.0
2018-12-12 14:50:06.599827, 100.0
2018-12-12 14:50:07.501152, 100.0
2018-12-12 14:50:08.402479, 100.0
2018-12-12 14:50:09.303802, 100.0
2018-12-12 14:50:10.205138, 100.0
2018-12-12 14:50:11.106493, 100.0
2018-12-12 14:50:12.007807, 100.0
2018-12-12 14:50:12.909141, 100.0
2018-12-12 14:50:13.810492, 100.0
2018-12-12 14:50:14.711808, 100.0
2018-12-12 14:50:15.613138, 100.0
2018-12-12 14:50:16.514486, 100.0
2018-12-12 14:50:17.415795, 100.0
2018-12-12 14:50:18.317089, 100.0
2018-12-12 14:50:19.218471, 100.0
2018-12-12 14:50:20.119805, 100.0
2018-12-12 14:50:21.021146, 100.0
2018-12-12 14:50:21.922485, 100.0
2018-12-12 14:50:22.823782, 100.0
2018-12-12 14:50:23.725118, 100.0
2018-12-12 14:50:24.626489, 100.0
2018-12-12 14:50:25.527867, 100.0
2018-12-12 14:50:26.429196, 100.0
2018-12-12 14:50:27.330540, 100.0
2018-12-12 14:50:28.231886, 100.0
2018-12-12 14:50:29.133245, 100.0
2018-12-12 14:50:30.034572, 100.0
2018-12-12 14:50:30.935873, 100.0
2018-12-12 14:50:31.837167, 100.0
2018-12-12 14:50:32.738575, 100.0
2018-12-12 14:50:33.639908, 100.0
2018-12-12 14:50:34.541225, 100.0
2018-12-12 14:50:35.442563, 100.0
2018-12-12 14:50:36.343898, 100.0
2018-12-12 14:50:37.245239, 100.0
2018-12-12 14:50:38.146580, 100.0
2018-12-12 14:50:39.047930, 100.0
2018-12-12 14:50:39.949259, 100.0
2018-12-12 14:50:40.850593, 100.0
2018-12-12 14:50:41.751933, 100.0
2018-12-12 14:50:42.653292, 100.0
2018-12-12 14:50:43.554573, 100.0
2018-12-12 14:50:44.455889, 100.0
2018-12-12 14:50:45.357254, 100.0
2018-12-12 14:50:46.258594, 100.0
2018-12-12 14:50:47.159924, 100.0
2018-12-12 14:50:48.061266, 100.0
2018-12-12 14:50:48.962593, 100.0
2018-12-12 14:50:49.863922, 100.0
2018-12-12 14:50:50.765254, 100.0
2018-12-12 14:50:51.666594, 100.0
2018-12-12 14:50:52.567927, 100.0
2018-12-12 14:50:53.469266, 100.0
2018-12-12 14:50:54.370588, 100.0
2018-12-12 14:50:55.271942, 100.0
2018-12-12 14:50:56.173296, 100.0
2018-12-12 14:50:57.074584, 100.0
2018-12-12 14:50:57.975892, 100.0
2018-12-12 14:50:58.877194, 100.0
2018-12-12 14:50:59.778532, 100.0
2018-12-12 14:51:00.679864, 100.0
2018-12-12 14:51:01.581217, 100.0
2018-12-12 14:51:02.482577, 100.0
2018-12-12 14:51:03.383911, 100.0
2018-12-12 14:51:04.285241, 100.0
2018-12-12 14:51:05.186581, 100.0
2018-12-12 14:51:06.087904, 100.0
2018-12-12 14:51:06.989245, 100.0
2018-12-12 14:51:07.890557, 100.0
2018-12-12 14:51:08.791882, 100.0
2018-12-12 14:51:09.693210, 100.0
2018-12-12 14:51:10.594582, 100.0
2018-12-12 14:51:11.495907, 100.0
2018-12-12 14:51:12.397213, 100.0
2018-12-12 14:51:13.298513, 100.0
2018-12-12 14:51:14.199844, 100.0
2018-12-12 14:51:15.101185, 100.0
2018-12-12 14:51:16.002521, 100.0
2018-12-12 14:51:16.903826, 100.0
2018-12-12 14:51:17.805115, 100.0
2018-12-12 14:51:18.706455, 100.0
2018-12-12 14:51:19.607788, 100.0
2018-12-12 14:51:20.509111, 100.0
2018-12-12 14:51:21.410484, 100.0
2018-12-12 14:51:22.311810, 100.0
2018-12-12 14:51:23.213164, 100.0
2018-12-12 14:51:24.114518, 100.0
2018-12-12 14:51:25.015853, 100.0
2018-12-12 14:51:25.917207, 100.0
2018-12-12 14:51:26.818556, 100.0
2018-12-12 14:51:27.719903, 100.0
2018-12-12 14:51:28.621239, 100.0
2018-12-12 14:51:29.522551, 100.0
2018-12-12 14:51:30.423870, 100.0
2018-12-12 14:51:31.325263, 100.0
2018-12-12 14:51:32.226592, 100.0
2018-12-12 14:51:33.127944, 100.0
2018-12-12 14:51:34.029294, 100.0
2018-12-12 14:51:34.930588, 100.0
2018-12-12 14:51:35.831970, 100.0
2018-12-12 14:51:36.733302, 100.0
2018-12-12 14:51:37.634592, 100.0
2018-12-12 14:51:38.535977, 100.0
2018-12-12 14:51:39.437317, 100.0
2018-12-12 14:51:40.338595, 100.0
2018-12-12 14:51:41.239935, 100.0
2018-12-12 14:51:42.141304, 100.0
2018-12-12 14:51:43.042631, 100.0
2018-12-12 14:51:43.943985, 100.0
2018-12-12 14:51:44.845318, 100.0
2018-12-12 14:51:45.746602, 100.0
2018-12-12 14:51:46.647960, 100.0
2018-12-12 14:51:47.549289, 100.0
2018-12-12 14:51:48.450549, 100.0
2018-12-12 14:51:49.351885, 100.0
2018-12-12 14:51:50.253237, 100.0
2018-12-12 14:51:51.154560, 100.0
2018-12-12 14:51:52.055894, 100.0
2018-12-12 14:51:52.957225, 100.0
2018-12-12 14:51:53.858517, 100.0
2018-12-12 14:51:54.759809, 100.0
2018-12-12 14:51:55.661177, 100.0
2018-12-12 14:51:56.562517, 100.0
2018-12-12 14:51:57.463844, 100.0
2018-12-12 14:51:58.365177, 100.0
2018-12-12 14:51:59.266541, 100.0
2018-12-12 14:52:00.167870, 100.0
2018-12-12 14:52:01.069172, 100.0
2018-12-12 14:52:01.970530, 100.0
2018-12-12 14:52:02.871970, 100.0
2018-12-12 14:52:03.773303, 100.0
2018-12-12 14:52:04.674577, 100.0
2018-12-12 14:52:05.575910, 100.0
2018-12-12 14:52:06.477261, 100.0
2018-12-12 14:52:07.378594, 100.0
2018-12-12 14:52:08.279945, 100.0
2018-12-12 14:52:09.181297, 100.0
2018-12-12 14:52:10.082568, 100.0
2018-12-12 14:52:10.983906, 100.0
2018-12-12 14:52:11.885232, 100.0
2018-12-12 14:52:12.786595, 100.0
2018-12-12 14:52:13.687942, 100.0
2018-12-12 14:52:14.589315, 100.0
2018-12-12 14:52:15.490561, 100.0
2018-12-12 14:52:16.391893, 100.0
2018-12-12 14:52:17.293220, 100.0
2018-12-12 14:52:18.194548, 100.0
2018-12-12 14:52:19.095882, 100.0
2018-12-12 14:52:19.997229, 100.0
2018-12-12 14:52:20.898538, 100.0
2018-12-12 14:52:21.799829, 100.0
2018-12-12 14:52:22.701167, 100.0
2018-12-12 14:52:23.602521, 100.0
2018-12-12 14:52:24.503847, 100.0
2018-12-12 14:52:25.405192, 100.0
2018-12-12 14:52:26.306539, 100.0
2018-12-12 14:52:27.207879, 100.0
2018-12-12 14:52:28.109226, 100.0
2018-12-12 14:52:29.010564, 100.0
2018-12-12 14:52:29.911879, 100.0
2018-12-12 14:52:30.813193, 100.0
2018-12-12 14:52:31.714544, 100.0
2018-12-12 14:52:32.615888, 100.0
2018-12-12 14:52:33.517221, 100.0
2018-12-12 14:52:34.418538, 100.0
2018-12-12 14:52:35.319873, 100.0
2018-12-12 14:52:36.221189, 100.0
2018-12-12 14:52:37.122541, 100.0
2018-12-12 14:52:38.023902, 100.0
2018-12-12 14:52:38.925212, 100.0
2018-12-12 14:52:39.826532, 100.0
2018-12-12 14:52:40.727840, 100.0
2018-12-12 14:52:41.629191, 100.0
2018-12-12 14:52:42.530507, 100.0
2018-12-12 14:52:43.431780, 100.0
2018-12-12 14:52:44.333119, 100.0
2018-12-12 14:52:45.234470, 100.0
2018-12-12 14:52:46.135807, 100.0
2018-12-12 14:52:47.037143, 100.0
2018-12-12 14:52:47.938502, 100.0
2018-12-12 14:52:48.839830, 100.0
2018-12-12 14:52:49.741150, 100.0
2018-12-12 14:52:50.642498, 100.0
2018-12-12 14:52:51.543955, 100.0
2018-12-12 14:52:52.445306, 100.0
2018-12-12 14:52:53.346602, 100.0
2018-12-12 14:52:54.247940, 100.0
2018-12-12 14:52:55.149277, 100.0
2018-12-12 14:52:56.050565, 100.0
2018-12-12 14:52:56.951900, 100.0
2018-12-12 14:52:57.853215, 100.0
2018-12-12 14:52:58.754557, 100.0
2018-12-12 14:52:59.655892, 100.0
2018-12-12 14:53:00.557220, 100.0
2018-12-12 14:53:01.458557, 100.0
2018-12-12 14:53:02.359906, 100.0
2018-12-12 14:53:03.261243, 100.0
2018-12-12 14:53:04.162582, 100.0
2018-12-12 14:53:05.063892, 100.0
2018-12-12 14:53:05.965227, 100.0
2018-12-12 14:53:06.866572, 100.0
2018-12-12 14:53:07.767918, 100.0
2018-12-12 14:53:08.669218, 100.0
2018-12-12 14:53:09.570570, 100.0
2018-12-12 14:53:10.471913, 100.0
2018-12-12 14:53:11.373246, 100.0
2018-12-12 14:53:12.274606, 100.0
2018-12-12 14:53:13.175949, 100.0
2018-12-12 14:53:14.077285, 100.0
2018-12-12 14:53:14.978568, 100.0
2018-12-12 14:53:15.879859, 100.0
2018-12-12 14:53:16.781184, 100.0
2018-12-12 14:53:17.682541, 100.0
2018-12-12 14:53:18.583853, 100.0
2018-12-12 14:53:19.485185, 100.0
2018-12-12 14:53:20.386535, 100.0
2018-12-12 14:53:21.287875, 100.0
2018-12-12 14:53:22.189218, 100.0
2018-12-12 14:53:23.090568, 100.0
2018-12-12 14:53:23.991903, 100.0
2018-12-12 14:53:24.893241, 100.0
2018-12-12 14:53:25.794586, 100.0
2018-12-12 14:53:26.695925, 100.0
2018-12-12 14:53:27.597262, 100.0
2018-12-12 14:53:28.498607, 100.0
2018-12-12 14:53:29.399894, 100.0
2018-12-12 14:53:30.301212, 100.0
2018-12-12 14:53:31.202537, 100.0
2018-12-12 14:53:32.103873, 100.0
2018-12-12 14:53:33.005219, 100.0
2018-12-12 14:53:33.906541, 100.0
2018-12-12 14:53:34.807864, 100.0
2018-12-12 14:53:35.709221, 100.0
2018-12-12 14:53:36.610527, 100.0
2018-12-12 14:53:37.511867, 100.0
2018-12-12 14:53:38.413209, 100.0
2018-12-12 14:53:39.314523, 100.0
2018-12-12 14:53:40.215863, 100.0
2018-12-12 14:53:41.117189, 100.0
2018-12-12 14:53:42.018546, 100.0
2018-12-12 14:53:42.919876, 100.0
2018-12-12 14:53:43.821245, 100.0
2018-12-12 14:53:44.722559, 100.0
2018-12-12 14:53:45.623884, 100.0
2018-12-12 14:53:46.525222, 100.0
2018-12-12 14:53:47.426616, 100.0
2018-12-12 14:53:48.327970, 100.0
2018-12-12 14:53:49.229323, 100.0
2018-12-12 14:53:50.130618, 100.0
2018-12-12 14:53:51.031959, 100.0
2018-12-12 14:53:51.933359, 100.0
2018-12-12 14:53:52.834620, 100.0
2018-12-12 14:53:53.736003, 100.0
2018-12-12 14:53:54.637362, 100.0
2018-12-12 14:53:55.538656, 100.0
2018-12-12 14:53:56.439993, 100.0
2018-12-12 14:53:57.341385, 100.0
2018-12-12 14:53:58.242629, 100.0
2018-12-12 14:53:59.144002, 100.0
2018-12-12 14:54:00.045315, 100.0
2018-12-12 14:54:00.946622, 100.0
2018-12-12 14:54:01.847972, 100.0
2018-12-12 14:54:02.749320, 100.0
2018-12-12 14:54:03.650602, 100.0
2018-12-12 14:54:04.551979, 100.0
2018-12-12 14:54:05.453331, 100.0
2018-12-12 14:54:06.354617, 100.0
2018-12-12 14:54:07.256004, 100.0
2018-12-12 14:54:08.157360, 100.0
2018-12-12 14:54:09.058625, 100.0
2018-12-12 14:54:09.959942, 100.0
2018-12-12 14:54:10.861268, 100.0
2018-12-12 14:54:11.762605, 100.0
2018-12-12 14:54:12.664011, 100.0
2018-12-12 14:54:13.565424, 100.0
2018-12-12 14:54:14.466627, 100.0
2018-12-12 14:54:15.367994, 100.0
2018-12-12 14:54:16.269338, 100.0
2018-12-12 14:54:17.170605, 100.0
2018-12-12 14:54:18.071941, 100.0
2018-12-12 14:54:18.973292, 100.0
2018-12-12 14:54:19.874591, 100.0
2018-12-12 14:54:20.775907, 100.0
2018-12-12 14:54:21.677261, 100.0
2018-12-12 14:54:22.578634, 100.0
2018-12-12 14:54:23.479960, 100.0
2018-12-12 14:54:24.381365, 100.0
2018-12-12 14:54:25.282586, 100.0
2018-12-12 14:54:26.184009, 100.0
2018-12-12 14:54:27.085341, 100.0
2018-12-12 14:54:27.986616, 100.0
2018-12-12 14:54:28.887978, 100.0
2018-12-12 14:54:29.789343, 100.0
2018-12-12 14:54:30.690595, 100.0
2018-12-12 14:54:31.591962, 100.0
2018-12-12 14:54:32.493322, 100.0
2018-12-12 14:54:33.394618, 100.0
2018-12-12 14:54:34.295957, 100.0
2018-12-12 14:54:35.197301, 100.0
2018-12-12 14:54:36.098611, 100.0
2018-12-12 14:54:36.999984, 100.0
2018-12-12 14:54:37.901313, 100.0
2018-12-12 14:54:38.802607, 100.0
2018-12-12 14:54:39.703956, 100.0
2018-12-12 14:54:40.605289, 100.0
2018-12-12 14:54:41.506577, 100.0
2018-12-12 14:54:42.407900, 100.0
2018-12-12 14:54:43.309246, 100.0
2018-12-12 14:54:44.210570, 100.0
2018-12-12 14:54:45.111893, 100.0
2018-12-12 14:54:46.013209, 100.0
2018-12-12 14:54:46.914537, 100.0
2018-12-12 14:54:47.815875, 100.0
2018-12-12 14:54:48.717233, 100.0
2018-12-12 14:54:49.618577, 100.0
2018-12-12 14:54:50.519905, 100.0
2018-12-12 14:54:51.421245, 100.0
2018-12-12 14:54:52.322569, 100.0
2018-12-12 14:54:53.223897, 100.0
2018-12-12 14:54:54.125224, 100.0
2018-12-12 14:54:55.026556, 100.0
2018-12-12 14:54:55.927871, 100.0
2018-12-12 14:54:56.829205, 100.0
2018-12-12 14:54:57.730533, 100.0
2018-12-12 14:54:58.631864, 100.0
2018-12-12 14:54:59.533180, 100.0
2018-12-12 14:55:00.434508, 100.0
2018-12-12 14:55:01.335815, 100.0
2018-12-12 14:55:02.237140, 100.0
2018-12-12 14:55:03.138481, 100.0
2018-12-12 14:55:04.039829, 100.0
2018-12-12 14:55:04.941159, 100.0
2018-12-12 14:55:05.842503, 100.0
2018-12-12 14:55:06.743834, 100.0
2018-12-12 14:55:07.645160, 100.0
2018-12-12 14:55:08.546540, 100.0
2018-12-12 14:55:09.447857, 100.0
2018-12-12 14:55:10.349187, 100.0
2018-12-12 14:55:11.250530, 100.0
2018-12-12 14:55:12.151866, 100.0
2018-12-12 14:55:13.053182, 100.0
2018-12-12 14:55:13.954542, 100.0
2018-12-12 14:55:14.855868, 100.0
2018-12-12 14:55:15.757170, 100.0
2018-12-12 14:55:16.658528, 100.0
2018-12-12 14:55:17.559859, 100.0
2018-12-12 14:55:18.461178, 100.0
2018-12-12 14:55:19.362534, 100.0
2018-12-12 14:55:20.263870, 100.0
2018-12-12 14:55:21.165196, 100.0
2018-12-12 14:55:22.066542, 100.0
2018-12-12 14:55:22.967893, 100.0
2018-12-12 14:55:23.869207, 100.0
2018-12-12 14:55:24.770531, 100.0
2018-12-12 14:55:25.671862, 100.0
2018-12-12 14:55:26.573171, 100.0
2018-12-12 14:55:27.474482, 100.0
2018-12-12 14:55:28.375807, 100.0
2018-12-12 14:55:29.277129, 100.0
2018-12-12 14:55:30.178468, 100.0
2018-12-12 14:55:31.079805, 100.0
2018-12-12 14:55:31.981116, 100.0
2018-12-12 14:55:32.882439, 100.0
2018-12-12 14:55:33.783786, 100.0
2018-12-12 14:55:34.685143, 100.0
2018-12-12 14:55:35.586497, 100.0
2018-12-12 14:55:36.487804, 100.0
2018-12-12 14:55:37.389106, 100.0
2018-12-12 14:55:38.290419, 100.0
2018-12-12 14:55:39.191734, 100.0
2018-12-12 14:55:40.093062, 100.0
2018-12-12 14:55:40.994404, 100.0
2018-12-12 14:55:41.895720, 100.0
2018-12-12 14:55:42.797030, 100.0
2018-12-12 14:55:43.698364, 100.0
2018-12-12 14:55:44.599691, 100.0
2018-12-12 14:55:45.501023, 100.0
2018-12-12 14:55:46.402385, 100.0
2018-12-12 14:55:47.303745, 100.0
2018-12-12 14:55:48.205092, 100.0
2018-12-12 14:55:49.106417, 100.0
2018-12-12 14:55:50.007741, 100.0
2018-12-12 14:55:50.909060, 100.0
2018-12-12 14:55:51.810410, 100.0
2018-12-12 14:55:52.711753, 100.0
2018-12-12 14:55:53.613067, 100.0
2018-12-12 14:55:54.514411, 100.0
2018-12-12 14:55:55.415742, 100.0
2018-12-12 14:55:56.317114, 100.0
2018-12-12 14:55:57.218502, 100.0
2018-12-12 14:55:58.119837, 100.0
2018-12-12 14:55:59.021145, 100.0
2018-12-12 14:55:59.922489, 100.0
2018-12-12 14:56:00.823853, 100.0
2018-12-12 14:56:01.725203, 100.0
2018-12-12 14:56:02.626519, 100.0
2018-12-12 14:56:03.527843, 100.0
2018-12-12 14:56:04.429186, 100.0
2018-12-12 14:56:05.330539, 100.0
2018-12-12 14:56:06.231878, 100.0
2018-12-12 14:56:07.133187, 100.0
2018-12-12 14:56:08.034534, 100.0
2018-12-12 14:56:08.935846, 100.0
2018-12-12 14:56:09.837190, 100.0
2018-12-12 14:56:10.738544, 100.0
2018-12-12 14:56:11.639893, 100.0
2018-12-12 14:56:12.541288, 100.0
2018-12-12 14:56:13.442622, 100.0
2018-12-12 14:56:14.343975, 100.0
2018-12-12 14:56:15.245295, 100.0
2018-12-12 14:56:16.146584, 100.0
2018-12-12 14:56:17.047932, 100.0
2018-12-12 14:56:17.949248, 100.0
2018-12-12 14:56:18.850589, 100.0
2018-12-12 14:56:19.751930, 100.0
2018-12-12 14:56:20.653241, 100.0
2018-12-12 14:56:21.554549, 100.0
2018-12-12 14:56:22.455869, 100.0
2018-12-12 14:56:23.357209, 100.0
2018-12-12 14:56:24.258540, 100.0
2018-12-12 14:56:25.159883, 100.0
2018-12-12 14:56:26.061193, 100.0
2018-12-12 14:56:26.962568, 100.0
2018-12-12 14:56:27.863899, 100.0
2018-12-12 14:56:28.765263, 100.0
2018-12-12 14:56:29.666587, 100.0
2018-12-12 14:56:30.567920, 100.0
2018-12-12 14:56:31.469242, 100.0
2018-12-12 14:56:32.370593, 100.0
2018-12-12 14:56:33.271930, 100.0
2018-12-12 14:56:34.173264, 100.0
2018-12-12 14:56:35.074586, 100.0
2018-12-12 14:56:35.975915, 100.0
2018-12-12 14:56:36.877257, 100.0
2018-12-12 14:56:37.778583, 100.0
2018-12-12 14:56:38.679923, 100.0
2018-12-12 14:56:39.581283, 100.0
2018-12-12 14:56:40.482574, 100.0
2018-12-12 14:56:41.383866, 100.0
2018-12-12 14:56:42.285208, 100.0
2018-12-12 14:56:43.186554, 100.0
2018-12-12 14:56:44.087887, 100.0
2018-12-12 14:56:44.989199, 100.0
2018-12-12 14:56:45.890543, 100.0
2018-12-12 14:56:46.791881, 100.0
2018-12-12 14:56:47.693211, 100.0
2018-12-12 14:56:48.594517, 100.0
2018-12-12 14:56:49.495837, 100.0
2018-12-12 14:56:50.397131, 100.0
2018-12-12 14:56:51.298474, 100.0
2018-12-12 14:56:52.199807, 100.0
2018-12-12 14:56:53.101158, 100.0
2018-12-12 14:56:54.002522, 100.0
2018-12-12 14:56:54.903829, 100.0
2018-12-12 14:56:55.805201, 100.0
2018-12-12 14:56:56.706566, 100.0
2018-12-12 14:56:57.607924, 100.0
2018-12-12 14:56:58.509259, 100.0
2018-12-12 14:56:59.410601, 100.0
2018-12-12 14:57:00.311928, 100.0
2018-12-12 14:57:01.213235, 100.0
2018-12-12 14:57:02.114573, 100.0
2018-12-12 14:57:03.015907, 100.0
2018-12-12 14:57:03.917243, 100.0
2018-12-12 14:57:04.818608, 100.0
2018-12-12 14:57:05.719971, 100.0
2018-12-12 14:57:06.621305, 100.0
2018-12-12 14:57:07.522593, 100.0
2018-12-12 14:57:08.423932, 100.0
2018-12-12 14:57:09.325260, 100.0
2018-12-12 14:57:10.226603, 100.0
2018-12-12 14:57:11.127917, 100.0
2018-12-12 14:57:12.029261, 100.0
2018-12-12 14:57:12.930589, 100.0
2018-12-12 14:57:13.831936, 100.0
2018-12-12 14:57:14.733292, 100.0
2018-12-12 14:57:15.634573, 100.0
2018-12-12 14:57:16.535882, 100.0
2018-12-12 14:57:17.437212, 100.0
2018-12-12 14:57:18.338556, 100.0
2018-12-12 14:57:19.239898, 100.0
2018-12-12 14:57:20.141259, 100.0
2018-12-12 14:57:21.042564, 100.0
2018-12-12 14:57:21.943905, 100.0
2018-12-12 14:57:22.845233, 100.0
2018-12-12 14:57:23.746610, 100.0
2018-12-12 14:57:24.647950, 100.0
2018-12-12 14:57:25.549308, 100.0
2018-12-12 14:57:26.450567, 100.0
2018-12-12 14:57:27.351884, 100.0
2018-12-12 14:57:28.253207, 100.0
2018-12-12 14:57:29.154554, 100.0
2018-12-12 14:57:30.055884, 100.0
2018-12-12 14:57:30.957214, 100.0
2018-12-12 14:57:31.858552, 100.0
2018-12-12 14:57:32.759899, 100.0
2018-12-12 14:57:33.661265, 100.0
2018-12-12 14:57:34.562547, 100.0
2018-12-12 14:57:35.463875, 100.0
2018-12-12 14:57:36.365211, 100.0
2018-12-12 14:57:37.266566, 100.0
2018-12-12 14:57:38.167913, 100.0
2018-12-12 14:57:39.069262, 100.0
2018-12-12 14:57:39.970608, 100.0
2018-12-12 14:57:40.871941, 100.0
2018-12-12 14:57:41.773250, 100.0
2018-12-12 14:57:42.674572, 100.0
2018-12-12 14:57:43.575901, 100.0
2018-12-12 14:57:44.477254, 100.0
2018-12-12 14:57:45.378589, 100.0
2018-12-12 14:57:46.279917, 100.0
2018-12-12 14:57:47.181264, 100.0
2018-12-12 14:57:48.082568, 100.0
2018-12-12 14:57:48.983894, 100.0
2018-12-12 14:57:49.885222, 100.0
2018-12-12 14:57:50.786557, 100.0
2018-12-12 14:57:51.687885, 100.0
2018-12-12 14:57:52.589229, 100.0
2018-12-12 14:57:53.490575, 100.0
2018-12-12 14:57:54.391920, 100.0
2018-12-12 14:57:55.293262, 100.0
2018-12-12 14:57:56.194563, 100.0
2018-12-12 14:57:57.095894, 100.0
2018-12-12 14:57:57.997228, 100.0
2018-12-12 14:57:58.898541, 100.0
2018-12-12 14:57:59.799871, 100.0
2018-12-12 14:58:00.701207, 100.0
2018-12-12 14:58:01.602547, 100.0
2018-12-12 14:58:02.503875, 100.0
2018-12-12 14:58:03.405208, 100.0
2018-12-12 14:58:04.306554, 100.0
2018-12-12 14:58:05.207906, 100.0
2018-12-12 14:58:06.109246, 100.0
2018-12-12 14:58:07.010595, 100.0
2018-12-12 14:58:07.911921, 100.0
2018-12-12 14:58:08.813257, 100.0
2018-12-12 14:58:09.714592, 100.0
2018-12-12 14:58:10.615893, 100.0
2018-12-12 14:58:11.517223, 100.0
2018-12-12 14:58:12.418578, 100.0
2018-12-12 14:58:13.319910, 100.0
2018-12-12 14:58:14.221248, 100.0
2018-12-12 14:58:15.122591, 100.0
2018-12-12 14:58:16.023932, 100.0
2018-12-12 14:58:16.925264, 100.0
2018-12-12 14:58:17.826569, 100.0
2018-12-12 14:58:18.727906, 100.0
2018-12-12 14:58:19.629230, 100.0
2018-12-12 14:58:20.530563, 100.0
2018-12-12 14:58:21.431907, 100.0
2018-12-12 14:58:22.333249, 100.0
2018-12-12 14:58:23.234584, 100.0
2018-12-12 14:58:24.135850, 100.0
2018-12-12 14:58:25.037192, 100.0
2018-12-12 14:58:25.938493, 100.0
2018-12-12 14:58:26.839822, 100.0
2018-12-12 14:58:27.741162, 100.0
2018-12-12 14:58:28.642547, 100.0
2018-12-12 14:58:29.543865, 100.0
2018-12-12 14:58:30.445195, 100.0
2018-12-12 14:58:31.346548, 100.0
2018-12-12 14:58:32.247890, 100.0
2018-12-12 14:58:33.149252, 100.0
2018-12-12 14:58:34.050568, 100.0
2018-12-12 14:58:34.951902, 100.0
2018-12-12 14:58:35.853243, 100.0
2018-12-12 14:58:36.754563, 100.0
2018-12-12 14:58:37.655893, 100.0
2018-12-12 14:58:38.557224, 100.0
2018-12-12 14:58:39.458530, 100.0
2018-12-12 14:58:40.359869, 100.0
2018-12-12 14:58:41.261239, 100.0
2018-12-12 14:58:42.162596, 100.0
2018-12-12 14:58:43.063938, 100.0
2018-12-12 14:58:43.965273, 100.0
2018-12-12 14:58:44.866597, 100.0
