time, cpu_percent
2018-12-14 17:21:26.138601, 100.0
2018-12-14 17:21:27.039957, 100.0
2018-12-14 17:21:27.941294, 100.0
2018-12-14 17:21:28.843429, 100.0
2018-12-14 17:21:29.744777, 100.0
2018-12-14 17:21:30.645250, 100.0
2018-12-14 17:21:31.546553, 100.0
2018-12-14 17:21:32.447852, 100.0
2018-12-14 17:21:33.349144, 100.0
2018-12-14 17:21:34.250430, 100.0
2018-12-14 17:21:35.151743, 100.0
2018-12-14 17:21:36.054103, 100.0
2018-12-14 17:21:36.955416, 100.0
2018-12-14 17:21:37.856734, 100.0
2018-12-14 17:21:38.757228, 100.0
2018-12-14 17:21:39.658566, 100.0
2018-12-14 17:21:40.559882, 100.0
2018-12-14 17:21:41.461201, 100.0
2018-12-14 17:21:42.362509, 100.0
2018-12-14 17:21:43.263812, 100.0
2018-12-14 17:21:44.165130, 100.0
2018-12-14 17:21:45.066448, 100.0
2018-12-14 17:21:45.967773, 100.0
2018-12-14 17:21:46.869090, 100.0
2018-12-14 17:21:47.770378, 100.0
2018-12-14 17:21:48.671698, 100.0
2018-12-14 17:21:49.573024, 100.0
2018-12-14 17:21:50.474362, 100.0
2018-12-14 17:21:51.377526, 100.0
2018-12-14 17:21:52.278831, 100.0
2018-12-14 17:21:53.180134, 100.0
2018-12-14 17:21:54.081239, 100.0
2018-12-14 17:21:54.982600, 100.0
2018-12-14 17:21:55.883908, 100.0
2018-12-14 17:21:56.785216, 100.0
2018-12-14 17:21:57.686513, 100.0
2018-12-14 17:21:58.587819, 100.0
2018-12-14 17:21:59.489136, 100.0
2018-12-14 17:22:00.390442, 100.0
2018-12-14 17:22:01.291749, 100.0
2018-12-14 17:22:02.193696, 100.0
2018-12-14 17:22:03.095060, 100.0
2018-12-14 17:22:03.996387, 100.0
2018-12-14 17:22:04.897267, 100.0
2018-12-14 17:22:05.798595, 100.0
2018-12-14 17:22:06.699890, 100.0
2018-12-14 17:22:07.601211, 100.0
2018-12-14 17:22:08.502518, 100.0
2018-12-14 17:22:09.403821, 100.0
2018-12-14 17:22:10.305166, 100.0
2018-12-14 17:22:11.206431, 100.0
2018-12-14 17:22:12.107737, 100.0
2018-12-14 17:22:13.009741, 100.0
2018-12-14 17:22:13.911053, 100.0
2018-12-14 17:22:14.812356, 100.0
2018-12-14 17:22:15.713247, 100.0
2018-12-14 17:22:16.614545, 100.0
2018-12-14 17:22:17.515838, 100.0
2018-12-14 17:22:18.417140, 100.0
2018-12-14 17:22:19.318486, 100.0
2018-12-14 17:22:20.219802, 100.0
2018-12-14 17:22:21.121125, 100.0
2018-12-14 17:22:22.022443, 100.0
2018-12-14 17:22:22.923744, 100.0
2018-12-14 17:22:23.825069, 100.0
2018-12-14 17:22:24.726376, 100.0
2018-12-14 17:22:25.627707, 100.0
2018-12-14 17:22:26.529685, 100.0
2018-12-14 17:22:27.430999, 100.0
2018-12-14 17:22:28.332302, 100.0
2018-12-14 17:22:29.233238, 100.0
2018-12-14 17:22:30.134538, 100.0
2018-12-14 17:22:31.035837, 100.0
2018-12-14 17:22:31.937208, 100.0
2018-12-14 17:22:32.838553, 100.0
2018-12-14 17:22:33.739857, 100.0
2018-12-14 17:22:34.641161, 100.0
2018-12-14 17:22:35.542621, 100.0
2018-12-14 17:22:36.443934, 100.0
2018-12-14 17:22:37.345222, 100.0
2018-12-14 17:22:38.246539, 100.0
2018-12-14 17:22:39.147812, 100.0
2018-12-14 17:22:40.049130, 100.0
2018-12-14 17:22:40.950440, 100.0
2018-12-14 17:22:41.851768, 100.0
2018-12-14 17:22:42.753114, 100.0
2018-12-14 17:22:43.654413, 100.0
2018-12-14 17:22:44.555712, 100.0
2018-12-14 17:22:45.457034, 100.0
2018-12-14 17:22:46.358361, 100.0
2018-12-14 17:22:47.259663, 100.0
2018-12-14 17:22:48.161014, 100.0
2018-12-14 17:22:49.062326, 100.0
2018-12-14 17:22:49.963637, 100.0
2018-12-14 17:22:50.864934, 100.0
2018-12-14 17:22:51.767043, 100.0
2018-12-14 17:22:52.668416, 100.0
2018-12-14 17:22:53.569242, 100.0
2018-12-14 17:22:54.470533, 100.0
2018-12-14 17:22:55.371880, 100.0
2018-12-14 17:22:56.273202, 100.0
2018-12-14 17:22:57.174510, 100.0
2018-12-14 17:22:58.075794, 100.0
2018-12-14 17:22:58.977123, 100.0
2018-12-14 17:22:59.878367, 100.0
2018-12-14 17:23:00.779681, 100.0
2018-12-14 17:23:01.681025, 100.0
2018-12-14 17:23:02.582385, 100.0
2018-12-14 17:23:03.483713, 100.0
2018-12-14 17:23:04.385940, 100.0
2018-12-14 17:23:05.287250, 100.0
2018-12-14 17:23:06.188563, 100.0
2018-12-14 17:23:07.089254, 100.0
2018-12-14 17:23:07.990555, 100.0
2018-12-14 17:23:08.891860, 100.0
2018-12-14 17:23:09.793185, 100.0
2018-12-14 17:23:10.694495, 100.0
2018-12-14 17:23:11.595826, 100.0
2018-12-14 17:23:12.497174, 100.0
2018-12-14 17:23:13.398480, 100.0
2018-12-14 17:23:14.299794, 100.0
2018-12-14 17:23:15.201098, 100.0
2018-12-14 17:23:16.102413, 100.0
2018-12-14 17:23:17.003718, 100.0
2018-12-14 17:23:17.905041, 100.0
2018-12-14 17:23:18.806342, 100.0
2018-12-14 17:23:19.707633, 100.0
2018-12-14 17:23:20.608964, 100.0
2018-12-14 17:23:21.510302, 100.0
2018-12-14 17:23:22.411620, 100.0
2018-12-14 17:23:23.312946, 100.0
2018-12-14 17:23:24.215007, 100.0
2018-12-14 17:23:25.116310, 100.0
2018-12-14 17:23:26.017238, 100.0
2018-12-14 17:23:26.918523, 100.0
2018-12-14 17:23:27.819815, 100.0
2018-12-14 17:23:28.721126, 100.0
2018-12-14 17:23:29.622410, 100.0
2018-12-14 17:23:30.523716, 100.0
2018-12-14 17:23:31.425082, 100.0
2018-12-14 17:23:32.326407, 100.0
2018-12-14 17:23:33.227709, 100.0
2018-12-14 17:23:34.129045, 100.0
2018-12-14 17:23:35.030348, 100.0
2018-12-14 17:23:35.931622, 100.0
2018-12-14 17:23:36.832923, 100.0
2018-12-14 17:23:37.734259, 100.0
2018-12-14 17:23:38.635562, 100.0
2018-12-14 17:23:39.536870, 100.0
2018-12-14 17:23:40.437265, 100.0
2018-12-14 17:23:41.338567, 100.0
2018-12-14 17:23:42.239882, 100.0
2018-12-14 17:23:43.141198, 100.0
2018-12-14 17:23:44.042510, 100.0
2018-12-14 17:23:44.943810, 100.0
2018-12-14 17:23:45.845117, 100.0
2018-12-14 17:23:46.746415, 100.0
2018-12-14 17:23:47.647729, 100.0
2018-12-14 17:23:48.549124, 100.0
2018-12-14 17:23:49.450426, 100.0
2018-12-14 17:23:50.351723, 100.0
2018-12-14 17:23:51.253050, 100.0
2018-12-14 17:23:52.154344, 100.0
2018-12-14 17:23:53.055660, 100.0
2018-12-14 17:23:53.956973, 100.0
2018-12-14 17:23:54.858320, 100.0
2018-12-14 17:23:55.759612, 100.0
2018-12-14 17:23:56.660924, 100.0
2018-12-14 17:23:57.563059, 100.0
2018-12-14 17:23:58.464636, 100.0
2018-12-14 17:23:59.365656, 100.0
2018-12-14 17:24:00.266963, 100.0
2018-12-14 17:24:01.168278, 100.0
2018-12-14 17:24:02.069237, 100.0
2018-12-14 17:24:02.970532, 100.0
2018-12-14 17:24:03.871833, 100.0
2018-12-14 17:24:04.773113, 100.0
2018-12-14 17:24:05.674431, 100.0
2018-12-14 17:24:06.575740, 100.0
2018-12-14 17:24:07.477069, 100.0
2018-12-14 17:24:08.378372, 100.0
2018-12-14 17:24:09.279870, 100.0
2018-12-14 17:24:10.181198, 100.0
2018-12-14 17:24:11.082494, 100.0
2018-12-14 17:24:11.983792, 100.0
2018-12-14 17:24:12.885113, 100.0
2018-12-14 17:24:13.786431, 100.0
2018-12-14 17:24:14.687763, 100.0
2018-12-14 17:24:15.589104, 100.0
2018-12-14 17:24:16.490406, 100.0
2018-12-14 17:24:17.391722, 100.0
2018-12-14 17:24:18.293086, 100.0
2018-12-14 17:24:19.194440, 100.0
2018-12-14 17:24:20.095774, 100.0
2018-12-14 17:24:20.997914, 100.0
2018-12-14 17:24:21.899219, 100.0
2018-12-14 17:24:22.800524, 100.0
2018-12-14 17:24:23.701262, 100.0
2018-12-14 17:24:24.602569, 100.0
2018-12-14 17:24:25.503870, 100.0
2018-12-14 17:24:26.405158, 100.0
2018-12-14 17:24:27.306473, 100.0
2018-12-14 17:24:28.207792, 100.0
2018-12-14 17:24:29.109109, 100.0
2018-12-14 17:24:30.010412, 100.0
2018-12-14 17:24:30.911712, 100.0
2018-12-14 17:24:31.813079, 100.0
2018-12-14 17:24:32.714386, 100.0
2018-12-14 17:24:33.615936, 100.0
2018-12-14 17:24:34.517285, 100.0
2018-12-14 17:24:35.418583, 100.0
2018-12-14 17:24:36.319884, 100.0
2018-12-14 17:24:37.221206, 100.0
2018-12-14 17:24:38.122511, 100.0
2018-12-14 17:24:39.023817, 100.0
2018-12-14 17:24:39.925131, 100.0
2018-12-14 17:24:40.826653, 100.0
2018-12-14 17:24:41.727951, 100.0
2018-12-14 17:24:42.629249, 100.0
2018-12-14 17:24:43.530613, 100.0
2018-12-14 17:24:44.431877, 100.0
2018-12-14 17:24:45.333191, 100.0
2018-12-14 17:24:46.234534, 100.0
2018-12-14 17:24:47.135850, 100.0
2018-12-14 17:24:48.037907, 100.0
2018-12-14 17:24:48.939218, 100.0
2018-12-14 17:24:49.840525, 100.0
2018-12-14 17:24:50.741253, 100.0
2018-12-14 17:24:51.642558, 100.0
2018-12-14 17:24:52.543861, 100.0
2018-12-14 17:24:53.445196, 100.0
2018-12-14 17:24:54.346504, 100.0
2018-12-14 17:24:55.247836, 100.0
2018-12-14 17:24:56.149340, 100.0
2018-12-14 17:24:57.050698, 100.0
2018-12-14 17:24:57.952023, 100.0
2018-12-14 17:24:58.853282, 100.0
2018-12-14 17:24:59.754708, 100.0
2018-12-14 17:25:00.656017, 100.0
2018-12-14 17:25:01.557255, 100.0
2018-12-14 17:25:02.458568, 100.0
2018-12-14 17:25:03.359975, 100.0
2018-12-14 17:25:04.261267, 100.0
2018-12-14 17:25:05.162620, 100.0
2018-12-14 17:25:06.063932, 100.0
2018-12-14 17:25:06.965274, 100.0
2018-12-14 17:25:07.866590, 100.0
2018-12-14 17:25:08.767894, 100.0
2018-12-14 17:25:09.669215, 100.0
2018-12-14 17:25:10.570528, 100.0
2018-12-14 17:25:11.471843, 100.0
2018-12-14 17:25:12.373176, 100.0
2018-12-14 17:25:13.274495, 100.0
2018-12-14 17:25:14.175858, 100.0
2018-12-14 17:25:15.077201, 100.0
2018-12-14 17:25:15.978499, 100.0
2018-12-14 17:25:16.879805, 100.0
2018-12-14 17:25:17.781114, 100.0
2018-12-14 17:25:18.682421, 100.0
2018-12-14 17:25:19.583772, 100.0
2018-12-14 17:25:20.485088, 100.0
2018-12-14 17:25:21.386412, 100.0
2018-12-14 17:25:22.287711, 100.0
2018-12-14 17:25:23.189029, 100.0
2018-12-14 17:25:24.090384, 100.0
2018-12-14 17:25:24.991683, 100.0
2018-12-14 17:25:25.892984, 100.0
2018-12-14 17:25:26.794479, 100.0
2018-12-14 17:25:27.695807, 100.0
2018-12-14 17:25:28.597131, 100.0
2018-12-14 17:25:29.498432, 100.0
2018-12-14 17:25:30.399730, 100.0
2018-12-14 17:25:31.301057, 100.0
2018-12-14 17:25:32.202366, 100.0
2018-12-14 17:25:33.103663, 100.0
2018-12-14 17:25:34.004964, 100.0
2018-12-14 17:25:34.906299, 100.0
2018-12-14 17:25:35.807618, 100.0
2018-12-14 17:25:36.708926, 100.0
2018-12-14 17:25:37.610252, 100.0
2018-12-14 17:25:38.511728, 100.0
2018-12-14 17:25:39.413072, 100.0
2018-12-14 17:25:40.314402, 100.0
2018-12-14 17:25:41.215705, 100.0
2018-12-14 17:25:42.117181, 100.0
2018-12-14 17:25:43.018488, 100.0
2018-12-14 17:25:43.919805, 100.0
2018-12-14 17:25:44.821079, 100.0
2018-12-14 17:25:45.722382, 100.0
2018-12-14 17:25:46.623679, 100.0
2018-12-14 17:25:47.525013, 100.0
2018-12-14 17:25:48.426312, 100.0
2018-12-14 17:25:49.331999, 100.0
2018-12-14 17:25:50.233255, 100.0
2018-12-14 17:25:51.134572, 100.0
2018-12-14 17:25:52.035871, 100.0
2018-12-14 17:25:52.937178, 100.0
2018-12-14 17:25:53.838486, 100.0
2018-12-14 17:25:54.739797, 100.0
2018-12-14 17:25:55.641112, 100.0
2018-12-14 17:25:56.542411, 100.0
2018-12-14 17:25:57.443706, 100.0
2018-12-14 17:25:58.345965, 100.0
2018-12-14 17:25:59.247236, 100.0
2018-12-14 17:26:00.148576, 100.0
2018-12-14 17:26:01.049235, 100.0
2018-12-14 17:26:01.950545, 100.0
2018-12-14 17:26:02.851878, 100.0
2018-12-14 17:26:03.753195, 100.0
2018-12-14 17:26:04.654492, 100.0
2018-12-14 17:26:05.555783, 100.0
2018-12-14 17:26:06.457088, 100.0
2018-12-14 17:26:07.358378, 100.0
2018-12-14 17:26:08.259660, 100.0
2018-12-14 17:26:09.160925, 100.0
2018-12-14 17:26:10.062250, 100.0
2018-12-14 17:26:10.963562, 100.0
2018-12-14 17:26:11.864866, 100.0
2018-12-14 17:26:12.765232, 100.0
2018-12-14 17:26:13.666528, 100.0
2018-12-14 17:26:14.567823, 100.0
2018-12-14 17:26:15.469132, 100.0
2018-12-14 17:26:16.370440, 100.0
2018-12-14 17:26:17.271678, 100.0
2018-12-14 17:26:18.172927, 100.0
2018-12-14 17:26:19.074211, 100.0
2018-12-14 17:26:19.975447, 100.0
2018-12-14 17:26:20.876692, 100.0
2018-12-14 17:26:21.777199, 100.0
2018-12-14 17:26:22.678496, 100.0
2018-12-14 17:26:23.579779, 100.0
2018-12-14 17:26:24.481085, 100.0
2018-12-14 17:26:25.382357, 100.0
2018-12-14 17:26:26.283645, 100.0
2018-12-14 17:26:27.184891, 100.0
2018-12-14 17:26:28.086181, 100.0
2018-12-14 17:26:28.987368, 100.0
2018-12-14 17:26:29.888601, 100.0
2018-12-14 17:26:30.789198, 100.0
2018-12-14 17:26:31.690435, 100.0
2018-12-14 17:26:32.591744, 100.0
2018-12-14 17:26:33.494948, 100.0
2018-12-14 17:26:34.396184, 100.0
2018-12-14 17:26:35.297227, 100.0
2018-12-14 17:26:36.198450, 100.0
2018-12-14 17:26:37.099699, 100.0
2018-12-14 17:26:38.000934, 100.0
2018-12-14 17:26:38.902196, 100.0
2018-12-14 17:26:39.803413, 100.0
2018-12-14 17:26:40.704638, 100.0
2018-12-14 17:26:41.605166, 100.0
2018-12-14 17:26:42.506436, 100.0
2018-12-14 17:26:43.407675, 100.0
2018-12-14 17:26:44.308911, 100.0
2018-12-14 17:26:45.210164, 100.0
2018-12-14 17:26:46.111434, 100.0
2018-12-14 17:26:47.012646, 100.0
2018-12-14 17:26:47.913167, 100.0
2018-12-14 17:26:48.814376, 100.0
2018-12-14 17:26:49.715598, 100.0
2018-12-14 17:26:50.616874, 100.0
2018-12-14 17:26:51.517169, 100.0
2018-12-14 17:26:52.418384, 100.0
2018-12-14 17:26:53.319587, 100.0
2018-12-14 17:26:54.220799, 100.0
2018-12-14 17:26:55.121185, 100.0
2018-12-14 17:26:56.022420, 100.0
2018-12-14 17:26:56.923659, 100.0
2018-12-14 17:26:57.824885, 100.0
2018-12-14 17:26:58.725176, 100.0
2018-12-14 17:26:59.626405, 100.0
2018-12-14 17:27:00.527626, 100.0
2018-12-14 17:27:01.428857, 100.0
2018-12-14 17:27:02.329221, 100.0
2018-12-14 17:27:03.230446, 100.0
2018-12-14 17:27:04.131648, 100.0
2018-12-14 17:27:05.032876, 100.0
2018-12-14 17:27:05.933188, 100.0
2018-12-14 17:27:06.834498, 100.0
2018-12-14 17:27:07.735841, 100.0
2018-12-14 17:27:08.637188, 100.0
2018-12-14 17:27:09.538353, 100.0
2018-12-14 17:27:10.439648, 100.0
2018-12-14 17:27:11.340966, 100.0
2018-12-14 17:27:12.242319, 100.0
2018-12-14 17:27:13.143621, 100.0
2018-12-14 17:27:14.044933, 100.0
2018-12-14 17:27:14.946274, 100.0
2018-12-14 17:27:15.847573, 100.0
2018-12-14 17:27:16.748892, 100.0
2018-12-14 17:27:17.650232, 100.0
2018-12-14 17:27:18.551531, 100.0
2018-12-14 17:27:19.452805, 100.0
2018-12-14 17:27:20.353242, 100.0
2018-12-14 17:27:21.254548, 100.0
2018-12-14 17:27:22.155867, 100.0
2018-12-14 17:27:23.057221, 100.0
2018-12-14 17:27:23.958566, 100.0
2018-12-14 17:27:24.859900, 100.0
2018-12-14 17:27:25.761209, 100.0
2018-12-14 17:27:26.662545, 100.0
2018-12-14 17:27:27.563880, 100.0
2018-12-14 17:27:28.465195, 100.0
2018-12-14 17:27:29.366509, 100.0
2018-12-14 17:27:30.267832, 100.0
2018-12-14 17:27:31.169189, 100.0
2018-12-14 17:27:32.070501, 100.0
2018-12-14 17:27:32.971820, 100.0
2018-12-14 17:27:33.873151, 100.0
2018-12-14 17:27:34.774469, 100.0
2018-12-14 17:27:35.675783, 100.0
2018-12-14 17:27:36.577141, 100.0
2018-12-14 17:27:37.478489, 100.0
2018-12-14 17:27:38.379823, 100.0
2018-12-14 17:27:39.281157, 100.0
2018-12-14 17:27:40.182496, 100.0
2018-12-14 17:27:41.083807, 100.0
2018-12-14 17:27:41.985140, 100.0
2018-12-14 17:27:42.886541, 100.0
2018-12-14 17:27:43.787882, 100.0
2018-12-14 17:27:44.689214, 100.0
2018-12-14 17:27:45.590533, 100.0
2018-12-14 17:27:46.491843, 100.0
2018-12-14 17:27:47.393188, 100.0
2018-12-14 17:27:48.294523, 100.0
2018-12-14 17:27:49.196078, 100.0
2018-12-14 17:27:50.097240, 100.0
2018-12-14 17:27:50.998544, 100.0
2018-12-14 17:27:51.899890, 100.0
2018-12-14 17:27:52.801198, 100.0
2018-12-14 17:27:53.702705, 100.0
2018-12-14 17:27:54.604017, 100.0
2018-12-14 17:27:55.505236, 100.0
2018-12-14 17:27:56.406581, 100.0
2018-12-14 17:27:57.307974, 100.0
2018-12-14 17:27:58.209250, 100.0
2018-12-14 17:27:59.110576, 100.0
2018-12-14 17:28:00.011900, 100.0
2018-12-14 17:28:00.913206, 100.0
2018-12-14 17:28:01.814531, 100.0
2018-12-14 17:28:02.715842, 100.0
2018-12-14 17:28:03.617216, 100.0
2018-12-14 17:28:04.518534, 100.0
2018-12-14 17:28:05.419808, 100.0
2018-12-14 17:28:06.321118, 100.0
2018-12-14 17:28:07.222455, 100.0
2018-12-14 17:28:08.123924, 100.0
2018-12-14 17:28:09.025253, 100.0
2018-12-14 17:28:09.926598, 100.0
2018-12-14 17:28:10.827917, 100.0
2018-12-14 17:28:11.729213, 100.0
2018-12-14 17:28:12.630506, 100.0
2018-12-14 17:28:13.531817, 100.0
2018-12-14 17:28:14.433153, 100.0
2018-12-14 17:28:15.334456, 100.0
2018-12-14 17:28:16.235764, 100.0
2018-12-14 17:28:17.137089, 100.0
2018-12-14 17:28:18.038417, 100.0
2018-12-14 17:28:18.939720, 100.0
2018-12-14 17:28:19.841049, 100.0
2018-12-14 17:28:20.742368, 100.0
2018-12-14 17:28:21.643724, 100.0
2018-12-14 17:28:22.545045, 100.0
2018-12-14 17:28:23.446350, 100.0
2018-12-14 17:28:24.347652, 100.0
2018-12-14 17:28:25.248971, 100.0
2018-12-14 17:28:26.150308, 100.0
2018-12-14 17:28:27.051602, 100.0
2018-12-14 17:28:27.952953, 100.0
2018-12-14 17:28:28.854272, 100.0
2018-12-14 17:28:29.755559, 100.0
2018-12-14 17:28:30.656846, 100.0
2018-12-14 17:28:31.557247, 100.0
2018-12-14 17:28:32.458575, 100.0
2018-12-14 17:28:33.359914, 100.0
2018-12-14 17:28:34.263454, 100.0
2018-12-14 17:28:35.164755, 100.0
2018-12-14 17:28:36.065271, 100.0
2018-12-14 17:28:36.966601, 100.0
2018-12-14 17:28:37.867912, 100.0
2018-12-14 17:28:38.769216, 100.0
2018-12-14 17:28:39.670495, 100.0
2018-12-14 17:28:40.572399, 100.0
2018-12-14 17:28:41.473242, 100.0
2018-12-14 17:28:42.374558, 100.0
2018-12-14 17:28:43.275873, 100.0
2018-12-14 17:28:44.177189, 100.0
2018-12-14 17:28:45.078449, 100.0
2018-12-14 17:28:45.979802, 100.0
2018-12-14 17:28:46.881129, 100.0
2018-12-14 17:28:47.782429, 100.0
2018-12-14 17:28:48.683731, 100.0
2018-12-14 17:28:49.585042, 100.0
2018-12-14 17:28:50.486332, 100.0
2018-12-14 17:28:51.387631, 100.0
2018-12-14 17:28:52.288923, 100.0
2018-12-14 17:28:53.190262, 100.0
2018-12-14 17:28:54.091578, 100.0
2018-12-14 17:28:54.992893, 100.0
2018-12-14 17:28:55.894230, 100.0
2018-12-14 17:28:56.795507, 100.0
2018-12-14 17:28:57.696795, 100.0
2018-12-14 17:28:58.597245, 100.0
2018-12-14 17:28:59.498543, 100.0
2018-12-14 17:29:00.399854, 100.0
2018-12-14 17:29:01.301204, 100.0
2018-12-14 17:29:02.202533, 100.0
2018-12-14 17:29:03.103864, 100.0
2018-12-14 17:29:04.005189, 100.0
2018-12-14 17:29:04.906511, 100.0
2018-12-14 17:29:05.807840, 100.0
2018-12-14 17:29:06.709154, 100.0
2018-12-14 17:29:07.610471, 100.0
2018-12-14 17:29:08.511780, 100.0
2018-12-14 17:29:09.413087, 100.0
2018-12-14 17:29:10.314391, 100.0
2018-12-14 17:29:11.215689, 100.0
2018-12-14 17:29:12.117043, 100.0
2018-12-14 17:29:13.018341, 100.0
2018-12-14 17:29:13.919637, 100.0
2018-12-14 17:29:14.821028, 100.0
2018-12-14 17:29:15.722372, 100.0
2018-12-14 17:29:16.623686, 100.0
2018-12-14 17:29:17.525041, 100.0
2018-12-14 17:29:18.426354, 100.0
2018-12-14 17:29:19.327656, 100.0
2018-12-14 17:29:20.229021, 100.0
2018-12-14 17:29:21.130375, 100.0
2018-12-14 17:29:22.031678, 100.0
2018-12-14 17:29:22.932981, 100.0
2018-12-14 17:29:23.834333, 100.0
2018-12-14 17:29:24.735626, 100.0
2018-12-14 17:29:25.636938, 100.0
2018-12-14 17:29:26.538260, 100.0
2018-12-14 17:29:27.439609, 100.0
2018-12-14 17:29:28.340915, 100.0
2018-12-14 17:29:29.242265, 100.0
2018-12-14 17:29:30.143600, 100.0
2018-12-14 17:29:31.044916, 100.0
2018-12-14 17:29:31.946257, 100.0
2018-12-14 17:29:32.847581, 100.0
2018-12-14 17:29:33.748875, 100.0
2018-12-14 17:29:34.649262, 100.0
2018-12-14 17:29:35.550575, 100.0
2018-12-14 17:29:36.451912, 100.0
2018-12-14 17:29:37.353227, 100.0
2018-12-14 17:29:38.254533, 100.0
2018-12-14 17:29:39.155835, 100.0
2018-12-14 17:29:40.057188, 100.0
2018-12-14 17:29:40.958523, 100.0
2018-12-14 17:29:41.859860, 100.0
2018-12-14 17:29:42.761195, 100.0
2018-12-14 17:29:43.662498, 100.0
2018-12-14 17:29:44.563808, 100.0
2018-12-14 17:29:45.465122, 100.0
2018-12-14 17:29:46.366479, 100.0
2018-12-14 17:29:47.267800, 100.0
2018-12-14 17:29:48.169145, 100.0
2018-12-14 17:29:49.070450, 100.0
2018-12-14 17:29:49.971758, 100.0
2018-12-14 17:29:50.873116, 100.0
2018-12-14 17:29:51.774438, 100.0
2018-12-14 17:29:52.675753, 100.0
2018-12-14 17:29:53.577074, 100.0
2018-12-14 17:29:54.478376, 100.0
2018-12-14 17:29:55.379684, 100.0
2018-12-14 17:29:56.281029, 100.0
2018-12-14 17:29:57.182342, 100.0
2018-12-14 17:29:58.083653, 100.0
2018-12-14 17:29:58.984968, 100.0
2018-12-14 17:29:59.886293, 100.0
2018-12-14 17:30:00.787607, 100.0
2018-12-14 17:30:01.688956, 100.0
2018-12-14 17:30:02.590319, 100.0
2018-12-14 17:30:03.491645, 100.0
2018-12-14 17:30:04.392963, 100.0
2018-12-14 17:30:05.294315, 100.0
2018-12-14 17:30:06.195632, 100.0
2018-12-14 17:30:07.096967, 100.0
2018-12-14 17:30:07.998313, 100.0
2018-12-14 17:30:08.899632, 100.0
2018-12-14 17:30:09.800929, 100.0
2018-12-14 17:30:10.702281, 100.0
2018-12-14 17:30:11.603612, 100.0
2018-12-14 17:30:12.504931, 100.0
2018-12-14 17:30:13.406282, 100.0
2018-12-14 17:30:14.307601, 100.0
2018-12-14 17:30:15.208922, 100.0
2018-12-14 17:30:16.110268, 100.0
2018-12-14 17:30:17.011591, 100.0
2018-12-14 17:30:17.912892, 100.0
2018-12-14 17:30:18.814268, 100.0
2018-12-14 17:30:19.715563, 100.0
2018-12-14 17:30:20.616862, 100.0
2018-12-14 17:30:21.517261, 100.0
2018-12-14 17:30:22.418585, 100.0
2018-12-14 17:30:23.319938, 100.0
2018-12-14 17:30:24.221246, 100.0
2018-12-14 17:30:25.122607, 100.0
2018-12-14 17:30:26.023927, 100.0
2018-12-14 17:30:26.925252, 100.0
2018-12-14 17:30:27.826544, 100.0
2018-12-14 17:30:28.727878, 100.0
2018-12-14 17:30:29.629195, 100.0
2018-12-14 17:30:30.530485, 100.0
2018-12-14 17:30:31.431827, 100.0
2018-12-14 17:30:32.333172, 100.0
2018-12-14 17:30:33.234493, 100.0
2018-12-14 17:30:34.135808, 100.0
2018-12-14 17:30:35.037145, 100.0
2018-12-14 17:30:35.938462, 100.0
2018-12-14 17:30:36.839793, 100.0
2018-12-14 17:30:37.741188, 100.0
2018-12-14 17:30:38.642512, 100.0
2018-12-14 17:30:39.543839, 100.0
2018-12-14 17:30:40.445136, 100.0
2018-12-14 17:30:41.346452, 100.0
2018-12-14 17:30:42.247770, 100.0
2018-12-14 17:30:43.149103, 100.0
2018-12-14 17:30:44.050425, 100.0
2018-12-14 17:30:44.951733, 100.0
2018-12-14 17:30:45.853093, 100.0
2018-12-14 17:30:46.754408, 100.0
2018-12-14 17:30:47.655721, 100.0
2018-12-14 17:30:48.557040, 100.0
2018-12-14 17:30:49.458317, 100.0
2018-12-14 17:30:50.359638, 100.0
2018-12-14 17:30:51.260936, 100.0
2018-12-14 17:30:52.162265, 100.0
2018-12-14 17:30:53.063570, 100.0
2018-12-14 17:30:53.964879, 100.0
2018-12-14 17:30:54.866173, 100.0
2018-12-14 17:30:55.767523, 100.0
2018-12-14 17:30:56.668857, 100.0
2018-12-14 17:30:57.569268, 100.0
2018-12-14 17:30:58.470586, 100.0
2018-12-14 17:30:59.371883, 100.0
2018-12-14 17:31:00.273211, 100.0
2018-12-14 17:31:01.174495, 100.0
2018-12-14 17:31:02.075827, 100.0
2018-12-14 17:31:02.977175, 100.0
2018-12-14 17:31:03.878484, 100.0
2018-12-14 17:31:04.779802, 100.0
2018-12-14 17:31:05.681112, 100.0
2018-12-14 17:31:06.582412, 100.0
2018-12-14 17:31:07.483739, 100.0
2018-12-14 17:31:08.385069, 100.0
2018-12-14 17:31:09.286392, 100.0
2018-12-14 17:31:10.187689, 100.0
2018-12-14 17:31:11.089028, 100.0
2018-12-14 17:31:11.990314, 100.0
2018-12-14 17:31:12.891606, 100.0
2018-12-14 17:31:13.792936, 100.0
2018-12-14 17:31:14.694257, 100.0
2018-12-14 17:31:15.595551, 100.0
2018-12-14 17:31:16.496878, 100.0
2018-12-14 17:31:17.397277, 100.0
2018-12-14 17:31:18.298588, 100.0
2018-12-14 17:31:19.199922, 100.0
2018-12-14 17:31:20.101238, 100.0
2018-12-14 17:31:21.002537, 100.0
2018-12-14 17:31:21.903855, 100.0
2018-12-14 17:31:22.805190, 100.0
2018-12-14 17:31:23.706512, 100.0
2018-12-14 17:31:24.607823, 100.0
2018-12-14 17:31:25.509141, 100.0
2018-12-14 17:31:26.410440, 100.0
2018-12-14 17:31:27.311751, 100.0
2018-12-14 17:31:28.213077, 100.0
2018-12-14 17:31:29.114375, 100.0
2018-12-14 17:31:30.015671, 100.0
2018-12-14 17:31:30.917034, 100.0
2018-12-14 17:31:31.818347, 100.0
2018-12-14 17:31:32.719677, 100.0
2018-12-14 17:31:33.621028, 100.0
2018-12-14 17:31:34.522349, 100.0
2018-12-14 17:31:35.423658, 100.0
2018-12-14 17:31:36.324952, 100.0
2018-12-14 17:31:37.226275, 100.0
2018-12-14 17:31:38.127564, 100.0
2018-12-14 17:31:39.028863, 100.0
2018-12-14 17:31:39.929278, 100.0
2018-12-14 17:31:40.830606, 100.0
2018-12-14 17:31:41.731930, 100.0
2018-12-14 17:31:42.633254, 100.0
2018-12-14 17:31:43.534564, 100.0
2018-12-14 17:31:44.435870, 100.0
2018-12-14 17:31:45.337189, 100.0
2018-12-14 17:31:46.238493, 100.0
2018-12-14 17:31:47.139820, 100.0
2018-12-14 17:31:48.041146, 100.0
2018-12-14 17:31:48.942470, 100.0
2018-12-14 17:31:49.843771, 100.0
2018-12-14 17:31:50.745150, 100.0
2018-12-14 17:31:51.646455, 100.0
2018-12-14 17:31:52.547777, 100.0
2018-12-14 17:31:53.449113, 100.0
2018-12-14 17:31:54.350424, 100.0
2018-12-14 17:31:55.251713, 100.0
2018-12-14 17:31:56.153041, 100.0
2018-12-14 17:31:57.054362, 100.0
2018-12-14 17:31:57.955677, 100.0
2018-12-14 17:31:58.856984, 100.0
2018-12-14 17:31:59.758333, 100.0
2018-12-14 17:32:00.659628, 100.0
2018-12-14 17:32:01.560953, 100.0
2018-12-14 17:32:02.462286, 100.0
2018-12-14 17:32:03.363579, 100.0
2018-12-14 17:32:04.264912, 100.0
2018-12-14 17:32:05.166260, 100.0
2018-12-14 17:32:06.067578, 100.0
2018-12-14 17:32:06.968877, 100.0
2018-12-14 17:32:07.869264, 100.0
2018-12-14 17:32:08.770552, 100.0
2018-12-14 17:32:09.671855, 100.0
2018-12-14 17:32:10.573174, 100.0
2018-12-14 17:32:11.474527, 100.0
2018-12-14 17:32:12.375868, 100.0
2018-12-14 17:32:13.277204, 100.0
2018-12-14 17:32:14.178523, 100.0
2018-12-14 17:32:15.079841, 100.0
2018-12-14 17:32:15.981204, 100.0
2018-12-14 17:32:16.882510, 100.0
2018-12-14 17:32:17.784854, 100.0
2018-12-14 17:32:18.686239, 100.0
2018-12-14 17:32:19.587553, 100.0
2018-12-14 17:32:20.488866, 100.0
2018-12-14 17:32:21.389258, 100.0
2018-12-14 17:32:22.290553, 100.0
2018-12-14 17:32:23.191880, 100.0
2018-12-14 17:32:24.093187, 100.0
2018-12-14 17:32:24.994511, 100.0
2018-12-14 17:32:25.895850, 100.0
2018-12-14 17:32:26.797201, 100.0
2018-12-14 17:32:27.698527, 100.0
2018-12-14 17:32:28.599852, 100.0
2018-12-14 17:32:29.501183, 100.0
2018-12-14 17:32:30.402486, 100.0
2018-12-14 17:32:31.303791, 100.0
2018-12-14 17:32:32.205096, 100.0
2018-12-14 17:32:33.106407, 100.0
2018-12-14 17:32:34.007712, 100.0
2018-12-14 17:32:34.909028, 100.0
2018-12-14 17:32:35.810338, 100.0
2018-12-14 17:32:36.711640, 100.0
2018-12-14 17:32:37.612929, 100.0
2018-12-14 17:32:38.514309, 100.0
2018-12-14 17:32:39.415606, 100.0
2018-12-14 17:32:40.316910, 100.0
2018-12-14 17:32:41.218241, 100.0
2018-12-14 17:32:42.119547, 100.0
2018-12-14 17:32:43.020843, 100.0
2018-12-14 17:32:43.921243, 100.0
2018-12-14 17:32:44.822550, 100.0
2018-12-14 17:32:45.723893, 100.0
2018-12-14 17:32:46.625216, 100.0
2018-12-14 17:32:47.526566, 100.0
2018-12-14 17:32:48.427888, 100.0
2018-12-14 17:32:49.329186, 100.0
2018-12-14 17:32:50.230507, 100.0
2018-12-14 17:32:51.131844, 100.0
2018-12-14 17:32:52.033176, 100.0
2018-12-14 17:32:52.934477, 100.0
2018-12-14 17:32:53.835813, 100.0
2018-12-14 17:32:54.737128, 100.0
2018-12-14 17:32:55.638426, 100.0
2018-12-14 17:32:56.539727, 100.0
2018-12-14 17:32:57.441051, 100.0
2018-12-14 17:32:58.342363, 100.0
2018-12-14 17:32:59.243677, 100.0
2018-12-14 17:33:00.145024, 100.0
2018-12-14 17:33:01.046363, 100.0
2018-12-14 17:33:01.947697, 100.0
2018-12-14 17:33:02.849054, 100.0
2018-12-14 17:33:03.750389, 100.0
2018-12-14 17:33:04.651711, 100.0
2018-12-14 17:33:05.553037, 100.0
2018-12-14 17:33:06.454358, 100.0
2018-12-14 17:33:07.355664, 100.0
2018-12-14 17:33:08.256972, 100.0
2018-12-14 17:33:09.158330, 100.0
2018-12-14 17:33:10.059659, 100.0
2018-12-14 17:33:10.960955, 100.0
2018-12-14 17:33:11.862325, 100.0
2018-12-14 17:33:12.763660, 100.0
2018-12-14 17:33:13.665014, 100.0
2018-12-14 17:33:14.566337, 100.0
2018-12-14 17:33:15.467669, 100.0
2018-12-14 17:33:16.369033, 100.0
2018-12-14 17:33:17.270362, 100.0
2018-12-14 17:33:18.171673, 100.0
2018-12-14 17:33:19.072971, 100.0
2018-12-14 17:33:19.974338, 100.0
2018-12-14 17:33:20.875651, 100.0
2018-12-14 17:33:21.777011, 100.0
2018-12-14 17:33:22.678321, 100.0
2018-12-14 17:33:23.579649, 100.0
2018-12-14 17:33:24.480946, 100.0
2018-12-14 17:33:25.382303, 100.0
2018-12-14 17:33:26.283635, 100.0
2018-12-14 17:33:27.184923, 100.0
2018-12-14 17:33:28.086268, 100.0
2018-12-14 17:33:28.987589, 100.0
2018-12-14 17:33:29.888908, 100.0
2018-12-14 17:33:30.790226, 100.0
2018-12-14 17:33:31.691538, 100.0
2018-12-14 17:33:32.592849, 100.0
2018-12-14 17:33:33.493277, 100.0
2018-12-14 17:33:34.394606, 100.0
2018-12-14 17:33:35.295926, 100.0
2018-12-14 17:33:36.197251, 100.0
2018-12-14 17:33:37.098557, 100.0
2018-12-14 17:33:37.999916, 100.0
2018-12-14 17:33:38.901280, 100.0
2018-12-14 17:33:39.802556, 100.0
2018-12-14 17:33:40.703917, 100.0
2018-12-14 17:33:41.605193, 100.0
2018-12-14 17:33:42.506511, 100.0
2018-12-14 17:33:43.407838, 100.0
2018-12-14 17:33:44.309179, 100.0
2018-12-14 17:33:45.210569, 100.0
2018-12-14 17:33:46.111903, 100.0
2018-12-14 17:33:47.013245, 100.0
2018-12-14 17:33:47.914592, 100.0
2018-12-14 17:33:48.815909, 100.0
2018-12-14 17:33:49.717206, 100.0
2018-12-14 17:33:50.618537, 100.0
2018-12-14 17:33:51.519837, 100.0
2018-12-14 17:33:52.421148, 100.0
2018-12-14 17:33:53.322518, 100.0
2018-12-14 17:33:54.223810, 100.0
2018-12-14 17:33:55.125130, 100.0
2018-12-14 17:33:56.026446, 100.0
2018-12-14 17:33:56.927759, 100.0
2018-12-14 17:33:57.829083, 100.0
2018-12-14 17:33:58.730388, 100.0
2018-12-14 17:33:59.631717, 100.0
2018-12-14 17:34:00.533073, 100.0
2018-12-14 17:34:01.434402, 100.0
2018-12-14 17:34:02.335725, 100.0
2018-12-14 17:34:03.237061, 100.0
2018-12-14 17:34:04.138366, 100.0
2018-12-14 17:34:05.039665, 100.0
2018-12-14 17:34:05.940967, 100.0
2018-12-14 17:34:06.842304, 100.0
2018-12-14 17:34:07.743625, 100.0
2018-12-14 17:34:08.644932, 100.0
2018-12-14 17:34:09.546282, 100.0
2018-12-14 17:34:10.447586, 100.0
2018-12-14 17:34:11.348905, 100.0
2018-12-14 17:34:12.250235, 100.0
2018-12-14 17:34:13.151550, 100.0
2018-12-14 17:34:14.052852, 100.0
2018-12-14 17:34:14.953240, 100.0
2018-12-14 17:34:15.854540, 100.0
2018-12-14 17:34:16.755856, 100.0
2018-12-14 17:34:17.657170, 100.0
2018-12-14 17:34:18.558485, 100.0
2018-12-14 17:34:19.459815, 100.0
2018-12-14 17:34:20.361155, 100.0
2018-12-14 17:34:21.262457, 100.0
2018-12-14 17:34:22.163767, 100.0
2018-12-14 17:34:23.065096, 100.0
2018-12-14 17:34:23.966382, 100.0
2018-12-14 17:34:24.867683, 100.0
2018-12-14 17:34:25.769021, 100.0
2018-12-14 17:34:26.670354, 100.0
2018-12-14 17:34:27.571651, 100.0
2018-12-14 17:34:28.472981, 100.0
2018-12-14 17:34:29.374349, 100.0
2018-12-14 17:34:30.275671, 100.0
2018-12-14 17:34:31.176968, 100.0
2018-12-14 17:34:32.078301, 100.0
2018-12-14 17:34:32.979598, 100.0
2018-12-14 17:34:33.880902, 100.0
2018-12-14 17:34:34.782243, 100.0
2018-12-14 17:34:35.683544, 100.0
2018-12-14 17:34:36.584858, 100.0
2018-12-14 17:34:37.485243, 100.0
2018-12-14 17:34:38.386533, 100.0
2018-12-14 17:34:39.287874, 100.0
2018-12-14 17:34:40.189193, 100.0
2018-12-14 17:34:41.090519, 100.0
2018-12-14 17:34:41.991820, 100.0
2018-12-14 17:34:42.893165, 100.0
2018-12-14 17:34:43.794477, 100.0
2018-12-14 17:34:44.695782, 100.0
2018-12-14 17:34:45.597109, 100.0
2018-12-14 17:34:46.498423, 100.0
2018-12-14 17:34:47.399731, 100.0
2018-12-14 17:34:48.301094, 100.0
2018-12-14 17:34:49.202426, 100.0
2018-12-14 17:34:50.103736, 100.0
2018-12-14 17:34:51.005079, 100.0
2018-12-14 17:34:51.906416, 100.0
2018-12-14 17:34:52.807740, 100.0
2018-12-14 17:34:53.709084, 100.0
2018-12-14 17:34:54.610384, 100.0
2018-12-14 17:34:55.511735, 100.0
2018-12-14 17:34:56.413064, 100.0
2018-12-14 17:34:57.314386, 100.0
2018-12-14 17:34:58.215684, 100.0
2018-12-14 17:34:59.117034, 100.0
2018-12-14 17:35:00.018374, 100.0
2018-12-14 17:35:00.919723, 100.0
2018-12-14 17:35:01.821072, 100.0
2018-12-14 17:35:02.722386, 100.0
2018-12-14 17:35:03.623709, 100.0
2018-12-14 17:35:04.525039, 100.0
2018-12-14 17:35:05.426366, 100.0
2018-12-14 17:35:06.327684, 100.0
2018-12-14 17:35:07.228982, 100.0
2018-12-14 17:35:08.130308, 100.0
2018-12-14 17:35:09.031615, 100.0
2018-12-14 17:35:09.932918, 100.0
2018-12-14 17:35:10.834261, 100.0
2018-12-14 17:35:11.735582, 100.0
2018-12-14 17:35:12.636933, 100.0
2018-12-14 17:35:13.538272, 100.0
2018-12-14 17:35:14.439573, 100.0
2018-12-14 17:35:15.340877, 100.0
2018-12-14 17:35:16.241241, 100.0
2018-12-14 17:35:17.142534, 100.0
2018-12-14 17:35:18.043828, 100.0
2018-12-14 17:35:18.945140, 100.0
2018-12-14 17:35:19.846445, 100.0
2018-12-14 17:35:20.747775, 100.0
2018-12-14 17:35:21.649095, 100.0
2018-12-14 17:35:22.550425, 100.0
2018-12-14 17:35:23.451761, 100.0
2018-12-14 17:35:24.353102, 100.0
2018-12-14 17:35:25.254408, 100.0
2018-12-14 17:35:26.155693, 100.0
2018-12-14 17:35:27.057042, 100.0
2018-12-14 17:35:27.958370, 100.0
2018-12-14 17:35:28.859678, 100.0
2018-12-14 17:35:29.760975, 100.0
2018-12-14 17:35:30.662306, 100.0
2018-12-14 17:35:31.563608, 100.0
2018-12-14 17:35:32.464911, 100.0
2018-12-14 17:35:33.366256, 100.0
2018-12-14 17:35:34.267577, 100.0
2018-12-14 17:35:35.168887, 100.0
2018-12-14 17:35:36.069241, 100.0
2018-12-14 17:35:36.970565, 100.0
2018-12-14 17:35:37.871872, 100.0
2018-12-14 17:35:38.773210, 100.0
2018-12-14 17:35:39.674549, 100.0
2018-12-14 17:35:40.575856, 100.0
2018-12-14 17:35:41.477195, 100.0
2018-12-14 17:35:42.378502, 100.0
2018-12-14 17:35:43.279822, 100.0
2018-12-14 17:35:44.181141, 100.0
2018-12-14 17:35:45.082446, 100.0
2018-12-14 17:35:45.983742, 100.0
2018-12-14 17:35:46.885065, 100.0
2018-12-14 17:35:47.786423, 100.0
2018-12-14 17:35:48.687763, 100.0
2018-12-14 17:35:49.591512, 100.0
2018-12-14 17:35:50.492810, 100.0
2018-12-14 17:35:51.393254, 100.0
2018-12-14 17:35:52.294554, 100.0
2018-12-14 17:35:53.195859, 100.0
2018-12-14 17:35:54.097182, 100.0
2018-12-14 17:35:54.998559, 100.0
2018-12-14 17:35:55.899895, 100.0
2018-12-14 17:35:56.801195, 100.0
2018-12-14 17:35:57.702516, 100.0
2018-12-14 17:35:58.603623, 100.0
2018-12-14 17:35:59.504959, 100.0
2018-12-14 17:36:00.406309, 100.0
2018-12-14 17:36:01.307630, 100.0
2018-12-14 17:36:02.208950, 100.0
2018-12-14 17:36:03.110308, 100.0
2018-12-14 17:36:04.011635, 100.0
2018-12-14 17:36:04.912940, 100.0
2018-12-14 17:36:05.814291, 100.0
2018-12-14 17:36:06.715613, 100.0
2018-12-14 17:36:07.616913, 100.0
2018-12-14 17:36:08.518268, 100.0
2018-12-14 17:36:09.419579, 100.0
2018-12-14 17:36:10.320916, 100.0
2018-12-14 17:36:11.222336, 100.0
2018-12-14 17:36:12.123657, 100.0
2018-12-14 17:36:13.024961, 100.0
2018-12-14 17:36:13.926336, 100.0
2018-12-14 17:36:14.827681, 100.0
2018-12-14 17:36:15.729075, 100.0
2018-12-14 17:36:16.630439, 100.0
2018-12-14 17:36:17.531829, 100.0
2018-12-14 17:36:18.433211, 100.0
2018-12-14 17:36:19.334575, 100.0
2018-12-14 17:36:20.235891, 100.0
2018-12-14 17:36:21.137251, 100.0
2018-12-14 17:36:22.038622, 100.0
2018-12-14 17:36:22.939973, 100.0
2018-12-14 17:36:23.841277, 100.0
2018-12-14 17:36:24.742649, 100.0
2018-12-14 17:36:25.643988, 100.0
2018-12-14 17:36:26.545291, 100.0
2018-12-14 17:36:27.446665, 100.0
2018-12-14 17:36:28.348011, 100.0
2018-12-14 17:36:29.249285, 100.0
2018-12-14 17:36:30.150629, 100.0
2018-12-14 17:36:31.051974, 100.0
2018-12-14 17:36:31.953276, 100.0
2018-12-14 17:36:32.854594, 100.0
2018-12-14 17:36:33.755939, 100.0
2018-12-14 17:36:34.657353, 100.0
2018-12-14 17:36:35.558700, 100.0
2018-12-14 17:36:36.460035, 100.0
2018-12-14 17:36:37.361227, 100.0
2018-12-14 17:36:38.262582, 100.0
2018-12-14 17:36:39.163895, 100.0
2018-12-14 17:36:40.065277, 100.0
2018-12-14 17:36:40.966602, 100.0
2018-12-14 17:36:41.867968, 100.0
2018-12-14 17:36:42.769259, 100.0
2018-12-14 17:36:43.670601, 100.0
2018-12-14 17:36:44.571961, 100.0
2018-12-14 17:36:45.473282, 100.0
2018-12-14 17:36:46.374632, 100.0
2018-12-14 17:36:47.276008, 100.0
2018-12-14 17:36:48.177285, 100.0
2018-12-14 17:36:49.078665, 100.0
2018-12-14 17:36:49.979970, 100.0
2018-12-14 17:36:50.881275, 100.0
2018-12-14 17:36:51.782630, 100.0
2018-12-14 17:36:52.684019, 100.0
2018-12-14 17:36:53.585282, 100.0
2018-12-14 17:36:54.486650, 100.0
2018-12-14 17:36:55.388033, 100.0
2018-12-14 17:36:56.289270, 100.0
2018-12-14 17:36:57.190606, 100.0
2018-12-14 17:36:58.091922, 100.0
2018-12-14 17:36:58.993322, 100.0
2018-12-14 17:36:59.894696, 100.0
2018-12-14 17:37:00.796046, 100.0
2018-12-14 17:37:01.697263, 100.0
2018-12-14 17:37:02.598628, 100.0
2018-12-14 17:37:03.499984, 100.0
2018-12-14 17:37:04.401284, 100.0
2018-12-14 17:37:05.302611, 100.0
2018-12-14 17:37:06.203974, 100.0
2018-12-14 17:37:07.105287, 100.0
2018-12-14 17:37:08.006633, 100.0
2018-12-14 17:37:08.907989, 100.0
2018-12-14 17:37:09.809260, 100.0
2018-12-14 17:37:10.710582, 100.0
2018-12-14 17:37:11.611969, 100.0
2018-12-14 17:37:12.513248, 100.0
2018-12-14 17:37:13.414609, 100.0
2018-12-14 17:37:14.315929, 100.0
2018-12-14 17:37:15.217267, 100.0
2018-12-14 17:37:16.118575, 100.0
2018-12-14 17:37:17.019880, 100.0
2018-12-14 17:37:17.921195, 100.0
2018-12-14 17:37:18.822496, 100.0
2018-12-14 17:37:19.723812, 100.0
2018-12-14 17:37:20.625137, 100.0
2018-12-14 17:37:21.526435, 100.0
2018-12-14 17:37:22.427721, 100.0
2018-12-14 17:37:23.329091, 100.0
2018-12-14 17:37:24.230443, 100.0
2018-12-14 17:37:25.131756, 100.0
2018-12-14 17:37:26.033105, 100.0
2018-12-14 17:37:26.934416, 100.0
2018-12-14 17:37:27.835724, 100.0
2018-12-14 17:37:28.737072, 100.0
2018-12-14 17:37:29.638387, 100.0
2018-12-14 17:37:30.539717, 100.0
2018-12-14 17:37:31.441065, 100.0
2018-12-14 17:37:32.342403, 100.0
2018-12-14 17:37:33.243739, 100.0
2018-12-14 17:37:34.145062, 100.0
2018-12-14 17:37:35.046363, 100.0
2018-12-14 17:37:35.947679, 100.0
2018-12-14 17:37:36.848974, 100.0
2018-12-14 17:37:37.750356, 100.0
2018-12-14 17:37:38.651658, 100.0
2018-12-14 17:37:39.552958, 100.0
2018-12-14 17:37:40.454316, 100.0
2018-12-14 17:37:41.355617, 100.0
2018-12-14 17:37:42.256933, 100.0
2018-12-14 17:37:43.158317, 100.0
2018-12-14 17:37:44.059624, 100.0
2018-12-14 17:37:44.960945, 100.0
2018-12-14 17:37:45.862314, 100.0
2018-12-14 17:37:46.763617, 100.0
2018-12-14 17:37:47.664935, 100.0
2018-12-14 17:37:48.566318, 100.0
2018-12-14 17:37:49.467650, 100.0
2018-12-14 17:37:50.368959, 100.0
2018-12-14 17:37:51.270340, 100.0
2018-12-14 17:37:52.171670, 100.0
2018-12-14 17:37:53.072981, 100.0
2018-12-14 17:37:53.974348, 100.0
2018-12-14 17:37:54.875658, 100.0
2018-12-14 17:37:55.776962, 100.0
2018-12-14 17:37:56.678320, 100.0
2018-12-14 17:37:57.579642, 100.0
2018-12-14 17:37:58.480954, 100.0
2018-12-14 17:37:59.382306, 100.0
2018-12-14 17:38:00.283607, 100.0
2018-12-14 17:38:01.184907, 100.0
2018-12-14 17:38:02.086246, 100.0
2018-12-14 17:38:02.987560, 100.0
2018-12-14 17:38:03.888867, 100.0
2018-12-14 17:38:04.789252, 100.0
2018-12-14 17:38:05.690572, 100.0
2018-12-14 17:38:06.591903, 100.0
2018-12-14 17:38:07.493203, 100.0
2018-12-14 17:38:08.394543, 100.0
2018-12-14 17:38:09.295847, 100.0
2018-12-14 17:38:10.197182, 100.0
2018-12-14 17:38:11.098499, 100.0
2018-12-14 17:38:11.999818, 100.0
2018-12-14 17:38:12.901156, 100.0
2018-12-14 17:38:13.802473, 100.0
2018-12-14 17:38:14.703798, 100.0
2018-12-14 17:38:15.605124, 100.0
2018-12-14 17:38:16.506441, 100.0
2018-12-14 17:38:17.407742, 100.0
2018-12-14 17:38:18.309079, 100.0
2018-12-14 17:38:19.210392, 100.0
2018-12-14 17:38:20.111728, 100.0
2018-12-14 17:38:21.013090, 100.0
2018-12-14 17:38:21.914417, 100.0
2018-12-14 17:38:22.815745, 100.0
2018-12-14 17:38:23.717110, 100.0
2018-12-14 17:38:24.618427, 100.0
2018-12-14 17:38:25.519724, 100.0
2018-12-14 17:38:26.421070, 100.0
2018-12-14 17:38:27.322395, 100.0
2018-12-14 17:38:28.223696, 100.0
2018-12-14 17:38:29.125022, 100.0
2018-12-14 17:38:30.026327, 100.0
2018-12-14 17:38:30.927623, 100.0
2018-12-14 17:38:31.828925, 100.0
2018-12-14 17:38:32.730262, 100.0
2018-12-14 17:38:33.631569, 100.0
2018-12-14 17:38:34.532890, 100.0
2018-12-14 17:38:35.433266, 100.0
2018-12-14 17:38:36.334608, 100.0
2018-12-14 17:38:37.235921, 100.0
2018-12-14 17:38:38.137232, 100.0
2018-12-14 17:38:39.038618, 100.0
2018-12-14 17:38:39.939931, 100.0
2018-12-14 17:38:40.841264, 100.0
2018-12-14 17:38:41.742560, 100.0
2018-12-14 17:38:42.643877, 100.0
2018-12-14 17:38:43.545255, 100.0
2018-12-14 17:38:44.446568, 100.0
2018-12-14 17:38:45.347862, 100.0
2018-12-14 17:38:46.249178, 100.0
2018-12-14 17:38:47.150473, 100.0
2018-12-14 17:38:48.051788, 100.0
2018-12-14 17:38:48.953105, 100.0
2018-12-14 17:38:49.854430, 100.0
2018-12-14 17:38:50.755715, 100.0
2018-12-14 17:38:51.657062, 100.0
2018-12-14 17:38:52.558356, 100.0
2018-12-14 17:38:53.459669, 100.0
2018-12-14 17:38:54.360956, 100.0
2018-12-14 17:38:55.262276, 100.0
2018-12-14 17:38:56.163567, 100.0
2018-12-14 17:38:57.064838, 100.0
2018-12-14 17:38:57.965242, 100.0
2018-12-14 17:38:58.866533, 100.0
2018-12-14 17:38:59.767821, 100.0
2018-12-14 17:39:00.669165, 100.0
2018-12-14 17:39:01.570499, 100.0
2018-12-14 17:39:02.471812, 100.0
2018-12-14 17:39:03.373125, 100.0
2018-12-14 17:39:04.274443, 100.0
2018-12-14 17:39:05.175754, 100.0
2018-12-14 17:39:06.077095, 100.0
2018-12-14 17:39:06.978415, 100.0
2018-12-14 17:39:07.879729, 100.0
2018-12-14 17:39:08.781050, 100.0
2018-12-14 17:39:09.682365, 100.0
2018-12-14 17:39:10.583693, 100.0
2018-12-14 17:39:11.485044, 100.0
2018-12-14 17:39:12.386346, 100.0
2018-12-14 17:39:13.287641, 100.0
2018-12-14 17:39:14.188976, 100.0
2018-12-14 17:39:15.090318, 100.0
2018-12-14 17:39:15.991610, 100.0
2018-12-14 17:39:16.892911, 100.0
2018-12-14 17:39:17.794250, 100.0
2018-12-14 17:39:18.695587, 100.0
2018-12-14 17:39:19.596895, 100.0
2018-12-14 17:39:20.498217, 100.0
2018-12-14 17:39:21.399508, 100.0
2018-12-14 17:39:22.300808, 100.0
2018-12-14 17:39:23.201265, 100.0
2018-12-14 17:39:24.102568, 100.0
2018-12-14 17:39:25.003886, 100.0
2018-12-14 17:39:25.905221, 100.0
2018-12-14 17:39:26.806552, 100.0
2018-12-14 17:39:27.707837, 100.0
2018-12-14 17:39:28.609131, 100.0
2018-12-14 17:39:29.510457, 100.0
2018-12-14 17:39:30.411779, 100.0
2018-12-14 17:39:31.313096, 100.0
