time, cpu_percent
2018-12-10 23:35:08.166950, 100.0
2018-12-10 23:35:09.068325, 100.0
2018-12-10 23:35:09.969536, 100.0
2018-12-10 23:35:10.870831, 100.0
2018-12-10 23:35:11.772102, 100.0
2018-12-10 23:35:12.673404, 100.0
2018-12-10 23:35:13.574698, 100.0
2018-12-10 23:35:14.476030, 100.0
2018-12-10 23:35:15.377274, 100.0
2018-12-10 23:35:16.278550, 100.0
2018-12-10 23:35:17.179040, 100.0
2018-12-10 23:35:18.080366, 100.0
2018-12-10 23:35:18.981563, 100.0
2018-12-10 23:35:19.882790, 100.0
2018-12-10 23:35:20.784105, 100.0
2018-12-10 23:35:21.685352, 100.0
2018-12-10 23:35:22.586553, 100.0
2018-12-10 23:35:23.487072, 100.0
2018-12-10 23:35:24.388368, 100.0
2018-12-10 23:35:25.289561, 100.0
2018-12-10 23:35:26.190780, 100.0
2018-12-10 23:35:27.092082, 100.0
2018-12-10 23:35:27.993390, 100.0
2018-12-10 23:35:28.894632, 100.0
2018-12-10 23:35:29.795113, 100.0
2018-12-10 23:35:30.696406, 100.0
2018-12-10 23:35:31.597604, 100.0
2018-12-10 23:35:32.498871, 100.0
2018-12-10 23:35:33.400235, 100.0
2018-12-10 23:35:34.301428, 100.0
2018-12-10 23:35:35.202644, 100.0
2018-12-10 23:35:36.103035, 100.0
2018-12-10 23:35:37.004295, 100.0
2018-12-10 23:35:37.905515, 100.0
2018-12-10 23:35:38.806792, 100.0
2018-12-10 23:35:39.708112, 100.0
2018-12-10 23:35:40.609302, 100.0
2018-12-10 23:35:41.510507, 100.0
2018-12-10 23:35:42.411053, 100.0
2018-12-10 23:35:43.312298, 100.0
2018-12-10 23:35:44.213551, 100.0
2018-12-10 23:35:45.114828, 100.0
2018-12-10 23:35:46.016104, 100.0
2018-12-10 23:35:46.917380, 100.0
2018-12-10 23:35:47.818626, 100.0
2018-12-10 23:35:48.719076, 100.0
2018-12-10 23:35:49.620305, 100.0
2018-12-10 23:35:50.521579, 100.0
2018-12-10 23:35:51.422992, 100.0
2018-12-10 23:35:52.324275, 100.0
2018-12-10 23:35:53.225465, 100.0
2018-12-10 23:35:54.126670, 100.0
2018-12-10 23:35:55.028053, 100.0
2018-12-10 23:35:55.929355, 100.0
2018-12-10 23:35:56.830835, 100.0
2018-12-10 23:35:57.732119, 100.0
2018-12-10 23:35:58.633306, 100.0
2018-12-10 23:35:59.534507, 100.0
2018-12-10 23:36:00.435082, 100.0
2018-12-10 23:36:01.336345, 100.0
2018-12-10 23:36:02.237545, 100.0
2018-12-10 23:36:03.138923, 100.0
2018-12-10 23:36:04.040205, 100.0
2018-12-10 23:36:04.941438, 100.0
2018-12-10 23:36:05.842740, 100.0
2018-12-10 23:36:06.744111, 100.0
2018-12-10 23:36:07.645356, 100.0
2018-12-10 23:36:08.546687, 100.0
2018-12-10 23:36:09.448030, 100.0
2018-12-10 23:36:10.349228, 100.0
2018-12-10 23:36:11.250437, 100.0
2018-12-10 23:36:12.151042, 100.0
2018-12-10 23:36:13.052226, 100.0
2018-12-10 23:36:13.953409, 100.0
2018-12-10 23:36:14.854666, 100.0
2018-12-10 23:36:15.755168, 100.0
2018-12-10 23:36:16.656418, 100.0
2018-12-10 23:36:17.557650, 100.0
2018-12-10 23:36:18.458916, 100.0
2018-12-10 23:36:19.360140, 100.0
2018-12-10 23:36:20.261353, 100.0
2018-12-10 23:36:21.162831, 100.0
2018-12-10 23:36:22.064126, 100.0
2018-12-10 23:36:22.965328, 100.0
2018-12-10 23:36:23.866533, 100.0
2018-12-10 23:36:24.767041, 100.0
2018-12-10 23:36:25.668224, 100.0
2018-12-10 23:36:26.569423, 100.0
2018-12-10 23:36:27.470747, 100.0
2018-12-10 23:36:28.372038, 100.0
2018-12-10 23:36:29.273253, 100.0
2018-12-10 23:36:30.174451, 100.0
2018-12-10 23:36:31.075047, 100.0
2018-12-10 23:36:31.976249, 100.0
2018-12-10 23:36:32.877567, 100.0
2018-12-10 23:36:33.778862, 100.0
2018-12-10 23:36:34.680143, 100.0
2018-12-10 23:36:35.581337, 100.0
2018-12-10 23:36:36.482625, 100.0
2018-12-10 23:36:37.383023, 100.0
2018-12-10 23:36:38.284230, 100.0
2018-12-10 23:36:39.185599, 100.0
2018-12-10 23:36:40.086924, 100.0
2018-12-10 23:36:40.988125, 100.0
2018-12-10 23:36:41.889360, 100.0
2018-12-10 23:36:42.790605, 100.0
2018-12-10 23:36:43.691058, 100.0
2018-12-10 23:36:44.592244, 100.0
2018-12-10 23:36:45.493434, 100.0
2018-12-10 23:36:46.394754, 100.0
2018-12-10 23:36:47.296163, 100.0
2018-12-10 23:36:48.197367, 100.0
2018-12-10 23:36:49.098642, 100.0
2018-12-10 23:36:49.999087, 100.0
2018-12-10 23:36:50.900308, 100.0
2018-12-10 23:36:51.801615, 100.0
2018-12-10 23:36:52.702943, 100.0
2018-12-10 23:36:53.604171, 100.0
2018-12-10 23:36:54.505529, 100.0
2018-12-10 23:36:55.406795, 100.0
2018-12-10 23:36:56.308048, 100.0
2018-12-10 23:36:57.209282, 100.0
2018-12-10 23:36:58.110608, 100.0
2018-12-10 23:36:59.011021, 100.0
2018-12-10 23:36:59.912267, 100.0
2018-12-10 23:37:00.813610, 100.0
2018-12-10 23:37:01.714980, 100.0
2018-12-10 23:37:02.616247, 100.0
2018-12-10 23:37:03.517516, 100.0
2018-12-10 23:37:04.418822, 100.0
2018-12-10 23:37:05.320076, 100.0
2018-12-10 23:37:06.221269, 100.0
2018-12-10 23:37:07.122550, 100.0
2018-12-10 23:37:08.023016, 100.0
2018-12-10 23:37:08.924242, 100.0
2018-12-10 23:37:09.825504, 100.0
2018-12-10 23:37:10.726764, 100.0
2018-12-10 23:37:11.628038, 100.0
2018-12-10 23:37:12.529721, 100.0
2018-12-10 23:37:13.431040, 100.0
2018-12-10 23:37:14.332250, 100.0
2018-12-10 23:37:15.233503, 100.0
2018-12-10 23:37:16.134847, 100.0
2018-12-10 23:37:17.036121, 100.0
2018-12-10 23:37:17.937355, 100.0
2018-12-10 23:37:18.838665, 100.0
2018-12-10 23:37:19.739132, 100.0
2018-12-10 23:37:20.640421, 100.0
2018-12-10 23:37:21.541751, 100.0
2018-12-10 23:37:22.442951, 100.0
2018-12-10 23:37:23.344146, 100.0
2018-12-10 23:37:24.245350, 100.0
2018-12-10 23:37:25.146661, 100.0
2018-12-10 23:37:26.047979, 100.0
2018-12-10 23:37:26.949192, 100.0
2018-12-10 23:37:27.850428, 100.0
2018-12-10 23:37:28.751062, 100.0
2018-12-10 23:37:29.652284, 100.0
2018-12-10 23:37:30.553600, 100.0
2018-12-10 23:37:31.455857, 100.0
2018-12-10 23:37:32.357055, 100.0
2018-12-10 23:37:33.258263, 100.0
2018-12-10 23:37:34.159002, 100.0
2018-12-10 23:37:35.060188, 100.0
2018-12-10 23:37:35.961464, 100.0
2018-12-10 23:37:36.862730, 100.0
2018-12-10 23:37:37.763949, 100.0
2018-12-10 23:37:38.665142, 100.0
2018-12-10 23:37:39.566413, 100.0
2018-12-10 23:37:40.467007, 100.0
2018-12-10 23:37:41.368325, 100.0
2018-12-10 23:37:42.269603, 100.0
2018-12-10 23:37:43.170900, 100.0
2018-12-10 23:37:44.072120, 100.0
2018-12-10 23:37:44.973352, 100.0
2018-12-10 23:37:45.874611, 100.0
2018-12-10 23:37:46.775060, 100.0
2018-12-10 23:37:47.676320, 100.0
2018-12-10 23:37:48.577592, 100.0
2018-12-10 23:37:49.478897, 100.0
2018-12-10 23:37:50.380142, 100.0
2018-12-10 23:37:51.281415, 100.0
2018-12-10 23:37:52.182689, 100.0
2018-12-10 23:37:53.083051, 100.0
2018-12-10 23:37:53.984285, 100.0
2018-12-10 23:37:54.885598, 100.0
2018-12-10 23:37:55.786931, 100.0
2018-12-10 23:37:56.688182, 100.0
2018-12-10 23:37:57.589510, 100.0
2018-12-10 23:37:58.490783, 100.0
2018-12-10 23:37:59.392017, 100.0
2018-12-10 23:38:00.293334, 100.0
2018-12-10 23:38:01.194624, 100.0
2018-12-10 23:38:02.095018, 100.0
2018-12-10 23:38:02.996324, 100.0
2018-12-10 23:38:03.897629, 100.0
2018-12-10 23:38:04.798946, 100.0
2018-12-10 23:38:05.700156, 100.0
2018-12-10 23:38:06.601456, 100.0
2018-12-10 23:38:07.502709, 100.0
2018-12-10 23:38:08.403947, 100.0
2018-12-10 23:38:09.305184, 100.0
2018-12-10 23:38:10.206475, 100.0
2018-12-10 23:38:11.107011, 100.0
2018-12-10 23:38:12.008345, 100.0
2018-12-10 23:38:12.909638, 100.0
2018-12-10 23:38:13.810891, 100.0
2018-12-10 23:38:14.712084, 100.0
2018-12-10 23:38:15.613351, 100.0
2018-12-10 23:38:16.514613, 100.0
2018-12-10 23:38:17.415045, 100.0
2018-12-10 23:38:18.316351, 100.0
2018-12-10 23:38:19.217627, 100.0
2018-12-10 23:38:20.118879, 100.0
2018-12-10 23:38:21.020118, 100.0
2018-12-10 23:38:21.921540, 100.0
2018-12-10 23:38:22.822819, 100.0
2018-12-10 23:38:23.724107, 100.0
2018-12-10 23:38:24.625438, 100.0
2018-12-10 23:38:25.526765, 100.0
2018-12-10 23:38:26.428009, 100.0
2018-12-10 23:38:27.329292, 100.0
2018-12-10 23:38:28.230861, 100.0
2018-12-10 23:38:29.132059, 100.0
2018-12-10 23:38:30.033321, 100.0
2018-12-10 23:38:30.934585, 100.0
2018-12-10 23:38:31.835020, 100.0
2018-12-10 23:38:32.736255, 100.0
2018-12-10 23:38:33.637526, 100.0
2018-12-10 23:38:34.538717, 100.0
2018-12-10 23:38:35.439965, 100.0
2018-12-10 23:38:36.341196, 100.0
2018-12-10 23:38:37.242458, 100.0
2018-12-10 23:38:38.143008, 100.0
2018-12-10 23:38:39.044251, 100.0
2018-12-10 23:38:39.945573, 100.0
2018-12-10 23:38:40.846772, 100.0
2018-12-10 23:38:41.747991, 100.0
2018-12-10 23:38:42.649243, 100.0
2018-12-10 23:38:43.550507, 100.0
2018-12-10 23:38:44.451069, 100.0
2018-12-10 23:38:45.352497, 100.0
2018-12-10 23:38:46.253710, 100.0
2018-12-10 23:38:47.154922, 100.0
2018-12-10 23:38:48.056152, 100.0
2018-12-10 23:38:48.957412, 100.0
2018-12-10 23:38:49.858721, 100.0
2018-12-10 23:38:50.759984, 100.0
2018-12-10 23:38:51.661350, 100.0
2018-12-10 23:38:52.562622, 100.0
2018-12-10 23:38:53.463039, 100.0
2018-12-10 23:38:54.364327, 100.0
2018-12-10 23:38:55.265591, 100.0
2018-12-10 23:38:56.166778, 100.0
2018-12-10 23:38:57.068016, 100.0
2018-12-10 23:38:57.969442, 100.0
2018-12-10 23:38:58.870685, 100.0
2018-12-10 23:38:59.771002, 100.0
2018-12-10 23:39:00.672298, 100.0
2018-12-10 23:39:01.573570, 100.0
2018-12-10 23:39:02.474817, 100.0
2018-12-10 23:39:03.376023, 100.0
2018-12-10 23:39:04.277305, 100.0
2018-12-10 23:39:05.178556, 100.0
2018-12-10 23:39:06.079084, 100.0
2018-12-10 23:39:06.980544, 100.0
2018-12-10 23:39:07.881769, 100.0
2018-12-10 23:39:08.783103, 100.0
2018-12-10 23:39:09.684365, 100.0
2018-12-10 23:39:10.585654, 100.0
2018-12-10 23:39:11.486887, 100.0
2018-12-10 23:39:12.388149, 100.0
2018-12-10 23:39:13.289411, 100.0
2018-12-10 23:39:14.190708, 100.0
2018-12-10 23:39:15.091979, 100.0
2018-12-10 23:39:15.993286, 100.0
2018-12-10 23:39:16.894569, 100.0
2018-12-10 23:39:17.795122, 100.0
2018-12-10 23:39:18.696399, 100.0
2018-12-10 23:39:19.597683, 100.0
2018-12-10 23:39:20.498977, 100.0
2018-12-10 23:39:21.400281, 100.0
2018-12-10 23:39:22.301551, 100.0
2018-12-10 23:39:23.202842, 100.0
2018-12-10 23:39:24.104101, 100.0
2018-12-10 23:39:25.005370, 100.0
2018-12-10 23:39:25.906558, 100.0
2018-12-10 23:39:26.807033, 100.0
2018-12-10 23:39:27.708339, 100.0
2018-12-10 23:39:28.609602, 100.0
2018-12-10 23:39:29.510790, 100.0
2018-12-10 23:39:30.412046, 100.0
2018-12-10 23:39:31.313332, 100.0
2018-12-10 23:39:32.214521, 100.0
2018-12-10 23:39:33.115047, 100.0
2018-12-10 23:39:34.016344, 100.0
2018-12-10 23:39:34.917602, 100.0
2018-12-10 23:39:35.818876, 100.0
2018-12-10 23:39:36.720186, 100.0
2018-12-10 23:39:37.621434, 100.0
2018-12-10 23:39:38.522652, 100.0
2018-12-10 23:39:39.423102, 100.0
2018-12-10 23:39:40.325220, 100.0
2018-12-10 23:39:41.226505, 100.0
2018-12-10 23:39:42.127053, 100.0
2018-12-10 23:39:43.028319, 100.0
2018-12-10 23:39:43.929545, 100.0
2018-12-10 23:39:44.830823, 100.0
2018-12-10 23:39:45.732152, 100.0
2018-12-10 23:39:46.633436, 100.0
2018-12-10 23:39:47.534625, 100.0
2018-12-10 23:39:48.435067, 100.0
2018-12-10 23:39:49.336367, 100.0
2018-12-10 23:39:50.237554, 100.0
2018-12-10 23:39:51.138784, 100.0
2018-12-10 23:39:52.040189, 100.0
2018-12-10 23:39:52.941498, 100.0
2018-12-10 23:39:53.842722, 100.0
2018-12-10 23:39:54.744004, 100.0
2018-12-10 23:39:55.645277, 100.0
2018-12-10 23:39:56.546506, 100.0
2018-12-10 23:39:57.447093, 100.0
2018-12-10 23:39:58.348374, 100.0
2018-12-10 23:39:59.249579, 100.0
2018-12-10 23:40:00.150827, 100.0
2018-12-10 23:40:01.052160, 100.0
2018-12-10 23:40:01.953480, 100.0
2018-12-10 23:40:02.854699, 100.0
2018-12-10 23:40:03.755066, 100.0
2018-12-10 23:40:04.656323, 100.0
2018-12-10 23:40:05.557540, 100.0
2018-12-10 23:40:06.458746, 100.0
2018-12-10 23:40:07.360119, 100.0
2018-12-10 23:40:08.261378, 100.0
2018-12-10 23:40:09.162586, 100.0
2018-12-10 23:40:10.063093, 100.0
2018-12-10 23:40:10.964398, 100.0
2018-12-10 23:40:11.865620, 100.0
2018-12-10 23:40:12.766873, 100.0
2018-12-10 23:40:13.668186, 100.0
2018-12-10 23:40:14.569435, 100.0
2018-12-10 23:40:15.470639, 100.0
2018-12-10 23:40:16.371078, 100.0
2018-12-10 23:40:17.272406, 100.0
2018-12-10 23:40:18.173639, 100.0
2018-12-10 23:40:19.074920, 100.0
2018-12-10 23:40:19.976219, 100.0
2018-12-10 23:40:20.877407, 100.0
2018-12-10 23:40:21.778622, 100.0
2018-12-10 23:40:22.679099, 100.0
2018-12-10 23:40:23.580362, 100.0
2018-12-10 23:40:24.481607, 100.0
2018-12-10 23:40:25.382925, 100.0
2018-12-10 23:40:26.284213, 100.0
2018-12-10 23:40:27.185446, 100.0
2018-12-10 23:40:28.086675, 100.0
2018-12-10 23:40:28.987075, 100.0
2018-12-10 23:40:29.888355, 100.0
2018-12-10 23:40:30.789541, 100.0
2018-12-10 23:40:31.690760, 100.0
2018-12-10 23:40:32.592065, 100.0
2018-12-10 23:40:33.493310, 100.0
2018-12-10 23:40:34.394507, 100.0
2018-12-10 23:40:35.295083, 100.0
2018-12-10 23:40:36.196322, 100.0
2018-12-10 23:40:37.097528, 100.0
2018-12-10 23:40:37.998827, 100.0
2018-12-10 23:40:38.900141, 100.0
2018-12-10 23:40:39.801396, 100.0
2018-12-10 23:40:40.702611, 100.0
2018-12-10 23:40:41.603062, 100.0
2018-12-10 23:40:42.504285, 100.0
2018-12-10 23:40:43.405565, 100.0
2018-12-10 23:40:44.306846, 100.0
2018-12-10 23:40:45.208128, 100.0
2018-12-10 23:40:46.109334, 100.0
2018-12-10 23:40:47.010671, 100.0
2018-12-10 23:40:47.911984, 100.0
2018-12-10 23:40:48.813284, 100.0
2018-12-10 23:40:49.714517, 100.0
2018-12-10 23:40:50.615040, 100.0
2018-12-10 23:40:51.516384, 100.0
2018-12-10 23:40:52.417632, 100.0
2018-12-10 23:40:53.318968, 100.0
2018-12-10 23:40:54.220289, 100.0
2018-12-10 23:40:55.121522, 100.0
2018-12-10 23:40:56.024384, 100.0
2018-12-10 23:40:56.925606, 100.0
2018-12-10 23:40:57.826912, 100.0
2018-12-10 23:40:58.728189, 100.0
2018-12-10 23:40:59.629383, 100.0
2018-12-10 23:41:00.530591, 100.0
2018-12-10 23:41:01.431158, 100.0
2018-12-10 23:41:02.332462, 100.0
2018-12-10 23:41:03.233772, 100.0
2018-12-10 23:41:04.135067, 100.0
2018-12-10 23:41:05.036303, 100.0
2018-12-10 23:41:05.937489, 100.0
2018-12-10 23:41:06.838720, 100.0
2018-12-10 23:41:07.739991, 100.0
2018-12-10 23:41:08.641232, 100.0
2018-12-10 23:41:09.542449, 100.0
2018-12-10 23:41:10.443064, 100.0
2018-12-10 23:41:11.344252, 100.0
2018-12-10 23:41:12.245435, 100.0
2018-12-10 23:41:13.146636, 100.0
2018-12-10 23:41:14.047111, 100.0
2018-12-10 23:41:14.948305, 100.0
2018-12-10 23:41:15.849492, 100.0
2018-12-10 23:41:16.750727, 100.0
2018-12-10 23:41:17.652021, 100.0
2018-12-10 23:41:18.553201, 100.0
2018-12-10 23:41:19.454394, 100.0
2018-12-10 23:41:20.355077, 100.0
2018-12-10 23:41:21.256292, 100.0
2018-12-10 23:41:22.157479, 100.0
2018-12-10 23:41:23.058762, 100.0
2018-12-10 23:41:23.960078, 100.0
2018-12-10 23:41:24.861305, 100.0
2018-12-10 23:41:25.762503, 100.0
2018-12-10 23:41:26.663083, 100.0
2018-12-10 23:41:27.564278, 100.0
2018-12-10 23:41:28.465482, 100.0
2018-12-10 23:41:29.366820, 100.0
2018-12-10 23:41:30.268105, 100.0
2018-12-10 23:41:31.169313, 100.0
2018-12-10 23:41:32.070625, 100.0
2018-12-10 23:41:32.971057, 100.0
2018-12-10 23:41:33.872247, 100.0
2018-12-10 23:41:34.773437, 100.0
2018-12-10 23:41:35.674676, 100.0
2018-12-10 23:41:36.575033, 100.0
2018-12-10 23:41:37.476263, 100.0
2018-12-10 23:41:38.377454, 100.0
2018-12-10 23:41:39.278719, 100.0
2018-12-10 23:41:40.180042, 100.0
2018-12-10 23:41:41.081237, 100.0
2018-12-10 23:41:41.982455, 100.0
2018-12-10 23:41:42.883088, 100.0
2018-12-10 23:41:43.784302, 100.0
2018-12-10 23:41:44.685494, 100.0
2018-12-10 23:41:45.586874, 100.0
2018-12-10 23:41:46.488153, 100.0
2018-12-10 23:41:47.389341, 100.0
2018-12-10 23:41:48.290591, 100.0
2018-12-10 23:41:49.191039, 100.0
2018-12-10 23:41:50.092292, 100.0
2018-12-10 23:41:50.993501, 100.0
2018-12-10 23:41:51.894792, 100.0
2018-12-10 23:41:52.796819, 100.0
2018-12-10 23:41:53.698077, 100.0
2018-12-10 23:41:54.599167, 100.0
2018-12-10 23:41:55.500352, 100.0
2018-12-10 23:41:56.401587, 100.0
2018-12-10 23:41:57.302902, 100.0
2018-12-10 23:41:58.204101, 100.0
2018-12-10 23:41:59.105620, 100.0
2018-12-10 23:42:00.006933, 100.0
2018-12-10 23:42:00.908162, 100.0
2018-12-10 23:42:01.809366, 100.0
2018-12-10 23:42:02.710626, 100.0
2018-12-10 23:42:03.611123, 100.0
2018-12-10 23:42:04.512363, 100.0
2018-12-10 23:42:05.413679, 100.0
2018-12-10 23:42:06.314985, 100.0
2018-12-10 23:42:07.216217, 100.0
2018-12-10 23:42:08.117508, 100.0
2018-12-10 23:42:09.018772, 100.0
2018-12-10 23:42:09.920032, 100.0
2018-12-10 23:42:10.821218, 100.0
2018-12-10 23:42:11.722404, 100.0
2018-12-10 23:42:12.623087, 100.0
2018-12-10 23:42:13.524318, 100.0
2018-12-10 23:42:14.425619, 100.0
2018-12-10 23:42:15.326899, 100.0
2018-12-10 23:42:16.228129, 100.0
2018-12-10 23:42:17.129333, 100.0
2018-12-10 23:42:18.030580, 100.0
2018-12-10 23:42:18.931033, 100.0
2018-12-10 23:42:19.832225, 100.0
2018-12-10 23:42:20.733462, 100.0
2018-12-10 23:42:21.634721, 100.0
2018-12-10 23:42:22.536045, 100.0
2018-12-10 23:42:23.437300, 100.0
2018-12-10 23:42:24.338625, 100.0
2018-12-10 23:42:25.239005, 100.0
2018-12-10 23:42:26.140192, 100.0
2018-12-10 23:42:27.041432, 100.0
2018-12-10 23:42:27.942717, 100.0
2018-12-10 23:42:28.843975, 100.0
2018-12-10 23:42:29.745161, 100.0
2018-12-10 23:42:30.646453, 100.0
2018-12-10 23:42:31.546998, 100.0
2018-12-10 23:42:32.448238, 100.0
2018-12-10 23:42:33.349508, 100.0
2018-12-10 23:42:34.250886, 100.0
2018-12-10 23:42:35.152091, 100.0
2018-12-10 23:42:36.053301, 100.0
2018-12-10 23:42:36.954661, 100.0
2018-12-10 23:42:37.855965, 100.0
2018-12-10 23:42:38.757171, 100.0
2018-12-10 23:42:39.658377, 100.0
2018-12-10 23:42:40.559151, 100.0
2018-12-10 23:42:41.460447, 100.0
2018-12-10 23:42:42.361703, 100.0
2018-12-10 23:42:43.263043, 100.0
2018-12-10 23:42:44.164276, 100.0
2018-12-10 23:42:45.065591, 100.0
2018-12-10 23:42:45.966950, 100.0
2018-12-10 23:42:46.868173, 100.0
2018-12-10 23:42:47.769482, 100.0
2018-12-10 23:42:48.670753, 100.0
2018-12-10 23:42:49.572001, 100.0
2018-12-10 23:42:50.473193, 100.0
2018-12-10 23:42:51.374448, 100.0
2018-12-10 23:42:52.275047, 100.0
2018-12-10 23:42:53.176246, 100.0
2018-12-10 23:42:54.077557, 100.0
2018-12-10 23:42:54.978879, 100.0
2018-12-10 23:42:55.880107, 100.0
2018-12-10 23:42:56.781367, 100.0
2018-12-10 23:42:57.682630, 100.0
2018-12-10 23:42:58.583063, 100.0
2018-12-10 23:42:59.484258, 100.0
2018-12-10 23:43:00.385555, 100.0
2018-12-10 23:43:01.286827, 100.0
2018-12-10 23:43:02.188032, 100.0
2018-12-10 23:43:03.089328, 100.0
2018-12-10 23:43:03.990596, 100.0
2018-12-10 23:43:04.891029, 100.0
2018-12-10 23:43:05.792210, 100.0
2018-12-10 23:43:06.693525, 100.0
2018-12-10 23:43:07.594855, 100.0
2018-12-10 23:43:08.496056, 100.0
2018-12-10 23:43:09.397390, 100.0
2018-12-10 23:43:10.298688, 100.0
2018-12-10 23:43:11.199003, 100.0
2018-12-10 23:43:12.100225, 100.0
2018-12-10 23:43:13.002518, 100.0
2018-12-10 23:43:13.903978, 100.0
2018-12-10 23:43:14.805274, 100.0
2018-12-10 23:43:15.706527, 100.0
2018-12-10 23:43:16.607120, 100.0
2018-12-10 23:43:17.508468, 100.0
2018-12-10 23:43:18.409715, 100.0
2018-12-10 23:43:19.310911, 100.0
2018-12-10 23:43:20.212141, 100.0
2018-12-10 23:43:21.113465, 100.0
2018-12-10 23:43:22.014763, 100.0
2018-12-10 23:43:22.915968, 100.0
2018-12-10 23:43:23.817150, 100.0
2018-12-10 23:43:24.718465, 100.0
2018-12-10 23:43:25.619054, 100.0
2018-12-10 23:43:26.520343, 100.0
2018-12-10 23:43:27.421646, 100.0
2018-12-10 23:43:28.322870, 100.0
2018-12-10 23:43:29.224055, 100.0
2018-12-10 23:43:30.125297, 100.0
2018-12-10 23:43:31.026547, 100.0
2018-12-10 23:43:31.927012, 100.0
2018-12-10 23:43:32.828345, 100.0
2018-12-10 23:43:33.729628, 100.0
2018-12-10 23:43:34.630831, 100.0
2018-12-10 23:43:35.532022, 100.0
2018-12-10 23:43:36.433248, 100.0
2018-12-10 23:43:37.334492, 100.0
2018-12-10 23:43:38.234999, 100.0
2018-12-10 23:43:39.136230, 100.0
2018-12-10 23:43:40.037483, 100.0
2018-12-10 23:43:40.938749, 100.0
2018-12-10 23:43:41.839978, 100.0
2018-12-10 23:43:42.741252, 100.0
2018-12-10 23:43:43.642525, 100.0
2018-12-10 23:43:44.543034, 100.0
2018-12-10 23:43:45.444334, 100.0
2018-12-10 23:43:46.345591, 100.0
2018-12-10 23:43:47.246789, 100.0
2018-12-10 23:43:48.148032, 100.0
2018-12-10 23:43:49.049358, 100.0
2018-12-10 23:43:49.950614, 100.0
2018-12-10 23:43:50.850999, 100.0
2018-12-10 23:43:51.752276, 100.0
2018-12-10 23:43:52.653546, 100.0
2018-12-10 23:43:53.554782, 100.0
2018-12-10 23:43:54.455993, 100.0
2018-12-10 23:43:55.357248, 100.0
2018-12-10 23:43:56.258541, 100.0
2018-12-10 23:43:57.159003, 100.0
2018-12-10 23:43:58.060257, 100.0
2018-12-10 23:43:58.961539, 100.0
2018-12-10 23:43:59.862725, 100.0
2018-12-10 23:44:00.763929, 100.0
2018-12-10 23:44:01.665179, 100.0
2018-12-10 23:44:02.566427, 100.0
2018-12-10 23:44:03.467008, 100.0
2018-12-10 23:44:04.368292, 100.0
2018-12-10 23:44:05.269582, 100.0
2018-12-10 23:44:06.170765, 100.0
2018-12-10 23:44:07.071964, 100.0
2018-12-10 23:44:07.973207, 100.0
2018-12-10 23:44:08.874453, 100.0
2018-12-10 23:44:09.775005, 100.0
2018-12-10 23:44:10.676293, 100.0
2018-12-10 23:44:11.577562, 100.0
2018-12-10 23:44:12.478738, 100.0
2018-12-10 23:44:13.379935, 100.0
2018-12-10 23:44:14.281210, 100.0
2018-12-10 23:44:15.182483, 100.0
2018-12-10 23:44:16.082998, 100.0
2018-12-10 23:44:16.984299, 100.0
2018-12-10 23:44:17.885558, 100.0
2018-12-10 23:44:18.786755, 100.0
2018-12-10 23:44:19.687954, 100.0
2018-12-10 23:44:20.589224, 100.0
2018-12-10 23:44:21.490495, 100.0
2018-12-10 23:44:22.391016, 100.0
2018-12-10 23:44:23.292356, 100.0
2018-12-10 23:44:24.193632, 100.0
2018-12-10 23:44:25.094829, 100.0
2018-12-10 23:44:25.996071, 100.0
2018-12-10 23:44:26.897326, 100.0
2018-12-10 23:44:27.798584, 100.0
2018-12-10 23:44:28.699120, 100.0
2018-12-10 23:44:29.600393, 100.0
2018-12-10 23:44:30.501590, 100.0
2018-12-10 23:44:31.402810, 100.0
2018-12-10 23:44:32.304033, 100.0
2018-12-10 23:44:33.205286, 100.0
2018-12-10 23:44:34.106564, 100.0
2018-12-10 23:44:35.007048, 100.0
2018-12-10 23:44:35.908302, 100.0
2018-12-10 23:44:36.809558, 100.0
2018-12-10 23:44:37.710754, 100.0
2018-12-10 23:44:38.612008, 100.0
2018-12-10 23:44:39.513272, 100.0
2018-12-10 23:44:40.414518, 100.0
2018-12-10 23:44:41.315044, 100.0
2018-12-10 23:44:42.216313, 100.0
2018-12-10 23:44:43.117516, 100.0
2018-12-10 23:44:44.018706, 100.0
2018-12-10 23:44:44.920026, 100.0
2018-12-10 23:44:45.821285, 100.0
2018-12-10 23:44:46.723735, 100.0
2018-12-10 23:44:47.625119, 100.0
2018-12-10 23:44:48.526391, 100.0
2018-12-10 23:44:49.427042, 100.0
2018-12-10 23:44:50.328317, 100.0
2018-12-10 23:44:51.229514, 100.0
2018-12-10 23:44:52.130742, 100.0
2018-12-10 23:44:53.031963, 100.0
2018-12-10 23:44:53.933214, 100.0
2018-12-10 23:44:54.834477, 100.0
2018-12-10 23:44:55.735129, 100.0
2018-12-10 23:44:56.636386, 100.0
2018-12-10 23:44:57.537574, 100.0
2018-12-10 23:44:58.438770, 100.0
2018-12-10 23:44:59.340020, 100.0
2018-12-10 23:45:00.241320, 100.0
2018-12-10 23:45:01.142555, 100.0
2018-12-10 23:45:02.043053, 100.0
2018-12-10 23:45:02.944312, 100.0
2018-12-10 23:45:03.845497, 100.0
2018-12-10 23:45:04.746684, 100.0
2018-12-10 23:45:05.647059, 100.0
2018-12-10 23:45:06.548332, 100.0
2018-12-10 23:45:07.449553, 100.0
2018-12-10 23:45:08.350944, 100.0
2018-12-10 23:45:09.252349, 100.0
2018-12-10 23:45:10.153692, 100.0
2018-12-10 23:45:11.055071, 100.0
2018-12-10 23:45:11.956522, 100.0
2018-12-10 23:45:12.857799, 100.0
2018-12-10 23:45:13.759174, 100.0
2018-12-10 23:45:14.660543, 100.0
2018-12-10 23:45:15.561893, 100.0
2018-12-10 23:45:16.463134, 100.0
2018-12-10 23:45:17.364479, 100.0
2018-12-10 23:45:18.265780, 100.0
2018-12-10 23:45:19.167157, 100.0
2018-12-10 23:45:20.068457, 100.0
2018-12-10 23:45:20.969754, 100.0
2018-12-10 23:45:21.871129, 100.0
2018-12-10 23:45:22.772442, 100.0
2018-12-10 23:45:23.673742, 100.0
2018-12-10 23:45:24.575165, 100.0
2018-12-10 23:45:25.476508, 100.0
2018-12-10 23:45:26.377760, 100.0
2018-12-10 23:45:27.279107, 100.0
2018-12-10 23:45:28.180547, 100.0
2018-12-10 23:45:29.081762, 100.0
2018-12-10 23:45:29.983172, 100.0
2018-12-10 23:45:30.883786, 100.0
2018-12-10 23:45:31.785198, 100.0
2018-12-10 23:45:32.686455, 100.0
2018-12-10 23:45:33.587156, 100.0
2018-12-10 23:45:34.488502, 100.0
2018-12-10 23:45:35.389878, 100.0
2018-12-10 23:45:36.291145, 100.0
2018-12-10 23:45:37.192445, 100.0
2018-12-10 23:45:38.093764, 100.0
2018-12-10 23:45:38.995132, 100.0
2018-12-10 23:45:39.896503, 100.0
2018-12-10 23:45:40.797877, 100.0
2018-12-10 23:45:41.699238, 100.0
2018-12-10 23:45:42.600489, 100.0
2018-12-10 23:45:43.501832, 100.0
2018-12-10 23:45:44.403197, 100.0
2018-12-10 23:45:45.304599, 100.0
2018-12-10 23:45:46.206005, 100.0
2018-12-10 23:45:47.107175, 100.0
2018-12-10 23:45:48.008459, 100.0
2018-12-10 23:45:48.909784, 100.0
2018-12-10 23:45:49.811115, 100.0
2018-12-10 23:45:50.712471, 100.0
2018-12-10 23:45:51.613905, 100.0
2018-12-10 23:45:52.515168, 100.0
2018-12-10 23:45:53.416496, 100.0
2018-12-10 23:45:54.317848, 100.0
2018-12-10 23:45:55.219185, 100.0
2018-12-10 23:45:56.120492, 100.0
2018-12-10 23:45:57.021854, 100.0
2018-12-10 23:45:57.923195, 100.0
2018-12-10 23:45:58.824471, 100.0
2018-12-10 23:45:59.725919, 100.0
2018-12-10 23:46:00.627184, 100.0
2018-12-10 23:46:01.528507, 100.0
2018-12-10 23:46:02.429803, 100.0
2018-12-10 23:46:03.331150, 100.0
2018-12-10 23:46:04.232453, 100.0
2018-12-10 23:46:05.133834, 100.0
2018-12-10 23:46:06.035190, 100.0
2018-12-10 23:46:06.935943, 100.0
2018-12-10 23:46:07.837304, 100.0
2018-12-10 23:46:08.738631, 100.0
2018-12-10 23:46:09.639166, 100.0
2018-12-10 23:46:10.540466, 100.0
2018-12-10 23:46:11.441719, 100.0
2018-12-10 23:46:12.343104, 100.0
2018-12-10 23:46:13.244574, 100.0
2018-12-10 23:46:14.146062, 100.0
2018-12-10 23:46:15.047164, 100.0
2018-12-10 23:46:15.948486, 100.0
2018-12-10 23:46:16.849799, 100.0
2018-12-10 23:46:17.751103, 100.0
2018-12-10 23:46:18.652456, 100.0
2018-12-10 23:46:19.553850, 100.0
2018-12-10 23:46:20.455108, 100.0
2018-12-10 23:46:21.356404, 100.0
2018-12-10 23:46:22.257766, 100.0
2018-12-10 23:46:23.159352, 100.0
2018-12-10 23:46:24.060733, 100.0
2018-12-10 23:46:24.962113, 100.0
2018-12-10 23:46:25.863142, 100.0
2018-12-10 23:46:26.764535, 100.0
2018-12-10 23:46:27.665962, 100.0
2018-12-10 23:46:28.567153, 100.0
2018-12-10 23:46:29.468571, 100.0
2018-12-10 23:46:30.369998, 100.0
2018-12-10 23:46:31.271114, 100.0
2018-12-10 23:46:32.172426, 100.0
2018-12-10 23:46:33.073783, 100.0
2018-12-10 23:46:33.975154, 100.0
2018-12-10 23:46:34.876443, 100.0
2018-12-10 23:46:35.777722, 100.0
2018-12-10 23:46:36.679109, 100.0
2018-12-10 23:46:37.580431, 100.0
2018-12-10 23:46:38.481787, 100.0
2018-12-10 23:46:39.383185, 100.0
2018-12-10 23:46:40.284502, 100.0
2018-12-10 23:46:41.185922, 100.0
2018-12-10 23:46:42.087122, 100.0
2018-12-10 23:46:42.988477, 100.0
2018-12-10 23:46:43.889870, 100.0
2018-12-10 23:46:44.791057, 100.0
2018-12-10 23:46:45.692357, 100.0
2018-12-10 23:46:46.593762, 100.0
2018-12-10 23:46:47.495128, 100.0
2018-12-10 23:46:48.396404, 100.0
2018-12-10 23:46:49.297780, 100.0
2018-12-10 23:46:50.199162, 100.0
2018-12-10 23:46:51.100438, 100.0
2018-12-10 23:46:52.001850, 100.0
2018-12-10 23:46:52.903233, 100.0
2018-12-10 23:46:53.804486, 100.0
2018-12-10 23:46:54.705904, 100.0
2018-12-10 23:46:55.607130, 100.0
2018-12-10 23:46:56.508449, 100.0
2018-12-10 23:46:57.409934, 100.0
2018-12-10 23:46:58.311110, 100.0
2018-12-10 23:46:59.212440, 100.0
2018-12-10 23:47:00.113834, 100.0
2018-12-10 23:47:01.015119, 100.0
2018-12-10 23:47:01.916430, 100.0
2018-12-10 23:47:02.817752, 100.0
2018-12-10 23:47:03.719167, 100.0
2018-12-10 23:47:04.620494, 100.0
2018-12-10 23:47:05.521945, 100.0
2018-12-10 23:47:06.423076, 100.0
2018-12-10 23:47:07.324344, 100.0
2018-12-10 23:47:08.225731, 100.0
2018-12-10 23:47:09.127363, 100.0
2018-12-10 23:47:10.028773, 100.0
2018-12-10 23:47:10.930168, 100.0
2018-12-10 23:47:11.831346, 100.0
2018-12-10 23:47:12.733033, 100.0
2018-12-10 23:47:13.634334, 100.0
2018-12-10 23:47:14.535419, 100.0
2018-12-10 23:47:15.436854, 100.0
2018-12-10 23:47:16.338163, 100.0
2018-12-10 23:47:17.239406, 100.0
2018-12-10 23:47:18.140728, 100.0
2018-12-10 23:47:19.042086, 100.0
2018-12-10 23:47:19.943499, 100.0
2018-12-10 23:47:20.844893, 100.0
2018-12-10 23:47:21.746152, 100.0
2018-12-10 23:47:22.647641, 100.0
2018-12-10 23:47:23.549033, 100.0
2018-12-10 23:47:24.450368, 100.0
2018-12-10 23:47:25.351631, 100.0
2018-12-10 23:47:26.252955, 100.0
2018-12-10 23:47:27.154203, 100.0
2018-12-10 23:47:28.056213, 100.0
2018-12-10 23:47:28.957494, 100.0
2018-12-10 23:47:29.858953, 100.0
2018-12-10 23:47:30.760129, 100.0
2018-12-10 23:47:31.661298, 100.0
2018-12-10 23:47:32.562510, 100.0
2018-12-10 23:47:33.463370, 100.0
2018-12-10 23:47:34.364850, 100.0
2018-12-10 23:47:35.266167, 100.0
2018-12-10 23:47:36.167309, 100.0
2018-12-10 23:47:37.068676, 100.0
2018-12-10 23:47:37.969981, 100.0
2018-12-10 23:47:38.871302, 100.0
2018-12-10 23:47:39.772661, 100.0
2018-12-10 23:47:40.674024, 100.0
2018-12-10 23:47:41.575348, 100.0
2018-12-10 23:47:42.476759, 100.0
2018-12-10 23:47:43.378081, 100.0
2018-12-10 23:47:44.279404, 100.0
2018-12-10 23:47:45.180683, 100.0
2018-12-10 23:47:46.082016, 100.0
2018-12-10 23:47:46.983464, 100.0
2018-12-10 23:47:47.884877, 100.0
2018-12-10 23:47:48.786174, 100.0
2018-12-10 23:47:49.687474, 100.0
2018-12-10 23:47:50.588821, 100.0
2018-12-10 23:47:51.490142, 100.0
2018-12-10 23:47:52.391454, 100.0
2018-12-10 23:47:53.292814, 100.0
2018-12-10 23:47:54.194096, 100.0
2018-12-10 23:47:55.095346, 100.0
2018-12-10 23:47:55.996910, 100.0
2018-12-10 23:47:56.898234, 100.0
2018-12-10 23:47:57.799609, 100.0
2018-12-10 23:47:58.700999, 100.0
2018-12-10 23:47:59.602489, 100.0
2018-12-10 23:48:00.503305, 100.0
2018-12-10 23:48:01.404724, 100.0
2018-12-10 23:48:02.306086, 100.0
2018-12-10 23:48:03.207566, 100.0
2018-12-10 23:48:04.108883, 100.0
2018-12-10 23:48:05.010156, 100.0
2018-12-10 23:48:05.911401, 100.0
2018-12-10 23:48:06.812770, 100.0
2018-12-10 23:48:07.714160, 100.0
2018-12-10 23:48:08.615384, 100.0
2018-12-10 23:48:09.516717, 100.0
2018-12-10 23:48:10.418053, 100.0
2018-12-10 23:48:11.319402, 100.0
2018-12-10 23:48:12.220771, 100.0
2018-12-10 23:48:13.122007, 100.0
2018-12-10 23:48:14.023394, 100.0
2018-12-10 23:48:14.924749, 100.0
2018-12-10 23:48:15.825997, 100.0
2018-12-10 23:48:16.727364, 100.0
2018-12-10 23:48:17.628784, 100.0
2018-12-10 23:48:18.529997, 100.0
2018-12-10 23:48:19.431405, 100.0
2018-12-10 23:48:20.332757, 100.0
2018-12-10 23:48:21.234062, 100.0
2018-12-10 23:48:22.135463, 100.0
2018-12-10 23:48:23.036742, 100.0
2018-12-10 23:48:23.938086, 100.0
2018-12-10 23:48:24.839458, 100.0
2018-12-10 23:48:25.740829, 100.0
2018-12-10 23:48:26.642140, 100.0
2018-12-10 23:48:27.543364, 100.0
2018-12-10 23:48:28.444716, 100.0
2018-12-10 23:48:29.345942, 100.0
2018-12-10 23:48:30.247258, 100.0
2018-12-10 23:48:31.148673, 100.0
2018-12-10 23:48:32.049993, 100.0
2018-12-10 23:48:32.951453, 100.0
2018-12-10 23:48:33.852836, 100.0
2018-12-10 23:48:34.754098, 100.0
2018-12-10 23:48:35.655481, 100.0
2018-12-10 23:48:36.556726, 100.0
2018-12-10 23:48:37.458002, 100.0
2018-12-10 23:48:38.359459, 100.0
2018-12-10 23:48:39.260767, 100.0
2018-12-10 23:48:40.162088, 100.0
2018-12-10 23:48:41.063505, 100.0
2018-12-10 23:48:41.964831, 100.0
2018-12-10 23:48:42.866160, 100.0
2018-12-10 23:48:43.767592, 100.0
2018-12-10 23:48:44.668872, 100.0
2018-12-10 23:48:45.570149, 100.0
2018-12-10 23:48:46.471465, 100.0
2018-12-10 23:48:47.372819, 100.0
2018-12-10 23:48:48.274027, 100.0
2018-12-10 23:48:49.175483, 100.0
2018-12-10 23:48:50.076821, 100.0
2018-12-10 23:48:50.978410, 100.0
2018-12-10 23:48:51.879712, 100.0
2018-12-10 23:48:52.781098, 100.0
2018-12-10 23:48:53.682415, 100.0
2018-12-10 23:48:54.583437, 100.0
2018-12-10 23:48:55.484813, 100.0
2018-12-10 23:48:56.386116, 100.0
2018-12-10 23:48:57.287450, 100.0
2018-12-10 23:48:58.188893, 100.0
2018-12-10 23:48:59.090241, 100.0
2018-12-10 23:48:59.991494, 100.0
2018-12-10 23:49:00.892824, 100.0
2018-12-10 23:49:01.794100, 100.0
2018-12-10 23:49:02.695648, 100.0
2018-12-10 23:49:03.596870, 100.0
2018-12-10 23:49:04.498225, 100.0
2018-12-10 23:49:05.399555, 100.0
2018-12-10 23:49:06.300845, 100.0
2018-12-10 23:49:07.202345, 100.0
2018-12-10 23:49:08.103375, 100.0
2018-12-10 23:49:09.004800, 100.0
2018-12-10 23:49:09.906026, 100.0
2018-12-10 23:49:10.807096, 100.0
2018-12-10 23:49:11.708509, 100.0
2018-12-10 23:49:12.609876, 100.0
2018-12-10 23:49:13.511154, 100.0
2018-12-10 23:49:14.412536, 100.0
2018-12-10 23:49:15.313964, 100.0
2018-12-10 23:49:16.215148, 100.0
2018-12-10 23:49:17.116555, 100.0
2018-12-10 23:49:18.017939, 100.0
2018-12-10 23:49:18.919216, 100.0
2018-12-10 23:49:19.820599, 100.0
2018-12-10 23:49:20.721963, 100.0
2018-12-10 23:49:21.623228, 100.0
2018-12-10 23:49:22.524587, 100.0
2018-12-10 23:49:23.425910, 100.0
2018-12-10 23:49:24.327229, 100.0
2018-12-10 23:49:25.228607, 100.0
2018-12-10 23:49:26.129962, 100.0
2018-12-10 23:49:27.031167, 100.0
2018-12-10 23:49:27.932533, 100.0
2018-12-10 23:49:28.833864, 100.0
2018-12-10 23:49:29.735159, 100.0
2018-12-10 23:49:30.636576, 100.0
2018-12-10 23:49:31.537887, 100.0
2018-12-10 23:49:32.439330, 100.0
2018-12-10 23:49:33.340655, 100.0
2018-12-10 23:49:34.241949, 100.0
2018-12-10 23:49:35.143154, 100.0
2018-12-10 23:49:36.044524, 100.0
2018-12-10 23:49:36.946091, 100.0
2018-12-10 23:49:37.847177, 100.0
2018-12-10 23:49:38.748558, 100.0
2018-12-10 23:49:39.649869, 100.0
2018-12-10 23:49:40.551181, 100.0
2018-12-10 23:49:41.452725, 100.0
2018-12-10 23:49:42.354133, 100.0
2018-12-10 23:49:43.255201, 100.0
2018-12-10 23:49:44.156817, 100.0
2018-12-10 23:49:45.058431, 100.0
2018-12-10 23:49:45.959126, 100.0
2018-12-10 23:49:46.860505, 100.0
2018-12-10 23:49:47.761809, 100.0
2018-12-10 23:49:48.663089, 100.0
2018-12-10 23:49:49.564466, 100.0
2018-12-10 23:49:50.465837, 100.0
2018-12-10 23:49:51.367192, 100.0
2018-12-10 23:49:52.268488, 100.0
2018-12-10 23:49:53.169800, 100.0
2018-12-10 23:49:54.071210, 100.0
2018-12-10 23:49:54.972598, 100.0
2018-12-10 23:49:55.873897, 100.0
2018-12-10 23:49:56.775162, 100.0
2018-12-10 23:49:57.676650, 100.0
2018-12-10 23:49:58.577901, 100.0
2018-12-10 23:49:59.479191, 100.0
2018-12-10 23:50:00.380600, 100.0
2018-12-10 23:50:01.281973, 100.0
2018-12-10 23:50:02.183177, 100.0
2018-12-10 23:50:03.084534, 100.0
2018-12-10 23:50:03.985844, 100.0
2018-12-10 23:50:04.887212, 100.0
2018-12-10 23:50:05.788540, 100.0
2018-12-10 23:50:06.689895, 100.0
2018-12-10 23:50:07.591189, 100.0
2018-12-10 23:50:08.492567, 100.0
2018-12-10 23:50:09.393972, 100.0
2018-12-10 23:50:10.295086, 100.0
2018-12-10 23:50:11.196435, 100.0
2018-12-10 23:50:12.097745, 100.0
2018-12-10 23:50:12.999119, 100.0
2018-12-10 23:50:13.900494, 100.0
2018-12-10 23:50:14.801821, 100.0
2018-12-10 23:50:15.703175, 100.0
2018-12-10 23:50:16.604522, 100.0
2018-12-10 23:50:17.505816, 100.0
2018-12-10 23:50:18.407157, 100.0
2018-12-10 23:50:19.308507, 100.0
2018-12-10 23:50:20.209835, 100.0
2018-12-10 23:50:21.111180, 100.0
2018-12-10 23:50:22.012542, 100.0
2018-12-10 23:50:22.913911, 100.0
2018-12-10 23:50:23.815172, 100.0
2018-12-10 23:50:24.716560, 100.0
2018-12-10 23:50:25.618022, 100.0
2018-12-10 23:50:26.519183, 100.0
2018-12-10 23:50:27.420581, 100.0
2018-12-10 23:50:28.323340, 100.0
2018-12-10 23:50:29.224714, 100.0
2018-12-10 23:50:30.126157, 100.0
2018-12-10 23:50:31.027207, 100.0
2018-12-10 23:50:31.928539, 100.0
2018-12-10 23:50:32.829895, 100.0
2018-12-10 23:50:33.731118, 100.0
2018-12-10 23:50:34.632490, 100.0
2018-12-10 23:50:35.533800, 100.0
2018-12-10 23:50:36.435202, 100.0
2018-12-10 23:50:37.336542, 100.0
2018-12-10 23:50:38.237913, 100.0
2018-12-10 23:50:39.139212, 100.0
2018-12-10 23:50:40.040525, 100.0
2018-12-10 23:50:40.941886, 100.0
2018-12-10 23:50:41.843173, 100.0
2018-12-10 23:50:42.744616, 100.0
2018-12-10 23:50:43.645859, 100.0
2018-12-10 23:50:44.547216, 100.0
2018-12-10 23:50:45.448543, 100.0
2018-12-10 23:50:46.349887, 100.0
2018-12-10 23:50:47.251221, 100.0
2018-12-10 23:50:48.152562, 100.0
2018-12-10 23:50:49.053960, 100.0
2018-12-10 23:50:49.955177, 100.0
2018-12-10 23:50:50.856584, 100.0
2018-12-10 23:50:51.757959, 100.0
2018-12-10 23:50:52.659169, 100.0
2018-12-10 23:50:53.560436, 100.0
2018-12-10 23:50:54.461792, 100.0
2018-12-10 23:50:55.363190, 100.0
2018-12-10 23:50:56.264517, 100.0
2018-12-10 23:50:57.165877, 100.0
2018-12-10 23:50:58.067195, 100.0
2018-12-10 23:50:58.968535, 100.0
2018-12-10 23:50:59.869889, 100.0
2018-12-10 23:51:00.771178, 100.0
2018-12-10 23:51:01.672458, 100.0
2018-12-10 23:51:02.573859, 100.0
2018-12-10 23:51:03.475062, 100.0
2018-12-10 23:51:04.376433, 100.0
2018-12-10 23:51:05.277798, 100.0
2018-12-10 23:51:06.179152, 100.0
2018-12-10 23:51:07.080509, 100.0
2018-12-10 23:51:07.981849, 100.0
2018-12-10 23:51:08.883173, 100.0
2018-12-10 23:51:09.784536, 100.0
2018-12-10 23:51:10.685805, 100.0
2018-12-10 23:51:11.587193, 100.0
2018-12-10 23:51:12.488507, 100.0
2018-12-10 23:51:13.389898, 100.0
2018-12-10 23:51:14.291143, 100.0
2018-12-10 23:51:15.192448, 100.0
2018-12-10 23:51:16.093771, 100.0
2018-12-10 23:51:16.995154, 100.0
2018-12-10 23:51:17.896467, 100.0
2018-12-10 23:51:18.797778, 100.0
2018-12-10 23:51:19.699079, 100.0
2018-12-10 23:51:20.600455, 100.0
2018-12-10 23:51:21.501862, 100.0
2018-12-10 23:51:22.403165, 100.0
2018-12-10 23:51:23.304495, 100.0
2018-12-10 23:51:24.205868, 100.0
2018-12-10 23:51:25.107191, 100.0
2018-12-10 23:51:26.008451, 100.0
2018-12-10 23:51:26.909850, 100.0
2018-12-10 23:51:27.811207, 100.0
2018-12-10 23:51:28.712480, 100.0
2018-12-10 23:51:29.613712, 100.0
2018-12-10 23:51:30.515397, 100.0
2018-12-10 23:51:31.416817, 100.0
2018-12-10 23:51:32.318181, 100.0
2018-12-10 23:51:33.219469, 100.0
2018-12-10 23:51:34.120829, 100.0
2018-12-10 23:51:35.022316, 100.0
2018-12-10 23:51:35.923437, 100.0
2018-12-10 23:51:36.824759, 100.0
2018-12-10 23:51:37.726171, 100.0
2018-12-10 23:51:38.627430, 100.0
2018-12-10 23:51:39.528812, 100.0
2018-12-10 23:51:40.430172, 100.0
2018-12-10 23:51:41.331539, 100.0
2018-12-10 23:51:42.232878, 100.0
2018-12-10 23:51:43.134257, 100.0
2018-12-10 23:51:44.035493, 100.0
2018-12-10 23:51:44.936850, 100.0
2018-12-10 23:51:45.838178, 100.0
2018-12-10 23:51:46.739426, 100.0
2018-12-10 23:51:47.640848, 100.0
2018-12-10 23:51:48.542081, 100.0
2018-12-10 23:51:49.443411, 100.0
2018-12-10 23:51:50.344876, 100.0
2018-12-10 23:51:51.246257, 100.0
2018-12-10 23:51:52.147611, 100.0
2018-12-10 23:51:53.048947, 100.0
2018-12-10 23:51:53.950277, 100.0
2018-12-10 23:51:54.851431, 100.0
2018-12-10 23:51:55.752809, 100.0
2018-12-10 23:51:56.654157, 100.0
2018-12-10 23:51:57.555410, 100.0
2018-12-10 23:51:58.456776, 100.0
2018-12-10 23:51:59.358107, 100.0
2018-12-10 23:52:00.259462, 100.0
2018-12-10 23:52:01.160878, 100.0
2018-12-10 23:52:02.062151, 100.0
2018-12-10 23:52:02.963402, 100.0
2018-12-10 23:52:03.864700, 100.0
2018-12-10 23:52:04.766056, 100.0
2018-12-10 23:52:05.667383, 100.0
2018-12-10 23:52:06.568734, 100.0
2018-12-10 23:52:07.470088, 100.0
2018-12-10 23:52:08.371104, 100.0
2018-12-10 23:52:09.272407, 100.0
2018-12-10 23:52:10.173844, 100.0
2018-12-10 23:52:11.075074, 100.0
2018-12-10 23:52:11.976481, 100.0
2018-12-10 23:52:12.877938, 100.0
2018-12-10 23:52:13.779101, 100.0
2018-12-10 23:52:14.680396, 100.0
2018-12-10 23:52:15.581761, 100.0
2018-12-10 23:52:16.483132, 100.0
2018-12-10 23:52:17.384591, 100.0
2018-12-10 23:52:18.285977, 100.0
2018-12-10 23:52:19.187282, 100.0
2018-12-10 23:52:20.088684, 100.0
2018-12-10 23:52:20.990068, 100.0
2018-12-10 23:52:21.891164, 100.0
2018-12-10 23:52:22.792535, 100.0
2018-12-10 23:52:23.693831, 100.0
2018-12-10 23:52:24.595201, 100.0
2018-12-10 23:52:25.496654, 100.0
2018-12-10 23:52:26.398033, 100.0
2018-12-10 23:52:27.299145, 100.0
2018-12-10 23:52:28.200451, 100.0
2018-12-10 23:52:29.101887, 100.0
2018-12-10 23:52:30.003123, 100.0
2018-12-10 23:52:30.904436, 100.0
2018-12-10 23:52:31.805886, 100.0
2018-12-10 23:52:32.707140, 100.0
2018-12-10 23:52:33.608503, 100.0
2018-12-10 23:52:34.509914, 100.0
2018-12-10 23:52:35.411105, 100.0
2018-12-10 23:52:36.312478, 100.0
2018-12-10 23:52:37.213881, 100.0
2018-12-10 23:52:38.115161, 100.0
2018-12-10 23:52:39.016435, 100.0
2018-12-10 23:52:39.917885, 100.0
2018-12-10 23:52:40.819159, 100.0
2018-12-10 23:52:41.720491, 100.0
2018-12-10 23:52:42.621877, 100.0
2018-12-10 23:52:43.523187, 100.0
2018-12-10 23:52:44.424605, 100.0
2018-12-10 23:52:45.326003, 100.0
2018-12-10 23:52:46.227155, 100.0
2018-12-10 23:52:47.128532, 100.0
2018-12-10 23:52:48.029917, 100.0
2018-12-10 23:52:48.931050, 100.0
2018-12-10 23:52:49.832474, 100.0
2018-12-10 23:52:50.733851, 100.0
2018-12-10 23:52:51.635175, 100.0
2018-12-10 23:52:52.536540, 100.0
2018-12-10 23:52:53.437874, 100.0
2018-12-10 23:52:54.339158, 100.0
2018-12-10 23:52:55.240571, 100.0
2018-12-10 23:52:56.141946, 100.0
2018-12-10 23:52:57.043109, 100.0
2018-12-10 23:52:57.944442, 100.0
2018-12-10 23:52:58.845736, 100.0
2018-12-10 23:52:59.747122, 100.0
2018-12-10 23:53:00.648549, 100.0
2018-12-10 23:53:01.549929, 100.0
2018-12-10 23:53:02.451029, 100.0
2018-12-10 23:53:03.352326, 100.0
2018-12-10 23:53:04.254207, 100.0
2018-12-10 23:53:05.155136, 100.0
2018-12-10 23:53:06.056428, 100.0
2018-12-10 23:53:06.957809, 100.0
2018-12-10 23:53:07.859129, 100.0
2018-12-10 23:53:08.760441, 100.0
2018-12-10 23:53:09.661829, 100.0
2018-12-10 23:53:10.563122, 100.0
2018-12-10 23:53:11.464485, 100.0
2018-12-10 23:53:12.365851, 100.0
2018-12-10 23:53:13.267146, 100.0
2018-12-10 23:53:14.168586, 100.0
2018-12-10 23:53:15.069993, 100.0
2018-12-10 23:53:15.971101, 100.0
2018-12-10 23:53:16.872446, 100.0
2018-12-10 23:53:17.773789, 100.0
2018-12-10 23:53:18.675103, 100.0
2018-12-10 23:53:19.576482, 100.0
2018-12-10 23:53:20.477843, 100.0
2018-12-10 23:53:21.379107, 100.0
2018-12-10 23:53:22.280523, 100.0
2018-12-10 23:53:23.181884, 100.0
2018-12-10 23:53:24.083126, 100.0
2018-12-10 23:53:24.984484, 100.0
2018-12-10 23:53:25.885840, 100.0
2018-12-10 23:53:26.787072, 100.0
2018-12-10 23:53:27.688467, 100.0
2018-12-10 23:53:28.589860, 100.0
2018-12-10 23:53:29.491162, 100.0
2018-12-10 23:53:30.392613, 100.0
2018-12-10 23:53:31.293989, 100.0
2018-12-10 23:53:32.195133, 100.0
2018-12-10 23:53:33.096533, 100.0
2018-12-10 23:53:33.997867, 100.0
2018-12-10 23:53:34.899175, 100.0
2018-12-10 23:53:35.800545, 100.0
2018-12-10 23:53:36.701935, 100.0
2018-12-10 23:53:37.603126, 100.0
2018-12-10 23:53:38.504498, 100.0
2018-12-10 23:53:39.405905, 100.0
2018-12-10 23:53:40.307126, 100.0
2018-12-10 23:53:41.208542, 100.0
2018-12-10 23:53:42.109906, 100.0
2018-12-10 23:53:43.011211, 100.0
2018-12-10 23:53:43.912568, 100.0
2018-12-10 23:53:44.813848, 100.0
2018-12-10 23:53:45.715108, 100.0
2018-12-10 23:53:46.616474, 100.0
2018-12-10 23:53:47.517872, 100.0
2018-12-10 23:53:48.419111, 100.0
2018-12-10 23:53:49.320512, 100.0
2018-12-10 23:53:50.221955, 100.0
2018-12-10 23:53:51.123086, 100.0
2018-12-10 23:53:52.024454, 100.0
2018-12-10 23:53:52.925866, 100.0
2018-12-10 23:53:53.827052, 100.0
2018-12-10 23:53:54.728426, 100.0
2018-12-10 23:53:55.629786, 100.0
2018-12-10 23:53:56.531229, 100.0
2018-12-10 23:53:57.432614, 100.0
2018-12-10 23:53:58.333983, 100.0
2018-12-10 23:53:59.235238, 100.0
2018-12-10 23:54:00.136628, 100.0
2018-12-10 23:54:01.037970, 100.0
2018-12-10 23:54:01.939152, 100.0
2018-12-10 23:54:02.840612, 100.0
2018-12-10 23:54:03.742032, 100.0
2018-12-10 23:54:04.643123, 100.0
2018-12-10 23:54:05.544544, 100.0
2018-12-10 23:54:06.445885, 100.0
2018-12-10 23:54:07.347151, 100.0
2018-12-10 23:54:08.248597, 100.0
2018-12-10 23:54:09.150025, 100.0
2018-12-10 23:54:10.051119, 100.0
2018-12-10 23:54:10.952577, 100.0
2018-12-10 23:54:11.853897, 100.0
2018-12-10 23:54:12.755135, 100.0
2018-12-10 23:54:13.656536, 100.0
2018-12-10 23:54:14.557908, 100.0
2018-12-10 23:54:15.459121, 100.0
2018-12-10 23:54:16.360542, 100.0
2018-12-10 23:54:17.261844, 100.0
2018-12-10 23:54:18.163185, 100.0
2018-12-10 23:54:19.064478, 100.0
2018-12-10 23:54:19.965835, 100.0
2018-12-10 23:54:20.867108, 100.0
2018-12-10 23:54:21.768516, 100.0
2018-12-10 23:54:22.669908, 100.0
2018-12-10 23:54:23.571175, 100.0
2018-12-10 23:54:24.472539, 100.0
2018-12-10 23:54:25.373907, 100.0
2018-12-10 23:54:26.275157, 100.0
2018-12-10 23:54:27.176452, 100.0
2018-12-10 23:54:28.077825, 100.0
2018-12-10 23:54:28.979019, 100.0
2018-12-10 23:54:29.880396, 100.0
2018-12-10 23:54:30.781751, 100.0
2018-12-10 23:54:31.683160, 100.0
2018-12-10 23:54:32.584567, 100.0
2018-12-10 23:54:33.485862, 100.0
2018-12-10 23:54:34.387154, 100.0
2018-12-10 23:54:35.288546, 100.0
2018-12-10 23:54:36.189826, 100.0
2018-12-10 23:54:37.091145, 100.0
2018-12-10 23:54:37.992527, 100.0
2018-12-10 23:54:38.893836, 100.0
2018-12-10 23:54:39.795148, 100.0
2018-12-10 23:54:40.696539, 100.0
2018-12-10 23:54:41.597849, 100.0
2018-12-10 23:54:42.499032, 100.0
2018-12-10 23:54:43.400486, 100.0
2018-12-10 23:54:44.301790, 100.0
2018-12-10 23:54:45.203190, 100.0
2018-12-10 23:54:46.104552, 100.0
2018-12-10 23:54:47.005858, 100.0
2018-12-10 23:54:47.907152, 100.0
2018-12-10 23:54:48.808533, 100.0
2018-12-10 23:54:49.709892, 100.0
2018-12-10 23:54:50.611153, 100.0
2018-12-10 23:54:51.512510, 100.0
2018-12-10 23:54:52.413812, 100.0
2018-12-10 23:54:53.315156, 100.0
2018-12-10 23:54:54.216483, 100.0
2018-12-10 23:54:55.117822, 100.0
2018-12-10 23:54:56.019157, 100.0
2018-12-10 23:54:56.920531, 100.0
2018-12-10 23:54:57.821892, 100.0
2018-12-10 23:54:58.723137, 100.0
2018-12-10 23:54:59.624502, 100.0
2018-12-10 23:55:00.525755, 100.0
2018-12-10 23:55:01.427143, 100.0
2018-12-10 23:55:02.328534, 100.0
2018-12-10 23:55:03.229845, 100.0
2018-12-10 23:55:04.131080, 100.0
2018-12-10 23:55:05.032488, 100.0
2018-12-10 23:55:05.933815, 100.0
2018-12-10 23:55:06.835113, 100.0
2018-12-10 23:55:07.736510, 100.0
2018-12-10 23:55:08.637842, 100.0
2018-12-10 23:55:09.539118, 100.0
2018-12-10 23:55:10.440490, 100.0
2018-12-10 23:55:11.341830, 100.0
2018-12-10 23:55:12.243171, 100.0
2018-12-10 23:55:13.144541, 100.0
2018-12-10 23:55:14.045860, 100.0
2018-12-10 23:55:14.947168, 100.0
2018-12-10 23:55:15.848514, 100.0
2018-12-10 23:55:16.749838, 100.0
2018-12-10 23:55:17.651197, 100.0
2018-12-10 23:55:18.552568, 100.0
2018-12-10 23:55:19.453903, 100.0
2018-12-10 23:55:20.355176, 100.0
2018-12-10 23:55:21.256593, 100.0
2018-12-10 23:55:22.157978, 100.0
2018-12-10 23:55:23.059201, 100.0
2018-12-10 23:55:23.960578, 100.0
2018-12-10 23:55:24.861889, 100.0
2018-12-10 23:55:25.763522, 100.0
2018-12-10 23:55:26.664823, 100.0
2018-12-10 23:55:27.566180, 100.0
2018-12-10 23:55:28.467181, 100.0
2018-12-10 23:55:29.368577, 100.0
2018-12-10 23:55:30.270033, 100.0
2018-12-10 23:55:31.171170, 100.0
2018-12-10 23:55:32.072520, 100.0
2018-12-10 23:55:32.973827, 100.0
2018-12-10 23:55:33.875091, 100.0
2018-12-10 23:55:34.776461, 100.0
2018-12-10 23:55:35.677795, 100.0
2018-12-10 23:55:36.579269, 100.0
2018-12-10 23:55:37.480630, 100.0
2018-12-10 23:55:38.381981, 100.0
2018-12-10 23:55:39.283168, 100.0
2018-12-10 23:55:40.184526, 100.0
2018-12-10 23:55:41.085831, 100.0
2018-12-10 23:55:41.988692, 100.0
2018-12-10 23:55:42.889973, 100.0
2018-12-10 23:55:43.791178, 100.0
2018-12-10 23:55:44.692607, 100.0
2018-12-10 23:55:45.593990, 100.0
2018-12-10 23:55:46.495185, 100.0
2018-12-10 23:55:47.396557, 100.0
2018-12-10 23:55:48.297914, 100.0
2018-12-10 23:55:49.199118, 100.0
2018-12-10 23:55:50.100507, 100.0
2018-12-10 23:55:51.001929, 100.0
2018-12-10 23:55:51.903109, 100.0
2018-12-10 23:55:52.804480, 100.0
2018-12-10 23:55:53.705789, 100.0
2018-12-10 23:55:54.607160, 100.0
2018-12-10 23:55:55.508610, 100.0
2018-12-10 23:55:56.409996, 100.0
2018-12-10 23:55:57.311199, 100.0
2018-12-10 23:55:58.212559, 100.0
2018-12-10 23:55:59.113906, 100.0
2018-12-10 23:56:00.015195, 100.0
2018-12-10 23:56:00.916477, 100.0
2018-12-10 23:56:01.817899, 100.0
2018-12-10 23:56:02.719173, 100.0
2018-12-10 23:56:03.620529, 100.0
2018-12-10 23:56:04.521962, 100.0
2018-12-10 23:56:05.423207, 100.0
2018-12-10 23:56:06.324555, 100.0
2018-12-10 23:56:07.225892, 100.0
2018-12-10 23:56:08.127192, 100.0
2018-12-10 23:56:09.028533, 100.0
2018-12-10 23:56:09.929875, 100.0
2018-12-10 23:56:10.831165, 100.0
2018-12-10 23:56:11.732580, 100.0
2018-12-10 23:56:12.633970, 100.0
2018-12-10 23:56:13.535183, 100.0
2018-12-10 23:56:14.436462, 100.0
2018-12-10 23:56:15.337824, 100.0
2018-12-10 23:56:16.239186, 100.0
2018-12-10 23:56:17.140510, 100.0
2018-12-10 23:56:18.041940, 100.0
2018-12-10 23:56:18.943072, 100.0
2018-12-10 23:56:19.844426, 100.0
2018-12-10 23:56:20.745829, 100.0
2018-12-10 23:56:21.647184, 100.0
2018-12-10 23:56:22.548504, 100.0
2018-12-10 23:56:23.449873, 100.0
2018-12-10 23:56:24.351119, 100.0
2018-12-10 23:56:25.252480, 100.0
2018-12-10 23:56:26.153841, 100.0
2018-12-10 23:56:27.055161, 100.0
2018-12-10 23:56:27.956403, 100.0
2018-12-10 23:56:28.857845, 100.0
2018-12-10 23:56:29.759214, 100.0
2018-12-10 23:56:30.660530, 100.0
2018-12-10 23:56:31.562125, 100.0
2018-12-10 23:56:32.463178, 100.0
2018-12-10 23:56:33.364487, 100.0
2018-12-10 23:56:34.265807, 100.0
2018-12-10 23:56:35.167175, 100.0
2018-12-10 23:56:36.068471, 100.0
2018-12-10 23:56:36.969821, 100.0
2018-12-10 23:56:37.871177, 100.0
2018-12-10 23:56:38.772492, 100.0
2018-12-10 23:56:39.673778, 100.0
2018-12-10 23:56:40.575135, 100.0
2018-12-10 23:56:41.476437, 100.0
2018-12-10 23:56:42.377803, 100.0
2018-12-10 23:56:43.279091, 100.0
2018-12-10 23:56:44.180454, 100.0
2018-12-10 23:56:45.081833, 100.0
2018-12-10 23:56:45.983192, 100.0
2018-12-10 23:56:46.884493, 100.0
2018-12-10 23:56:47.785852, 100.0
2018-12-10 23:56:48.687166, 100.0
2018-12-10 23:56:49.588396, 100.0
2018-12-10 23:56:50.489733, 100.0
2018-12-10 23:56:51.391541, 100.0
2018-12-10 23:56:52.292660, 100.0
2018-12-10 23:56:53.194153, 100.0
2018-12-10 23:56:54.095453, 100.0
2018-12-10 23:56:54.996817, 100.0
2018-12-10 23:56:55.898285, 100.0
2018-12-10 23:56:56.799554, 100.0
2018-12-10 23:56:57.700912, 100.0
2018-12-10 23:56:58.602271, 100.0
2018-12-10 23:56:59.503411, 100.0
2018-12-10 23:57:00.404738, 100.0
2018-12-10 23:57:01.306073, 100.0
2018-12-10 23:57:02.207454, 100.0
2018-12-10 23:57:03.108813, 100.0
2018-12-10 23:57:04.010162, 100.0
2018-12-10 23:57:04.911440, 100.0
2018-12-10 23:57:05.812802, 100.0
2018-12-10 23:57:06.714146, 100.0
2018-12-10 23:57:07.615512, 100.0
2018-12-10 23:57:08.516858, 100.0
2018-12-10 23:57:09.418170, 100.0
2018-12-10 23:57:10.319335, 100.0
2018-12-10 23:57:11.220680, 100.0
2018-12-10 23:57:12.122112, 100.0
2018-12-10 23:57:13.023419, 100.0
2018-12-10 23:57:13.924820, 100.0
2018-12-10 23:57:14.826155, 100.0
2018-12-10 23:57:15.727444, 100.0
2018-12-10 23:57:16.628821, 100.0
2018-12-10 23:57:17.530207, 100.0
2018-12-10 23:57:18.431434, 100.0
2018-12-10 23:57:19.332800, 100.0
2018-12-10 23:57:20.234142, 100.0
2018-12-10 23:57:21.135501, 100.0
2018-12-10 23:57:22.036842, 100.0
2018-12-10 23:57:22.938259, 100.0
2018-12-10 23:57:23.839473, 100.0
2018-12-10 23:57:24.740831, 100.0
2018-12-10 23:57:25.642221, 100.0
2018-12-10 23:57:26.543486, 100.0
2018-12-10 23:57:27.444911, 100.0
2018-12-10 23:57:28.346297, 100.0
2018-12-10 23:57:29.247433, 100.0
2018-12-10 23:57:30.148675, 100.0
2018-12-10 23:57:31.050023, 100.0
2018-12-10 23:57:31.951353, 100.0
2018-12-10 23:57:32.852711, 100.0
2018-12-10 23:57:33.754119, 100.0
2018-12-10 23:57:34.655348, 100.0
2018-12-10 23:57:35.556772, 100.0
2018-12-10 23:57:36.458134, 100.0
2018-12-10 23:57:37.359392, 100.0
2018-12-10 23:57:38.260854, 100.0
2018-12-10 23:57:39.162390, 100.0
2018-12-10 23:57:40.063597, 100.0
2018-12-10 23:57:40.964990, 100.0
2018-12-10 23:57:41.866344, 100.0
2018-12-10 23:57:42.767408, 100.0
2018-12-10 23:57:43.668697, 100.0
2018-12-10 23:57:44.570016, 100.0
2018-12-10 23:57:45.471413, 100.0
2018-12-10 23:57:46.372794, 100.0
2018-12-10 23:57:47.274180, 100.0
2018-12-10 23:57:48.175572, 100.0
2018-12-10 23:57:49.076912, 100.0
2018-12-10 23:57:49.978246, 100.0
2018-12-10 23:57:50.879435, 100.0
2018-12-10 23:57:51.780857, 100.0
2018-12-10 23:57:52.682127, 100.0
2018-12-10 23:57:53.583438, 100.0
2018-12-10 23:57:54.485096, 100.0
2018-12-10 23:57:55.386293, 100.0
2018-12-10 23:57:56.287491, 100.0
2018-12-10 23:57:57.188858, 100.0
2018-12-10 23:57:58.090229, 100.0
2018-12-10 23:57:58.991690, 100.0
2018-12-10 23:57:59.893023, 100.0
2018-12-10 23:58:00.794413, 100.0
2018-12-10 23:58:01.695374, 100.0
2018-12-10 23:58:02.596761, 100.0
2018-12-10 23:58:03.498140, 100.0
2018-12-10 23:58:04.399384, 100.0
2018-12-10 23:58:05.300795, 100.0
2018-12-10 23:58:06.202107, 100.0
2018-12-10 23:58:07.103408, 100.0
2018-12-10 23:58:08.004821, 100.0
2018-12-10 23:58:08.906224, 100.0
2018-12-10 23:58:09.807319, 100.0
2018-12-10 23:58:10.708777, 100.0
2018-12-10 23:58:11.610096, 100.0
2018-12-10 23:58:12.511418, 100.0
2018-12-10 23:58:13.412826, 100.0
2018-12-10 23:58:14.314196, 100.0
2018-12-10 23:58:15.215367, 100.0
2018-12-10 23:58:16.116837, 100.0
2018-12-10 23:58:17.018084, 100.0
2018-12-10 23:58:17.919424, 100.0
2018-12-10 23:58:18.820803, 100.0
2018-12-10 23:58:19.722031, 100.0
2018-12-10 23:58:20.623424, 100.0
2018-12-10 23:58:21.524814, 100.0
2018-12-10 23:58:22.426089, 100.0
2018-12-10 23:58:23.327593, 100.0
2018-12-10 23:58:24.229021, 100.0
2018-12-10 23:58:25.130415, 100.0
2018-12-10 23:58:26.031543, 100.0
2018-12-10 23:58:26.932862, 100.0
2018-12-10 23:58:27.834179, 100.0
2018-12-10 23:58:28.735423, 100.0
2018-12-10 23:58:29.636663, 100.0
2018-12-10 23:58:30.538115, 100.0
2018-12-10 23:58:31.439494, 100.0
2018-12-10 23:58:32.340837, 100.0
2018-12-10 23:58:33.242178, 100.0
2018-12-10 23:58:34.143519, 100.0
2018-12-10 23:58:35.044841, 100.0
2018-12-10 23:58:35.946258, 100.0
2018-12-10 23:58:36.847512, 100.0
2018-12-10 23:58:37.748850, 100.0
2018-12-10 23:58:38.650200, 100.0
2018-12-10 23:58:39.551473, 100.0
2018-12-10 23:58:40.452819, 100.0
2018-12-10 23:58:41.354129, 100.0
2018-12-10 23:58:42.255466, 100.0
2018-12-10 23:58:43.156844, 100.0
2018-12-10 23:58:44.058135, 100.0
2018-12-10 23:58:44.959338, 100.0
2018-12-10 23:58:45.860769, 100.0
2018-12-10 23:58:46.762065, 100.0
2018-12-10 23:58:47.663570, 100.0
2018-12-10 23:58:48.564992, 100.0
2018-12-10 23:58:49.466437, 100.0
2018-12-10 23:58:50.367455, 100.0
2018-12-10 23:58:51.268856, 100.0
2018-12-10 23:58:52.170143, 100.0
2018-12-10 23:58:53.071036, 100.0
2018-12-10 23:58:53.972398, 100.0
2018-12-10 23:58:54.873755, 100.0
2018-12-10 23:58:55.775027, 100.0
2018-12-10 23:58:56.676422, 100.0
2018-12-10 23:58:57.577801, 100.0
2018-12-10 23:58:58.479160, 100.0
2018-12-10 23:58:59.380588, 100.0
2018-12-10 23:59:00.281941, 100.0
2018-12-10 23:59:01.183143, 100.0
2018-12-10 23:59:02.084603, 100.0
2018-12-10 23:59:02.985946, 100.0
2018-12-10 23:59:03.887128, 100.0
2018-12-10 23:59:04.788415, 100.0
2018-12-10 23:59:05.689810, 100.0
2018-12-10 23:59:06.591115, 100.0
2018-12-10 23:59:07.492552, 100.0
2018-12-10 23:59:08.393889, 100.0
2018-12-10 23:59:09.295236, 100.0
2018-12-10 23:59:10.196642, 100.0
2018-12-10 23:59:11.098006, 100.0
2018-12-10 23:59:11.999113, 100.0
2018-12-10 23:59:12.900491, 100.0
2018-12-10 23:59:13.801857, 100.0
2018-12-10 23:59:14.703211, 100.0
2018-12-10 23:59:15.604628, 100.0
2018-12-10 23:59:16.505950, 100.0
2018-12-10 23:59:17.407076, 100.0
2018-12-10 23:59:18.308436, 100.0
2018-12-10 23:59:19.209832, 100.0
2018-12-10 23:59:20.111073, 100.0
2018-12-10 23:59:21.012482, 100.0
2018-12-10 23:59:21.913943, 100.0
2018-12-10 23:59:22.815262, 100.0
2018-12-10 23:59:23.716670, 100.0
2018-12-10 23:59:24.617974, 100.0
2018-12-10 23:59:25.519107, 100.0
2018-12-10 23:59:26.420438, 100.0
2018-12-10 23:59:27.321827, 100.0
2018-12-10 23:59:28.223108, 100.0
2018-12-10 23:59:29.124592, 100.0
2018-12-10 23:59:30.025890, 100.0
2018-12-10 23:59:30.927122, 100.0
2018-12-10 23:59:31.828556, 100.0
2018-12-10 23:59:32.729880, 100.0
2018-12-10 23:59:33.631106, 100.0
2018-12-10 23:59:34.533544, 100.0
2018-12-10 23:59:35.434781, 100.0
2018-12-10 23:59:36.336126, 100.0
2018-12-10 23:59:37.237539, 100.0
2018-12-10 23:59:38.138911, 100.0
2018-12-10 23:59:39.040264, 100.0
2018-12-10 23:59:39.941608, 100.0
2018-12-10 23:59:40.842959, 100.0
2018-12-10 23:59:41.744295, 100.0
2018-12-10 23:59:42.645655, 100.0
2018-12-10 23:59:43.546969, 100.0
2018-12-10 23:59:44.448289, 100.0
2018-12-10 23:59:45.349629, 100.0
2018-12-10 23:59:46.250956, 100.0
2018-12-10 23:59:47.152368, 100.0
2018-12-10 23:59:48.053763, 100.0
2018-12-10 23:59:48.955111, 100.0
2018-12-10 23:59:49.856428, 100.0
2018-12-10 23:59:50.757772, 100.0
2018-12-10 23:59:51.659136, 100.0
2018-12-10 23:59:52.560582, 100.0
2018-12-10 23:59:53.461890, 100.0
2018-12-10 23:59:54.363177, 100.0
2018-12-10 23:59:55.264545, 100.0
2018-12-10 23:59:56.165891, 100.0
2018-12-10 23:59:57.067142, 100.0
2018-12-10 23:59:57.968536, 100.0
2018-12-10 23:59:58.869846, 100.0
2018-12-10 23:59:59.771251, 100.0
2018-12-11 00:00:00.672622, 100.0
2018-12-11 00:00:01.573981, 100.0
2018-12-11 00:00:02.475212, 100.0
2018-12-11 00:00:03.376589, 100.0
2018-12-11 00:00:04.277946, 100.0
2018-12-11 00:00:05.179178, 100.0
2018-12-11 00:00:06.080602, 100.0
2018-12-11 00:00:06.982010, 100.0
2018-12-11 00:00:07.883212, 100.0
2018-12-11 00:00:08.784520, 100.0
2018-12-11 00:00:09.685820, 100.0
2018-12-11 00:00:10.587136, 100.0
2018-12-11 00:00:11.488569, 100.0
2018-12-11 00:00:12.389874, 100.0
2018-12-11 00:00:13.291236, 100.0
2018-12-11 00:00:14.192632, 100.0
2018-12-11 00:00:15.093965, 100.0
2018-12-11 00:00:15.995208, 100.0
2018-12-11 00:00:16.896691, 100.0
2018-12-11 00:00:17.798014, 100.0
2018-12-11 00:00:18.699153, 100.0
2018-12-11 00:00:19.600543, 100.0
2018-12-11 00:00:20.501849, 100.0
2018-12-11 00:00:21.403171, 100.0
2018-12-11 00:00:22.304549, 100.0
2018-12-11 00:00:23.205856, 100.0
2018-12-11 00:00:24.107162, 100.0
2018-12-11 00:00:25.008483, 100.0
2018-12-11 00:00:25.909763, 100.0
2018-12-11 00:00:26.811024, 100.0
2018-12-11 00:00:27.712409, 100.0
2018-12-11 00:00:28.613791, 100.0
2018-12-11 00:00:29.515170, 100.0
2018-12-11 00:00:30.416454, 100.0
2018-12-11 00:00:31.317769, 100.0
2018-12-11 00:00:32.219144, 100.0
2018-12-11 00:00:33.120496, 100.0
2018-12-11 00:00:34.022027, 100.0
2018-12-11 00:00:34.923120, 100.0
2018-12-11 00:00:35.824381, 100.0
2018-12-11 00:00:36.725673, 100.0
2018-12-11 00:00:37.627115, 100.0
2018-12-11 00:00:38.528529, 100.0
2018-12-11 00:00:39.429864, 100.0
2018-12-11 00:00:40.331170, 100.0
2018-12-11 00:00:41.232574, 100.0
2018-12-11 00:00:42.133908, 100.0
2018-12-11 00:00:43.035170, 100.0
2018-12-11 00:00:43.936548, 100.0
2018-12-11 00:00:44.837855, 100.0
2018-12-11 00:00:45.739169, 100.0
2018-12-11 00:00:46.640855, 100.0
2018-12-11 00:00:47.542319, 100.0
2018-12-11 00:00:48.443139, 100.0
2018-12-11 00:00:49.344492, 100.0
2018-12-11 00:00:50.245772, 100.0
2018-12-11 00:00:51.147214, 100.0
2018-12-11 00:00:52.048760, 100.0
2018-12-11 00:00:52.950140, 100.0
2018-12-11 00:00:53.851172, 100.0
2018-12-11 00:00:54.752645, 100.0
2018-12-11 00:00:55.654115, 100.0
2018-12-11 00:00:56.555182, 100.0
2018-12-11 00:00:57.456587, 100.0
2018-12-11 00:00:58.357975, 100.0
2018-12-11 00:00:59.259196, 100.0
2018-12-11 00:01:00.160527, 100.0
2018-12-11 00:01:01.061890, 100.0
2018-12-11 00:01:01.963168, 100.0
2018-12-11 00:01:02.864589, 100.0
2018-12-11 00:01:03.765943, 100.0
2018-12-11 00:01:04.667199, 100.0
2018-12-11 00:01:05.568554, 100.0
2018-12-11 00:01:06.469906, 100.0
2018-12-11 00:01:07.371184, 100.0
2018-12-11 00:01:08.272559, 100.0
2018-12-11 00:01:09.173864, 100.0
2018-12-11 00:01:10.075120, 100.0
2018-12-11 00:01:10.976507, 100.0
2018-12-11 00:01:11.877929, 100.0
2018-12-11 00:01:12.779168, 100.0
2018-12-11 00:01:13.680540, 100.0
2018-12-11 00:01:14.581889, 100.0
2018-12-11 00:01:15.483205, 100.0
2018-12-11 00:01:16.384547, 100.0
2018-12-11 00:01:17.285899, 100.0
2018-12-11 00:01:18.187084, 100.0
2018-12-11 00:01:19.088435, 100.0
2018-12-11 00:01:19.989773, 100.0
2018-12-11 00:01:20.891205, 100.0
2018-12-11 00:01:21.792507, 100.0
2018-12-11 00:01:22.693864, 100.0
2018-12-11 00:01:23.595232, 100.0
2018-12-11 00:01:24.496543, 100.0
2018-12-11 00:01:25.397881, 100.0
2018-12-11 00:01:26.299187, 100.0
2018-12-11 00:01:27.200419, 100.0
2018-12-11 00:01:28.101712, 100.0
2018-12-11 00:01:29.003208, 100.0
2018-12-11 00:01:29.904543, 100.0
2018-12-11 00:01:30.805896, 100.0
2018-12-11 00:01:31.707196, 100.0
2018-12-11 00:01:32.608497, 100.0
2018-12-11 00:01:33.509788, 100.0
2018-12-11 00:01:34.411164, 100.0
2018-12-11 00:01:35.312462, 100.0
2018-12-11 00:01:36.213893, 100.0
2018-12-11 00:01:37.115165, 100.0
2018-12-11 00:01:38.016465, 100.0
2018-12-11 00:01:38.917812, 100.0
2018-12-11 00:01:39.819175, 100.0
2018-12-11 00:01:40.720479, 100.0
2018-12-11 00:01:41.621899, 100.0
2018-12-11 00:01:42.523068, 100.0
2018-12-11 00:01:43.424580, 100.0
2018-12-11 00:01:44.325961, 100.0
2018-12-11 00:01:45.227064, 100.0
2018-12-11 00:01:46.128418, 100.0
2018-12-11 00:01:47.029807, 100.0
2018-12-11 00:01:47.931178, 100.0
2018-12-11 00:01:48.832423, 100.0
2018-12-11 00:01:49.733801, 100.0
2018-12-11 00:01:50.635152, 100.0
2018-12-11 00:01:51.536440, 100.0
2018-12-11 00:01:52.437791, 100.0
2018-12-11 00:01:53.339191, 100.0
2018-12-11 00:01:54.240543, 100.0
2018-12-11 00:01:55.141831, 100.0
2018-12-11 00:01:56.043174, 100.0
2018-12-11 00:01:56.944503, 100.0
2018-12-11 00:01:57.845853, 100.0
2018-12-11 00:01:58.747174, 100.0
2018-12-11 00:01:59.648503, 100.0
2018-12-11 00:02:00.549879, 100.0
2018-12-11 00:02:01.451209, 100.0
2018-12-11 00:02:02.352554, 100.0
2018-12-11 00:02:03.253945, 100.0
2018-12-11 00:02:04.155178, 100.0
2018-12-11 00:02:05.056560, 100.0
2018-12-11 00:02:05.957926, 100.0
2018-12-11 00:02:06.859216, 100.0
2018-12-11 00:02:07.760541, 100.0
2018-12-11 00:02:08.661938, 100.0
2018-12-11 00:02:09.563123, 100.0
2018-12-11 00:02:10.464457, 100.0
2018-12-11 00:02:11.365864, 100.0
2018-12-11 00:02:12.267201, 100.0
2018-12-11 00:02:13.168509, 100.0
2018-12-11 00:02:14.069884, 100.0
2018-12-11 00:02:14.971222, 100.0
2018-12-11 00:02:15.872590, 100.0
2018-12-11 00:02:16.774050, 100.0
2018-12-11 00:02:17.675170, 100.0
2018-12-11 00:02:18.576492, 100.0
2018-12-11 00:02:19.477874, 100.0
2018-12-11 00:02:20.379138, 100.0
2018-12-11 00:02:21.280475, 100.0
2018-12-11 00:02:22.181882, 100.0
2018-12-11 00:02:23.083304, 100.0
2018-12-11 00:02:23.984657, 100.0
2018-12-11 00:02:24.886095, 100.0
2018-12-11 00:02:25.787120, 100.0
2018-12-11 00:02:26.688425, 100.0
2018-12-11 00:02:27.589810, 100.0
2018-12-11 00:02:28.491143, 100.0
2018-12-11 00:02:29.392454, 100.0
2018-12-11 00:02:30.293770, 100.0
2018-12-11 00:02:31.195167, 100.0
2018-12-11 00:02:32.096480, 100.0
2018-12-11 00:02:32.997846, 100.0
2018-12-11 00:02:33.899186, 100.0
2018-12-11 00:02:34.800523, 100.0
2018-12-11 00:02:35.701949, 100.0
2018-12-11 00:02:36.603169, 100.0
2018-12-11 00:02:37.504479, 100.0
2018-12-11 00:02:38.405909, 100.0
2018-12-11 00:02:39.307150, 100.0
2018-12-11 00:02:40.208449, 100.0
2018-12-11 00:02:41.109932, 100.0
2018-12-11 00:02:42.011152, 100.0
2018-12-11 00:02:42.912383, 100.0
2018-12-11 00:02:43.813751, 100.0
2018-12-11 00:02:44.715143, 100.0
2018-12-11 00:02:45.616504, 100.0
2018-12-11 00:02:46.517985, 100.0
2018-12-11 00:02:47.419169, 100.0
2018-12-11 00:02:48.320504, 100.0
2018-12-11 00:02:49.221853, 100.0
2018-12-11 00:02:50.123131, 100.0
2018-12-11 00:02:51.024433, 100.0
2018-12-11 00:02:51.925760, 100.0
2018-12-11 00:02:52.827175, 100.0
2018-12-11 00:02:53.728529, 100.0
2018-12-11 00:02:54.629923, 100.0
2018-12-11 00:02:55.531138, 100.0
2018-12-11 00:02:56.432449, 100.0
2018-12-11 00:02:57.333934, 100.0
2018-12-11 00:02:58.235210, 100.0
2018-12-11 00:02:59.136567, 100.0
2018-12-11 00:03:00.037968, 100.0
2018-12-11 00:03:00.939083, 100.0
2018-12-11 00:03:01.840433, 100.0
2018-12-11 00:03:02.741881, 100.0
2018-12-11 00:03:03.643160, 100.0
2018-12-11 00:03:04.544490, 100.0
2018-12-11 00:03:05.445875, 100.0
2018-12-11 00:03:06.347236, 100.0
2018-12-11 00:03:07.248625, 100.0
2018-12-11 00:03:08.150028, 100.0
2018-12-11 00:03:09.051203, 100.0
2018-12-11 00:03:09.952584, 100.0
2018-12-11 00:03:10.853972, 100.0
2018-12-11 00:03:11.755174, 100.0
2018-12-11 00:03:12.656592, 100.0
2018-12-11 00:03:13.558002, 100.0
2018-12-11 00:03:14.459188, 100.0
2018-12-11 00:03:15.360407, 100.0
2018-12-11 00:03:16.261809, 100.0
2018-12-11 00:03:17.163145, 100.0
2018-12-11 00:03:18.064498, 100.0
2018-12-11 00:03:18.965873, 100.0
2018-12-11 00:03:19.867106, 100.0
2018-12-11 00:03:20.768345, 100.0
2018-12-11 00:03:21.669757, 100.0
2018-12-11 00:03:22.571089, 100.0
2018-12-11 00:03:23.472507, 100.0
2018-12-11 00:03:24.373897, 100.0
2018-12-11 00:03:25.275039, 100.0
2018-12-11 00:03:26.176352, 100.0
2018-12-11 00:03:27.077990, 100.0
2018-12-11 00:03:27.979159, 100.0
2018-12-11 00:03:28.880508, 100.0
2018-12-11 00:03:29.781894, 100.0
2018-12-11 00:03:30.683019, 100.0
2018-12-11 00:03:31.584312, 100.0
2018-12-11 00:03:32.485750, 100.0
2018-12-11 00:03:33.387136, 100.0
2018-12-11 00:03:34.288401, 100.0
2018-12-11 00:03:35.189807, 100.0
2018-12-11 00:03:36.091158, 100.0
2018-12-11 00:03:36.992521, 100.0
2018-12-11 00:03:37.893894, 100.0
2018-12-11 00:03:38.795104, 100.0
2018-12-11 00:03:39.696440, 100.0
2018-12-11 00:03:40.597843, 100.0
2018-12-11 00:03:41.499276, 100.0
2018-12-11 00:03:42.400757, 100.0
2018-12-11 00:03:43.302004, 100.0
2018-12-11 00:03:44.203101, 100.0
2018-12-11 00:03:45.104577, 100.0
2018-12-11 00:03:46.005958, 100.0
2018-12-11 00:03:46.907151, 100.0
2018-12-11 00:03:47.808510, 100.0
2018-12-11 00:03:48.709848, 100.0
2018-12-11 00:03:49.611106, 100.0
2018-12-11 00:03:50.512353, 100.0
2018-12-11 00:03:51.413745, 100.0
2018-12-11 00:03:52.315119, 100.0
2018-12-11 00:03:53.216458, 100.0
2018-12-11 00:03:54.118258, 100.0
2018-12-11 00:03:55.019112, 100.0
2018-12-11 00:03:55.920442, 100.0
2018-12-11 00:03:56.821846, 100.0
2018-12-11 00:03:57.723190, 100.0
2018-12-11 00:03:58.624545, 100.0
2018-12-11 00:03:59.525929, 100.0
2018-12-11 00:04:00.427117, 100.0
2018-12-11 00:04:01.328486, 100.0
2018-12-11 00:04:02.229839, 100.0
2018-12-11 00:04:03.131697, 100.0
2018-12-11 00:04:04.033065, 100.0
2018-12-11 00:04:04.934467, 100.0
2018-12-11 00:04:05.835088, 100.0
2018-12-11 00:04:06.736434, 100.0
2018-12-11 00:04:07.637821, 100.0
2018-12-11 00:04:08.539102, 100.0
2018-12-11 00:04:09.440491, 100.0
2018-12-11 00:04:10.341972, 100.0
2018-12-11 00:04:11.243113, 100.0
2018-12-11 00:04:12.144480, 100.0
2018-12-11 00:04:13.046687, 100.0
2018-12-11 00:04:13.947110, 100.0
2018-12-11 00:04:14.848469, 100.0
2018-12-11 00:04:15.749804, 100.0
2018-12-11 00:04:16.651022, 100.0
2018-12-11 00:04:17.552356, 100.0
2018-12-11 00:04:18.453750, 100.0
2018-12-11 00:04:19.355061, 100.0
2018-12-11 00:04:20.256424, 100.0
2018-12-11 00:04:21.157800, 100.0
2018-12-11 00:04:22.059171, 100.0
2018-12-11 00:04:22.960597, 100.0
2018-12-11 00:04:23.861923, 100.0
2018-12-11 00:04:24.763121, 100.0
2018-12-11 00:04:25.664459, 100.0
2018-12-11 00:04:26.565809, 100.0
2018-12-11 00:04:27.467124, 100.0
2018-12-11 00:04:28.368544, 100.0
2018-12-11 00:04:29.269823, 100.0
2018-12-11 00:04:30.171114, 100.0
2018-12-11 00:04:31.072522, 100.0
2018-12-11 00:04:31.973817, 100.0
2018-12-11 00:04:32.875111, 100.0
2018-12-11 00:04:33.776477, 100.0
2018-12-11 00:04:34.677836, 100.0
2018-12-11 00:04:35.579170, 100.0
2018-12-11 00:04:36.480581, 100.0
2018-12-11 00:04:37.381924, 100.0
2018-12-11 00:04:38.283306, 100.0
2018-12-11 00:04:39.184688, 100.0
2018-12-11 00:04:40.085979, 100.0
2018-12-11 00:04:40.987072, 100.0
2018-12-11 00:04:41.888707, 100.0
2018-12-11 00:04:42.790151, 100.0
2018-12-11 00:04:43.691042, 100.0
2018-12-11 00:04:44.592448, 100.0
2018-12-11 00:04:45.493841, 100.0
2018-12-11 00:04:46.395336, 100.0
2018-12-11 00:04:47.296703, 100.0
2018-12-11 00:04:48.198009, 100.0
2018-12-11 00:04:49.099185, 100.0
2018-12-11 00:04:50.000531, 100.0
2018-12-11 00:04:50.901884, 100.0
2018-12-11 00:04:51.803259, 100.0
2018-12-11 00:04:52.704663, 100.0
2018-12-11 00:04:53.605996, 100.0
2018-12-11 00:04:54.507260, 100.0
2018-12-11 00:04:55.408635, 100.0
2018-12-11 00:04:56.309980, 100.0
2018-12-11 00:04:57.211241, 100.0
2018-12-11 00:04:58.112632, 100.0
2018-12-11 00:04:59.013882, 100.0
2018-12-11 00:04:59.915147, 100.0
2018-12-11 00:05:00.816436, 100.0
2018-12-11 00:05:01.717817, 100.0
2018-12-11 00:05:02.619148, 100.0
2018-12-11 00:05:03.520585, 100.0
2018-12-11 00:05:04.421900, 100.0
2018-12-11 00:05:05.323099, 100.0
2018-12-11 00:05:06.224526, 100.0
2018-12-11 00:05:07.125870, 100.0
2018-12-11 00:05:08.027037, 100.0
