time, cpu_percent
2018-12-11 15:25:08.330708, 100.0
2018-12-11 15:25:09.232056, 100.0
2018-12-11 15:25:10.133369, 100.0
2018-12-11 15:25:11.033794, 100.0
2018-12-11 15:25:11.935121, 100.0
2018-12-11 15:25:12.836457, 100.0
2018-12-11 15:25:13.737778, 100.0
2018-12-11 15:25:14.639116, 100.0
2018-12-11 15:25:15.540429, 100.0
2018-12-11 15:25:16.441749, 100.0
2018-12-11 15:25:17.343059, 100.0
2018-12-11 15:25:18.244357, 100.0
2018-12-11 15:25:19.145683, 100.0
2018-12-11 15:25:20.047023, 100.0
2018-12-11 15:25:20.948330, 100.0
2018-12-11 15:25:21.849655, 100.0
2018-12-11 15:25:22.750961, 100.0
2018-12-11 15:25:23.652261, 100.0
2018-12-11 15:25:24.553589, 100.0
2018-12-11 15:25:25.454929, 100.0
2018-12-11 15:25:26.356243, 100.0
2018-12-11 15:25:27.257577, 100.0
2018-12-11 15:25:28.158878, 100.0
2018-12-11 15:25:29.060185, 100.0
2018-12-11 15:25:29.961497, 100.0
2018-12-11 15:25:30.862825, 100.0
2018-12-11 15:25:31.764159, 100.0
2018-12-11 15:25:32.665472, 100.0
2018-12-11 15:25:33.566837, 100.0
2018-12-11 15:25:34.468147, 100.0
2018-12-11 15:25:35.369453, 100.0
2018-12-11 15:25:36.270817, 100.0
2018-12-11 15:25:37.172138, 100.0
2018-12-11 15:25:38.073451, 100.0
2018-12-11 15:25:38.974785, 100.0
2018-12-11 15:25:39.876102, 100.0
2018-12-11 15:25:40.777401, 100.0
2018-12-11 15:25:41.677778, 100.0
2018-12-11 15:25:42.579082, 100.0
2018-12-11 15:25:43.480384, 100.0
2018-12-11 15:25:44.381724, 100.0
2018-12-11 15:25:45.283032, 100.0
2018-12-11 15:25:46.184331, 100.0
2018-12-11 15:25:47.085700, 100.0
2018-12-11 15:25:47.987016, 100.0
2018-12-11 15:25:48.888326, 100.0
2018-12-11 15:25:49.789611, 100.0
2018-12-11 15:25:50.690923, 100.0
2018-12-11 15:25:51.592224, 100.0
2018-12-11 15:25:52.493575, 100.0
2018-12-11 15:25:53.394889, 100.0
2018-12-11 15:25:54.296222, 100.0
2018-12-11 15:25:55.197566, 100.0
2018-12-11 15:25:56.098891, 100.0
2018-12-11 15:25:57.000195, 100.0
2018-12-11 15:25:57.901498, 100.0
2018-12-11 15:25:58.802821, 100.0
2018-12-11 15:25:59.704144, 100.0
2018-12-11 15:26:00.605476, 100.0
2018-12-11 15:26:01.506809, 100.0
2018-12-11 15:26:02.408123, 100.0
2018-12-11 15:26:03.309442, 100.0
2018-12-11 15:26:04.210772, 100.0
2018-12-11 15:26:05.112063, 100.0
2018-12-11 15:26:06.013395, 100.0
2018-12-11 15:26:06.913786, 100.0
2018-12-11 15:26:07.815102, 100.0
2018-12-11 15:26:08.716433, 100.0
2018-12-11 15:26:09.617719, 100.0
2018-12-11 15:26:10.519028, 100.0
2018-12-11 15:26:11.420359, 100.0
2018-12-11 15:26:12.321688, 100.0
2018-12-11 15:26:13.222996, 100.0
2018-12-11 15:26:14.124292, 100.0
2018-12-11 15:26:15.025631, 100.0
2018-12-11 15:26:15.926947, 100.0
2018-12-11 15:26:16.828237, 100.0
2018-12-11 15:26:17.729566, 100.0
2018-12-11 15:26:18.630857, 100.0
2018-12-11 15:26:19.532161, 100.0
2018-12-11 15:26:20.433461, 100.0
2018-12-11 15:26:21.334773, 100.0
2018-12-11 15:26:22.236061, 100.0
2018-12-11 15:26:23.137384, 100.0
2018-12-11 15:26:24.037766, 100.0
2018-12-11 15:26:24.939041, 100.0
2018-12-11 15:26:25.840309, 100.0
2018-12-11 15:26:26.741556, 100.0
2018-12-11 15:26:27.642853, 100.0
2018-12-11 15:26:28.544168, 100.0
2018-12-11 15:26:29.445448, 100.0
2018-12-11 15:26:30.346762, 100.0
2018-12-11 15:26:31.248064, 100.0
2018-12-11 15:26:32.149382, 100.0
2018-12-11 15:26:33.049773, 100.0
2018-12-11 15:26:33.951092, 100.0
2018-12-11 15:26:34.852385, 100.0
2018-12-11 15:26:35.753697, 100.0
2018-12-11 15:26:36.654985, 100.0
2018-12-11 15:26:37.556302, 100.0
2018-12-11 15:26:38.457615, 100.0
2018-12-11 15:26:39.358893, 100.0
2018-12-11 15:26:40.260186, 100.0
2018-12-11 15:26:41.161466, 100.0
2018-12-11 15:26:42.062791, 100.0
2018-12-11 15:26:42.964083, 100.0
2018-12-11 15:26:43.865354, 100.0
2018-12-11 15:26:44.765757, 100.0
2018-12-11 15:26:45.667042, 100.0
2018-12-11 15:26:46.568344, 100.0
2018-12-11 15:26:47.469673, 100.0
2018-12-11 15:26:48.370988, 100.0
2018-12-11 15:26:49.272268, 100.0
2018-12-11 15:26:50.173604, 100.0
2018-12-11 15:26:51.074896, 100.0
2018-12-11 15:26:51.976167, 100.0
2018-12-11 15:26:52.877429, 100.0
2018-12-11 15:26:53.778756, 100.0
2018-12-11 15:26:54.680044, 100.0
2018-12-11 15:26:55.581336, 100.0
2018-12-11 15:26:56.481739, 100.0
2018-12-11 15:26:57.383048, 100.0
2018-12-11 15:26:58.284338, 100.0
2018-12-11 15:26:59.185653, 100.0
2018-12-11 15:27:00.086942, 100.0
2018-12-11 15:27:00.988228, 100.0
2018-12-11 15:27:01.889572, 100.0
2018-12-11 15:27:02.790898, 100.0
2018-12-11 15:27:03.692202, 100.0
2018-12-11 15:27:04.593496, 100.0
2018-12-11 15:27:05.494819, 100.0
2018-12-11 15:27:06.396107, 100.0
2018-12-11 15:27:07.297366, 100.0
2018-12-11 15:27:08.197776, 100.0
2018-12-11 15:27:09.099073, 100.0
2018-12-11 15:27:10.000375, 100.0
2018-12-11 15:27:10.901672, 100.0
2018-12-11 15:27:11.802997, 100.0
2018-12-11 15:27:12.704346, 100.0
2018-12-11 15:27:13.605635, 100.0
2018-12-11 15:27:14.506899, 100.0
2018-12-11 15:27:15.408180, 100.0
2018-12-11 15:27:16.309480, 100.0
2018-12-11 15:27:17.210785, 100.0
2018-12-11 15:27:18.112111, 100.0
2018-12-11 15:27:19.013392, 100.0
2018-12-11 15:27:19.913748, 100.0
2018-12-11 15:27:20.815111, 100.0
2018-12-11 15:27:21.716439, 100.0
2018-12-11 15:27:22.617726, 100.0
2018-12-11 15:27:23.519012, 100.0
2018-12-11 15:27:24.420249, 100.0
2018-12-11 15:27:25.321496, 100.0
2018-12-11 15:27:26.222815, 100.0
2018-12-11 15:27:27.124044, 100.0
2018-12-11 15:27:28.025326, 100.0
2018-12-11 15:27:28.925762, 100.0
2018-12-11 15:27:29.827033, 100.0
2018-12-11 15:27:30.728336, 100.0
2018-12-11 15:27:31.629657, 100.0
2018-12-11 15:27:32.530973, 100.0
2018-12-11 15:27:33.432279, 100.0
2018-12-11 15:27:34.333608, 100.0
2018-12-11 15:27:35.234904, 100.0
2018-12-11 15:27:36.136185, 100.0
2018-12-11 15:27:37.037464, 100.0
2018-12-11 15:27:37.938781, 100.0
2018-12-11 15:27:38.840078, 100.0
2018-12-11 15:27:39.741375, 100.0
2018-12-11 15:27:40.641774, 100.0
2018-12-11 15:27:41.543102, 100.0
2018-12-11 15:27:42.444399, 100.0
2018-12-11 15:27:43.345730, 100.0
2018-12-11 15:27:44.247011, 100.0
2018-12-11 15:27:45.148320, 100.0
2018-12-11 15:27:46.049630, 100.0
2018-12-11 15:27:46.950908, 100.0
2018-12-11 15:27:47.852193, 100.0
2018-12-11 15:27:48.753465, 100.0
2018-12-11 15:27:49.654783, 100.0
2018-12-11 15:27:50.556069, 100.0
2018-12-11 15:27:51.457360, 100.0
2018-12-11 15:27:52.357785, 100.0
2018-12-11 15:27:53.259070, 100.0
2018-12-11 15:27:54.160348, 100.0
2018-12-11 15:27:55.061702, 100.0
2018-12-11 15:27:55.962963, 100.0
2018-12-11 15:27:56.864230, 100.0
2018-12-11 15:27:57.765539, 100.0
2018-12-11 15:27:58.666832, 100.0
2018-12-11 15:27:59.568116, 100.0
2018-12-11 15:28:00.469402, 100.0
2018-12-11 15:28:01.369807, 100.0
2018-12-11 15:28:02.271126, 100.0
2018-12-11 15:28:03.172433, 100.0
2018-12-11 15:28:04.073749, 100.0
2018-12-11 15:28:04.975056, 100.0
2018-12-11 15:28:05.876368, 100.0
2018-12-11 15:28:06.777674, 100.0
2018-12-11 15:28:07.678979, 100.0
2018-12-11 15:28:08.580283, 100.0
2018-12-11 15:28:09.481624, 100.0
2018-12-11 15:28:10.382927, 100.0
2018-12-11 15:28:11.284225, 100.0
2018-12-11 15:28:12.185554, 100.0
2018-12-11 15:28:13.086857, 100.0
2018-12-11 15:28:13.988151, 100.0
2018-12-11 15:28:14.889449, 100.0
2018-12-11 15:28:15.790778, 100.0
2018-12-11 15:28:16.692089, 100.0
2018-12-11 15:28:17.593391, 100.0
2018-12-11 15:28:18.493791, 100.0
2018-12-11 15:28:19.395072, 100.0
2018-12-11 15:28:20.296339, 100.0
2018-12-11 15:28:21.197661, 100.0
2018-12-11 15:28:22.098960, 100.0
2018-12-11 15:28:23.000251, 100.0
2018-12-11 15:28:23.901546, 100.0
2018-12-11 15:28:24.802817, 100.0
2018-12-11 15:28:25.704092, 100.0
2018-12-11 15:28:26.605357, 100.0
2018-12-11 15:28:27.505780, 100.0
2018-12-11 15:28:28.407082, 100.0
2018-12-11 15:28:29.308389, 100.0
2018-12-11 15:28:30.209697, 100.0
2018-12-11 15:28:31.110994, 100.0
2018-12-11 15:28:32.012277, 100.0
2018-12-11 15:28:32.913610, 100.0
2018-12-11 15:28:33.814926, 100.0
2018-12-11 15:28:34.716209, 100.0
2018-12-11 15:28:35.617495, 100.0
2018-12-11 15:28:36.518837, 100.0
2018-12-11 15:28:37.420110, 100.0
2018-12-11 15:28:38.321405, 100.0
2018-12-11 15:28:39.221745, 100.0
2018-12-11 15:28:40.123022, 100.0
2018-12-11 15:28:41.024313, 100.0
2018-12-11 15:28:41.925621, 100.0
2018-12-11 15:28:42.826913, 100.0
2018-12-11 15:28:43.728183, 100.0
2018-12-11 15:28:44.629477, 100.0
2018-12-11 15:28:45.530899, 100.0
2018-12-11 15:28:46.432198, 100.0
2018-12-11 15:28:47.333464, 100.0
2018-12-11 15:28:48.234766, 100.0
2018-12-11 15:28:49.136076, 100.0
2018-12-11 15:28:50.037362, 100.0
2018-12-11 15:28:50.937757, 100.0
2018-12-11 15:28:51.839048, 100.0
2018-12-11 15:28:52.740357, 100.0
2018-12-11 15:28:53.641673, 100.0
2018-12-11 15:28:54.542959, 100.0
2018-12-11 15:28:55.444204, 100.0
2018-12-11 15:28:56.345485, 100.0
2018-12-11 15:28:57.246760, 100.0
2018-12-11 15:28:58.148046, 100.0
2018-12-11 15:28:59.049300, 100.0
2018-12-11 15:28:59.949717, 100.0
2018-12-11 15:29:00.850975, 100.0
2018-12-11 15:29:01.752274, 100.0
2018-12-11 15:29:02.653607, 100.0
2018-12-11 15:29:03.554912, 100.0
2018-12-11 15:29:04.456207, 100.0
2018-12-11 15:29:05.357497, 100.0
2018-12-11 15:29:06.258126, 100.0
2018-12-11 15:29:07.159368, 100.0
2018-12-11 15:29:08.060676, 100.0
2018-12-11 15:29:08.961793, 100.0
2018-12-11 15:29:09.863106, 100.0
2018-12-11 15:29:10.764414, 100.0
2018-12-11 15:29:11.665725, 100.0
2018-12-11 15:29:12.567040, 100.0
2018-12-11 15:29:13.468315, 100.0
2018-12-11 15:29:14.369614, 100.0
2018-12-11 15:29:15.270890, 100.0
2018-12-11 15:29:16.172207, 100.0
2018-12-11 15:29:17.073509, 100.0
2018-12-11 15:29:17.974836, 100.0
2018-12-11 15:29:18.876131, 100.0
2018-12-11 15:29:19.777372, 100.0
2018-12-11 15:29:20.677754, 100.0
2018-12-11 15:29:21.579071, 100.0
2018-12-11 15:29:22.480369, 100.0
2018-12-11 15:29:23.381752, 100.0
2018-12-11 15:29:24.283074, 100.0
2018-12-11 15:29:25.184368, 100.0
2018-12-11 15:29:26.085713, 100.0
2018-12-11 15:29:26.987003, 100.0
2018-12-11 15:29:27.888258, 100.0
2018-12-11 15:29:28.789506, 100.0
2018-12-11 15:29:29.690835, 100.0
2018-12-11 15:29:30.592135, 100.0
2018-12-11 15:29:31.493444, 100.0
2018-12-11 15:29:32.394761, 100.0
2018-12-11 15:29:33.296056, 100.0
2018-12-11 15:29:34.197351, 100.0
2018-12-11 15:29:35.097765, 100.0
2018-12-11 15:29:35.999021, 100.0
2018-12-11 15:29:36.900283, 100.0
2018-12-11 15:29:37.801651, 100.0
2018-12-11 15:29:38.702949, 100.0
2018-12-11 15:29:39.604250, 100.0
2018-12-11 15:29:40.505592, 100.0
2018-12-11 15:29:41.406919, 100.0
2018-12-11 15:29:42.308243, 100.0
2018-12-11 15:29:43.209584, 100.0
2018-12-11 15:29:44.110874, 100.0
2018-12-11 15:29:45.012170, 100.0
2018-12-11 15:29:45.913475, 100.0
2018-12-11 15:29:46.814756, 100.0
2018-12-11 15:29:47.715979, 100.0
2018-12-11 15:29:48.617262, 100.0
2018-12-11 15:29:49.517738, 100.0
2018-12-11 15:29:50.418978, 100.0
2018-12-11 15:29:51.320252, 100.0
2018-12-11 15:29:52.221544, 100.0
2018-12-11 15:29:53.122816, 100.0
2018-12-11 15:29:54.024106, 100.0
2018-12-11 15:29:54.925432, 100.0
2018-12-11 15:29:55.826767, 100.0
2018-12-11 15:29:56.728063, 100.0
2018-12-11 15:29:57.629337, 100.0
2018-12-11 15:29:58.529759, 100.0
2018-12-11 15:29:59.431025, 100.0
2018-12-11 15:30:00.332315, 100.0
2018-12-11 15:30:01.233633, 100.0
2018-12-11 15:30:02.134936, 100.0
2018-12-11 15:30:03.036268, 100.0
2018-12-11 15:30:03.937611, 100.0
2018-12-11 15:30:04.838929, 100.0
2018-12-11 15:30:05.740243, 100.0
2018-12-11 15:30:06.641585, 100.0
2018-12-11 15:30:07.542882, 100.0
2018-12-11 15:30:08.444173, 100.0
2018-12-11 15:30:09.345475, 100.0
2018-12-11 15:30:10.246809, 100.0
2018-12-11 15:30:11.148113, 100.0
2018-12-11 15:30:12.049420, 100.0
2018-12-11 15:30:12.950749, 100.0
2018-12-11 15:30:13.852044, 100.0
2018-12-11 15:30:14.753350, 100.0
2018-12-11 15:30:15.653766, 100.0
2018-12-11 15:30:16.555072, 100.0
2018-12-11 15:30:17.456371, 100.0
2018-12-11 15:30:18.357693, 100.0
2018-12-11 15:30:19.258958, 100.0
2018-12-11 15:30:20.160273, 100.0
2018-12-11 15:30:21.061590, 100.0
2018-12-11 15:30:21.962879, 100.0
2018-12-11 15:30:22.864166, 100.0
2018-12-11 15:30:23.765458, 100.0
2018-12-11 15:30:24.666778, 100.0
2018-12-11 15:30:25.568088, 100.0
2018-12-11 15:30:26.469338, 100.0
2018-12-11 15:30:27.369778, 100.0
2018-12-11 15:30:28.271101, 100.0
2018-12-11 15:30:29.172415, 100.0
2018-12-11 15:30:30.073721, 100.0
2018-12-11 15:30:30.974996, 100.0
2018-12-11 15:30:31.876302, 100.0
2018-12-11 15:30:32.777645, 100.0
2018-12-11 15:30:33.678961, 100.0
2018-12-11 15:30:34.580258, 100.0
2018-12-11 15:30:35.481595, 100.0
2018-12-11 15:30:36.382926, 100.0
2018-12-11 15:30:37.284237, 100.0
2018-12-11 15:30:38.185552, 100.0
2018-12-11 15:30:39.086847, 100.0
2018-12-11 15:30:39.988158, 100.0
2018-12-11 15:30:40.889466, 100.0
2018-12-11 15:30:41.790805, 100.0
2018-12-11 15:30:42.692075, 100.0
2018-12-11 15:30:43.593381, 100.0
2018-12-11 15:30:44.493798, 100.0
2018-12-11 15:30:45.395098, 100.0
2018-12-11 15:30:46.296427, 100.0
2018-12-11 15:30:47.197731, 100.0
2018-12-11 15:30:48.099034, 100.0
2018-12-11 15:30:49.000319, 100.0
2018-12-11 15:30:49.901627, 100.0
2018-12-11 15:30:50.802932, 100.0
2018-12-11 15:30:51.704257, 100.0
2018-12-11 15:30:52.605612, 100.0
2018-12-11 15:30:53.506941, 100.0
2018-12-11 15:30:54.408248, 100.0
2018-12-11 15:30:55.309590, 100.0
2018-12-11 15:30:56.210923, 100.0
2018-12-11 15:30:57.112204, 100.0
2018-12-11 15:30:58.013514, 100.0
2018-12-11 15:30:58.914827, 100.0
2018-12-11 15:30:59.816110, 100.0
2018-12-11 15:31:00.717423, 100.0
2018-12-11 15:31:01.618764, 100.0
2018-12-11 15:31:02.520076, 100.0
2018-12-11 15:31:03.421357, 100.0
2018-12-11 15:31:04.321786, 100.0
2018-12-11 15:31:05.223094, 100.0
2018-12-11 15:31:06.124392, 100.0
2018-12-11 15:31:07.025710, 100.0
2018-12-11 15:31:07.927015, 100.0
2018-12-11 15:31:08.828349, 100.0
2018-12-11 15:31:09.729686, 100.0
2018-12-11 15:31:10.631006, 100.0
2018-12-11 15:31:11.532284, 100.0
2018-12-11 15:31:12.433591, 100.0
2018-12-11 15:31:13.334906, 100.0
2018-12-11 15:31:14.236228, 100.0
2018-12-11 15:31:15.137594, 100.0
2018-12-11 15:31:16.038898, 100.0
2018-12-11 15:31:16.940166, 100.0
2018-12-11 15:31:17.841460, 100.0
2018-12-11 15:31:18.742784, 100.0
2018-12-11 15:31:19.644079, 100.0
2018-12-11 15:31:20.545386, 100.0
2018-12-11 15:31:21.445777, 100.0
2018-12-11 15:31:22.347109, 100.0
2018-12-11 15:31:23.248404, 100.0
2018-12-11 15:31:24.149710, 100.0
2018-12-11 15:31:25.051021, 100.0
2018-12-11 15:31:25.952304, 100.0
2018-12-11 15:31:26.853649, 100.0
2018-12-11 15:31:27.754968, 100.0
2018-12-11 15:31:28.656256, 100.0
2018-12-11 15:31:29.558130, 100.0
2018-12-11 15:31:30.459469, 100.0
2018-12-11 15:31:31.360814, 100.0
2018-12-11 15:31:32.261776, 100.0
2018-12-11 15:31:33.163097, 100.0
2018-12-11 15:31:34.064411, 100.0
2018-12-11 15:31:34.965784, 100.0
2018-12-11 15:31:35.867095, 100.0
2018-12-11 15:31:36.768396, 100.0
2018-12-11 15:31:37.669716, 100.0
2018-12-11 15:31:38.571053, 100.0
2018-12-11 15:31:39.472372, 100.0
2018-12-11 15:31:40.373693, 100.0
2018-12-11 15:31:41.275001, 100.0
2018-12-11 15:31:42.176309, 100.0
2018-12-11 15:31:43.077635, 100.0
2018-12-11 15:31:43.978944, 100.0
2018-12-11 15:31:44.880249, 100.0
2018-12-11 15:31:45.781580, 100.0
2018-12-11 15:31:46.683366, 100.0
2018-12-11 15:31:47.584687, 100.0
2018-12-11 15:31:48.485756, 100.0
2018-12-11 15:31:49.387113, 100.0
2018-12-11 15:31:50.288421, 100.0
2018-12-11 15:31:51.189743, 100.0
2018-12-11 15:31:52.091052, 100.0
2018-12-11 15:31:52.992362, 100.0
2018-12-11 15:31:53.893681, 100.0
2018-12-11 15:31:54.794992, 100.0
2018-12-11 15:31:55.696311, 100.0
2018-12-11 15:31:56.597641, 100.0
2018-12-11 15:31:57.498967, 100.0
2018-12-11 15:31:58.400291, 100.0
2018-12-11 15:31:59.301613, 100.0
2018-12-11 15:32:00.202927, 100.0
2018-12-11 15:32:01.104238, 100.0
2018-12-11 15:32:02.005575, 100.0
2018-12-11 15:32:02.906920, 100.0
2018-12-11 15:32:03.808252, 100.0
2018-12-11 15:32:04.709590, 100.0
2018-12-11 15:32:05.610902, 100.0
2018-12-11 15:32:06.512235, 100.0
2018-12-11 15:32:07.413579, 100.0
2018-12-11 15:32:08.314906, 100.0
2018-12-11 15:32:09.216211, 100.0
2018-12-11 15:32:10.117562, 100.0
2018-12-11 15:32:11.018873, 100.0
2018-12-11 15:32:11.920196, 100.0
2018-12-11 15:32:12.821504, 100.0
2018-12-11 15:32:13.722855, 100.0
2018-12-11 15:32:14.624169, 100.0
2018-12-11 15:32:15.525483, 100.0
2018-12-11 15:32:16.426824, 100.0
2018-12-11 15:32:17.328126, 100.0
2018-12-11 15:32:18.229441, 100.0
2018-12-11 15:32:19.130923, 100.0
2018-12-11 15:32:20.032281, 100.0
2018-12-11 15:32:20.933641, 100.0
2018-12-11 15:32:21.834957, 100.0
2018-12-11 15:32:22.739356, 100.0
2018-12-11 15:32:23.640718, 100.0
2018-12-11 15:32:24.541775, 100.0
2018-12-11 15:32:25.443098, 100.0
2018-12-11 15:32:26.344410, 100.0
2018-12-11 15:32:27.245729, 100.0
2018-12-11 15:32:28.147036, 100.0
2018-12-11 15:32:29.048359, 100.0
2018-12-11 15:32:29.949683, 100.0
2018-12-11 15:32:30.850999, 100.0
2018-12-11 15:32:31.752336, 100.0
2018-12-11 15:32:32.653659, 100.0
2018-12-11 15:32:33.554977, 100.0
2018-12-11 15:32:34.456269, 100.0
2018-12-11 15:32:35.357569, 100.0
2018-12-11 15:32:36.258854, 100.0
2018-12-11 15:32:37.160114, 100.0
2018-12-11 15:32:38.061415, 100.0
2018-12-11 15:32:38.961757, 100.0
2018-12-11 15:32:39.863042, 100.0
2018-12-11 15:32:40.764341, 100.0
2018-12-11 15:32:41.665645, 100.0
2018-12-11 15:32:42.566952, 100.0
2018-12-11 15:32:43.468274, 100.0
2018-12-11 15:32:44.369601, 100.0
2018-12-11 15:32:45.270878, 100.0
2018-12-11 15:32:46.172187, 100.0
2018-12-11 15:32:47.073507, 100.0
2018-12-11 15:32:47.974933, 100.0
2018-12-11 15:32:48.876228, 100.0
2018-12-11 15:32:49.777512, 100.0
2018-12-11 15:32:50.678839, 100.0
2018-12-11 15:32:51.580111, 100.0
2018-12-11 15:32:52.481401, 100.0
2018-12-11 15:32:53.382709, 100.0
2018-12-11 15:32:54.284001, 100.0
2018-12-11 15:32:55.185765, 100.0
2018-12-11 15:32:56.087067, 100.0
2018-12-11 15:32:56.988365, 100.0
2018-12-11 15:32:57.889691, 100.0
2018-12-11 15:32:58.790981, 100.0
2018-12-11 15:32:59.692270, 100.0
2018-12-11 15:33:00.593599, 100.0
2018-12-11 15:33:01.494924, 100.0
2018-12-11 15:33:02.396911, 100.0
2018-12-11 15:33:03.297773, 100.0
2018-12-11 15:33:04.199117, 100.0
2018-12-11 15:33:05.100366, 100.0
2018-12-11 15:33:06.001663, 100.0
2018-12-11 15:33:06.902969, 100.0
2018-12-11 15:33:07.804268, 100.0
2018-12-11 15:33:08.705602, 100.0
2018-12-11 15:33:09.606910, 100.0
2018-12-11 15:33:10.508231, 100.0
2018-12-11 15:33:11.409556, 100.0
2018-12-11 15:33:12.310854, 100.0
2018-12-11 15:33:13.212134, 100.0
2018-12-11 15:33:14.113418, 100.0
2018-12-11 15:33:15.014744, 100.0
2018-12-11 15:33:15.916060, 100.0
2018-12-11 15:33:16.817353, 100.0
2018-12-11 15:33:17.717759, 100.0
2018-12-11 15:33:18.619038, 100.0
2018-12-11 15:33:19.520290, 100.0
2018-12-11 15:33:20.421606, 100.0
2018-12-11 15:33:21.322922, 100.0
2018-12-11 15:33:22.224202, 100.0
2018-12-11 15:33:23.125512, 100.0
2018-12-11 15:33:24.026847, 100.0
2018-12-11 15:33:24.928140, 100.0
2018-12-11 15:33:25.829410, 100.0
2018-12-11 15:33:26.729736, 100.0
2018-12-11 15:33:27.631037, 100.0
2018-12-11 15:33:28.532339, 100.0
2018-12-11 15:33:29.433640, 100.0
2018-12-11 15:33:30.334923, 100.0
2018-12-11 15:33:31.236189, 100.0
2018-12-11 15:33:32.137546, 100.0
2018-12-11 15:33:33.038848, 100.0
2018-12-11 15:33:33.940169, 100.0
2018-12-11 15:33:34.841423, 100.0
2018-12-11 15:33:35.741719, 100.0
2018-12-11 15:33:36.643018, 100.0
2018-12-11 15:33:37.544311, 100.0
2018-12-11 15:33:38.445596, 100.0
2018-12-11 15:33:39.346884, 100.0
2018-12-11 15:33:40.248130, 100.0
2018-12-11 15:33:41.149454, 100.0
2018-12-11 15:33:42.050789, 100.0
2018-12-11 15:33:42.952071, 100.0
2018-12-11 15:33:43.853379, 100.0
2018-12-11 15:33:44.753756, 100.0
2018-12-11 15:33:45.655071, 100.0
2018-12-11 15:33:46.556349, 100.0
2018-12-11 15:33:47.457642, 100.0
2018-12-11 15:33:48.358940, 100.0
2018-12-11 15:33:49.260212, 100.0
2018-12-11 15:33:50.161504, 100.0
2018-12-11 15:33:51.062806, 100.0
2018-12-11 15:33:51.964123, 100.0
2018-12-11 15:33:52.865391, 100.0
2018-12-11 15:33:53.765731, 100.0
2018-12-11 15:33:54.667010, 100.0
2018-12-11 15:33:55.568288, 100.0
2018-12-11 15:33:56.469601, 100.0
2018-12-11 15:33:57.370917, 100.0
2018-12-11 15:33:58.272204, 100.0
2018-12-11 15:33:59.173507, 100.0
2018-12-11 15:34:00.074847, 100.0
2018-12-11 15:34:00.976149, 100.0
2018-12-11 15:34:01.877471, 100.0
2018-12-11 15:34:02.778824, 100.0
2018-12-11 15:34:03.680111, 100.0
2018-12-11 15:34:04.581435, 100.0
2018-12-11 15:34:05.482770, 100.0
2018-12-11 15:34:06.384071, 100.0
2018-12-11 15:34:07.285377, 100.0
2018-12-11 15:34:08.185765, 100.0
2018-12-11 15:34:09.087033, 100.0
2018-12-11 15:34:09.988339, 100.0
2018-12-11 15:34:10.889660, 100.0
2018-12-11 15:34:11.790935, 100.0
2018-12-11 15:34:12.692211, 100.0
2018-12-11 15:34:13.593500, 100.0
2018-12-11 15:34:14.494865, 100.0
2018-12-11 15:34:15.396168, 100.0
2018-12-11 15:34:16.297418, 100.0
2018-12-11 15:34:17.198715, 100.0
2018-12-11 15:34:18.100009, 100.0
2018-12-11 15:34:19.001292, 100.0
2018-12-11 15:34:19.901714, 100.0
2018-12-11 15:34:20.803017, 100.0
2018-12-11 15:34:21.704269, 100.0
2018-12-11 15:34:22.605600, 100.0
2018-12-11 15:34:23.506897, 100.0
2018-12-11 15:34:24.408179, 100.0
2018-12-11 15:34:25.309441, 100.0
2018-12-11 15:34:26.210762, 100.0
2018-12-11 15:34:27.112047, 100.0
2018-12-11 15:34:28.013317, 100.0
2018-12-11 15:34:28.913759, 100.0
2018-12-11 15:34:29.815059, 100.0
2018-12-11 15:34:30.716343, 100.0
2018-12-11 15:34:31.617648, 100.0
2018-12-11 15:34:32.518927, 100.0
2018-12-11 15:34:33.420227, 100.0
2018-12-11 15:34:34.321499, 100.0
2018-12-11 15:34:35.222815, 100.0
2018-12-11 15:34:36.124071, 100.0
2018-12-11 15:34:37.025374, 100.0
2018-12-11 15:34:37.925758, 100.0
2018-12-11 15:34:38.827021, 100.0
2018-12-11 15:34:39.728281, 100.0
2018-12-11 15:34:40.629565, 100.0
2018-12-11 15:34:41.530818, 100.0
2018-12-11 15:34:42.432052, 100.0
2018-12-11 15:34:43.333352, 100.0
2018-12-11 15:34:44.233732, 100.0
2018-12-11 15:34:45.135024, 100.0
2018-12-11 15:34:46.036284, 100.0
2018-12-11 15:34:46.937505, 100.0
2018-12-11 15:34:47.838761, 100.0
2018-12-11 15:34:48.740018, 100.0
2018-12-11 15:34:49.641272, 100.0
2018-12-11 15:34:50.541728, 100.0
2018-12-11 15:34:51.443012, 100.0
2018-12-11 15:34:52.344285, 100.0
2018-12-11 15:34:53.245601, 100.0
2018-12-11 15:34:54.146886, 100.0
2018-12-11 15:34:55.048199, 100.0
2018-12-11 15:34:55.949443, 100.0
2018-12-11 15:34:56.850732, 100.0
2018-12-11 15:34:57.751956, 100.0
2018-12-11 15:34:58.653221, 100.0
2018-12-11 15:34:59.553727, 100.0
2018-12-11 15:35:00.455001, 100.0
2018-12-11 15:35:01.356307, 100.0
2018-12-11 15:35:02.257643, 100.0
2018-12-11 15:35:03.158953, 100.0
2018-12-11 15:35:04.060245, 100.0
2018-12-11 15:35:04.961483, 100.0
2018-12-11 15:35:05.862811, 100.0
2018-12-11 15:35:06.764110, 100.0
2018-12-11 15:35:07.665417, 100.0
2018-12-11 15:35:08.565775, 100.0
2018-12-11 15:35:09.467082, 100.0
2018-12-11 15:35:10.368382, 100.0
2018-12-11 15:35:11.269700, 100.0
2018-12-11 15:35:12.171009, 100.0
2018-12-11 15:35:13.072326, 100.0
2018-12-11 15:35:13.973606, 100.0
2018-12-11 15:35:14.874903, 100.0
2018-12-11 15:35:15.776218, 100.0
2018-12-11 15:35:16.677553, 100.0
2018-12-11 15:35:17.578871, 100.0
2018-12-11 15:35:18.480148, 100.0
2018-12-11 15:35:19.381408, 100.0
2018-12-11 15:35:20.281749, 100.0
2018-12-11 15:35:21.183032, 100.0
2018-12-11 15:35:22.084297, 100.0
2018-12-11 15:35:22.985613, 100.0
2018-12-11 15:35:23.886898, 100.0
2018-12-11 15:35:24.788161, 100.0
2018-12-11 15:35:25.689410, 100.0
2018-12-11 15:35:26.589752, 100.0
2018-12-11 15:35:27.490986, 100.0
2018-12-11 15:35:28.392220, 100.0
2018-12-11 15:35:29.293592, 100.0
2018-12-11 15:35:30.194896, 100.0
2018-12-11 15:35:31.096212, 100.0
2018-12-11 15:35:31.997507, 100.0
2018-12-11 15:35:32.898788, 100.0
2018-12-11 15:35:33.800038, 100.0
2018-12-11 15:35:34.701291, 100.0
2018-12-11 15:35:35.601744, 100.0
2018-12-11 15:35:36.503030, 100.0
2018-12-11 15:35:37.404311, 100.0
2018-12-11 15:35:38.305614, 100.0
2018-12-11 15:35:39.206868, 100.0
2018-12-11 15:35:40.108102, 100.0
2018-12-11 15:35:41.009347, 100.0
2018-12-11 15:35:41.909775, 100.0
2018-12-11 15:35:42.811095, 100.0
2018-12-11 15:35:43.712407, 100.0
2018-12-11 15:35:44.613703, 100.0
2018-12-11 15:35:45.514988, 100.0
2018-12-11 15:35:46.416234, 100.0
2018-12-11 15:35:47.317464, 100.0
2018-12-11 15:35:48.218724, 100.0
2018-12-11 15:35:49.119985, 100.0
2018-12-11 15:35:50.021223, 100.0
2018-12-11 15:35:50.921740, 100.0
2018-12-11 15:35:51.823041, 100.0
2018-12-11 15:35:52.724318, 100.0
2018-12-11 15:35:53.625633, 100.0
2018-12-11 15:35:54.526948, 100.0
2018-12-11 15:35:55.428253, 100.0
2018-12-11 15:35:56.329581, 100.0
2018-12-11 15:35:57.230912, 100.0
2018-12-11 15:35:58.132213, 100.0
2018-12-11 15:35:59.033547, 100.0
2018-12-11 15:35:59.935379, 100.0
2018-12-11 15:36:00.836688, 100.0
2018-12-11 15:36:01.737795, 100.0
2018-12-11 15:36:02.639100, 100.0
2018-12-11 15:36:03.540423, 100.0
2018-12-11 15:36:04.441743, 100.0
2018-12-11 15:36:05.343047, 100.0
2018-12-11 15:36:06.244335, 100.0
2018-12-11 15:36:07.145643, 100.0
2018-12-11 15:36:08.046938, 100.0
2018-12-11 15:36:08.948234, 100.0
2018-12-11 15:36:09.849581, 100.0
2018-12-11 15:36:10.750903, 100.0
2018-12-11 15:36:11.652210, 100.0
2018-12-11 15:36:12.553515, 100.0
2018-12-11 15:36:13.454849, 100.0
2018-12-11 15:36:14.356191, 100.0
2018-12-11 15:36:15.257481, 100.0
2018-12-11 15:36:16.158853, 100.0
2018-12-11 15:36:17.060153, 100.0
2018-12-11 15:36:17.961451, 100.0
2018-12-11 15:36:18.862775, 100.0
2018-12-11 15:36:19.764063, 100.0
2018-12-11 15:36:20.665360, 100.0
2018-12-11 15:36:21.565777, 100.0
2018-12-11 15:36:22.467072, 100.0
2018-12-11 15:36:23.368370, 100.0
2018-12-11 15:36:24.269700, 100.0
2018-12-11 15:36:25.171001, 100.0
2018-12-11 15:36:26.072297, 100.0
2018-12-11 15:36:26.973613, 100.0
2018-12-11 15:36:27.874908, 100.0
2018-12-11 15:36:28.776190, 100.0
2018-12-11 15:36:29.677496, 100.0
2018-12-11 15:36:30.578806, 100.0
2018-12-11 15:36:31.480085, 100.0
2018-12-11 15:36:32.381396, 100.0
2018-12-11 15:36:33.281766, 100.0
2018-12-11 15:36:34.183072, 100.0
2018-12-11 15:36:35.084367, 100.0
2018-12-11 15:36:35.985714, 100.0
2018-12-11 15:36:36.887003, 100.0
2018-12-11 15:36:37.788306, 100.0
2018-12-11 15:36:38.689624, 100.0
2018-12-11 15:36:39.590912, 100.0
2018-12-11 15:36:40.492183, 100.0
2018-12-11 15:36:41.393456, 100.0
2018-12-11 15:36:42.294769, 100.0
2018-12-11 15:36:43.196053, 100.0
2018-12-11 15:36:44.097291, 100.0
2018-12-11 15:36:44.997768, 100.0
2018-12-11 15:36:45.899054, 100.0
2018-12-11 15:36:46.800355, 100.0
2018-12-11 15:36:47.701668, 100.0
2018-12-11 15:36:48.602994, 100.0
2018-12-11 15:36:49.504295, 100.0
2018-12-11 15:36:50.405628, 100.0
2018-12-11 15:36:51.306949, 100.0
2018-12-11 15:36:52.208274, 100.0
2018-12-11 15:36:53.109613, 100.0
2018-12-11 15:36:54.010923, 100.0
2018-12-11 15:36:54.912252, 100.0
2018-12-11 15:36:55.813583, 100.0
2018-12-11 15:36:56.714882, 100.0
2018-12-11 15:36:57.616176, 100.0
2018-12-11 15:36:58.517466, 100.0
2018-12-11 15:36:59.418781, 100.0
2018-12-11 15:37:00.320083, 100.0
2018-12-11 15:37:01.221401, 100.0
2018-12-11 15:37:02.121788, 100.0
2018-12-11 15:37:03.023093, 100.0
2018-12-11 15:37:03.924411, 100.0
2018-12-11 15:37:04.825732, 100.0
2018-12-11 15:37:05.727040, 100.0
2018-12-11 15:37:06.628348, 100.0
2018-12-11 15:37:07.529663, 100.0
2018-12-11 15:37:08.430960, 100.0
2018-12-11 15:37:09.332231, 100.0
2018-12-11 15:37:10.233556, 100.0
2018-12-11 15:37:11.134854, 100.0
2018-12-11 15:37:12.036151, 100.0
2018-12-11 15:37:12.937418, 100.0
2018-12-11 15:37:13.837766, 100.0
2018-12-11 15:37:14.739062, 100.0
2018-12-11 15:37:15.640352, 100.0
2018-12-11 15:37:16.541651, 100.0
2018-12-11 15:37:17.442961, 100.0
2018-12-11 15:37:18.344261, 100.0
2018-12-11 15:37:19.245604, 100.0
2018-12-11 15:37:20.146903, 100.0
2018-12-11 15:37:21.048214, 100.0
2018-12-11 15:37:21.949504, 100.0
2018-12-11 15:37:22.850820, 100.0
2018-12-11 15:37:23.752113, 100.0
2018-12-11 15:37:24.653402, 100.0
2018-12-11 15:37:25.553765, 100.0
2018-12-11 15:37:26.455053, 100.0
2018-12-11 15:37:27.356388, 100.0
2018-12-11 15:37:28.257713, 100.0
2018-12-11 15:37:29.159001, 100.0
2018-12-11 15:37:30.060296, 100.0
2018-12-11 15:37:30.961637, 100.0
2018-12-11 15:37:31.862927, 100.0
2018-12-11 15:37:32.764210, 100.0
2018-12-11 15:37:33.665495, 100.0
2018-12-11 15:37:34.566815, 100.0
2018-12-11 15:37:35.468122, 100.0
2018-12-11 15:37:36.369424, 100.0
2018-12-11 15:37:37.270769, 100.0
2018-12-11 15:37:38.172073, 100.0
2018-12-11 15:37:39.073395, 100.0
2018-12-11 15:37:39.973762, 100.0
2018-12-11 15:37:40.875058, 100.0
2018-12-11 15:37:41.776381, 100.0
2018-12-11 15:37:42.677720, 100.0
2018-12-11 15:37:43.579031, 100.0
2018-12-11 15:37:44.480329, 100.0
2018-12-11 15:37:45.381656, 100.0
2018-12-11 15:37:46.282939, 100.0
2018-12-11 15:37:47.184222, 100.0
2018-12-11 15:37:48.085559, 100.0
2018-12-11 15:37:48.986851, 100.0
2018-12-11 15:37:49.888151, 100.0
2018-12-11 15:37:50.789441, 100.0
2018-12-11 15:37:51.690768, 100.0
2018-12-11 15:37:52.592104, 100.0
2018-12-11 15:37:53.493410, 100.0
2018-12-11 15:37:54.393768, 100.0
2018-12-11 15:37:55.295027, 100.0
2018-12-11 15:37:56.196315, 100.0
2018-12-11 15:37:57.097643, 100.0
2018-12-11 15:37:57.998945, 100.0
2018-12-11 15:37:58.900255, 100.0
2018-12-11 15:37:59.801567, 100.0
2018-12-11 15:38:00.702862, 100.0
2018-12-11 15:38:01.604166, 100.0
2018-12-11 15:38:02.505461, 100.0
2018-12-11 15:38:03.406786, 100.0
2018-12-11 15:38:04.308091, 100.0
2018-12-11 15:38:05.209397, 100.0
2018-12-11 15:38:06.109763, 100.0
2018-12-11 15:38:07.011078, 100.0
2018-12-11 15:38:07.912384, 100.0
2018-12-11 15:38:08.813694, 100.0
2018-12-11 15:38:09.715007, 100.0
2018-12-11 15:38:10.616303, 100.0
2018-12-11 15:38:11.517625, 100.0
2018-12-11 15:38:12.418938, 100.0
2018-12-11 15:38:13.320230, 100.0
2018-12-11 15:38:14.221558, 100.0
2018-12-11 15:38:15.122848, 100.0
2018-12-11 15:38:16.024133, 100.0
2018-12-11 15:38:16.925444, 100.0
2018-12-11 15:38:17.826755, 100.0
2018-12-11 15:38:18.728048, 100.0
2018-12-11 15:38:19.629331, 100.0
2018-12-11 15:38:20.529751, 100.0
2018-12-11 15:38:21.431048, 100.0
2018-12-11 15:38:22.332342, 100.0
2018-12-11 15:38:23.233666, 100.0
2018-12-11 15:38:24.134963, 100.0
2018-12-11 15:38:25.036279, 100.0
2018-12-11 15:38:25.937572, 100.0
2018-12-11 15:38:26.838871, 100.0
2018-12-11 15:38:27.740165, 100.0
2018-12-11 15:38:28.641518, 100.0
2018-12-11 15:38:29.542765, 100.0
2018-12-11 15:38:30.444065, 100.0
2018-12-11 15:38:31.345362, 100.0
2018-12-11 15:38:32.245785, 100.0
2018-12-11 15:38:33.147079, 100.0
2018-12-11 15:38:34.048378, 100.0
2018-12-11 15:38:34.949680, 100.0
2018-12-11 15:38:35.850987, 100.0
2018-12-11 15:38:36.752317, 100.0
2018-12-11 15:38:37.653634, 100.0
2018-12-11 15:38:38.554898, 100.0
2018-12-11 15:38:39.456226, 100.0
2018-12-11 15:38:40.357575, 100.0
2018-12-11 15:38:41.258879, 100.0
2018-12-11 15:38:42.160183, 100.0
2018-12-11 15:38:43.061489, 100.0
2018-12-11 15:38:43.962800, 100.0
2018-12-11 15:38:44.864084, 100.0
2018-12-11 15:38:45.765369, 100.0
2018-12-11 15:38:46.665784, 100.0
2018-12-11 15:38:47.567077, 100.0
2018-12-11 15:38:48.468380, 100.0
2018-12-11 15:38:49.369724, 100.0
2018-12-11 15:38:50.271026, 100.0
2018-12-11 15:38:51.172325, 100.0
2018-12-11 15:38:52.073654, 100.0
2018-12-11 15:38:52.974956, 100.0
2018-12-11 15:38:53.876270, 100.0
2018-12-11 15:38:54.777593, 100.0
2018-12-11 15:38:55.678903, 100.0
2018-12-11 15:38:56.580205, 100.0
2018-12-11 15:38:57.481507, 100.0
2018-12-11 15:38:58.382835, 100.0
2018-12-11 15:38:59.284169, 100.0
2018-12-11 15:39:00.185448, 100.0
2018-12-11 15:39:01.086760, 100.0
2018-12-11 15:39:01.988070, 100.0
2018-12-11 15:39:02.889374, 100.0
2018-12-11 15:39:03.789768, 100.0
2018-12-11 15:39:04.691069, 100.0
2018-12-11 15:39:05.592347, 100.0
2018-12-11 15:39:06.493678, 100.0
2018-12-11 15:39:07.394983, 100.0
2018-12-11 15:39:08.296296, 100.0
2018-12-11 15:39:09.197623, 100.0
2018-12-11 15:39:10.098923, 100.0
2018-12-11 15:39:11.000231, 100.0
2018-12-11 15:39:11.901555, 100.0
2018-12-11 15:39:12.802848, 100.0
2018-12-11 15:39:13.704177, 100.0
2018-12-11 15:39:14.605466, 100.0
2018-12-11 15:39:15.506759, 100.0
2018-12-11 15:39:16.408046, 100.0
2018-12-11 15:39:17.309332, 100.0
2018-12-11 15:39:18.209749, 100.0
2018-12-11 15:39:19.110970, 100.0
2018-12-11 15:39:20.012249, 100.0
2018-12-11 15:39:20.913553, 100.0
2018-12-11 15:39:21.814832, 100.0
2018-12-11 15:39:22.716126, 100.0
2018-12-11 15:39:23.617399, 100.0
2018-12-11 15:39:24.517733, 100.0
2018-12-11 15:39:25.418957, 100.0
2018-12-11 15:39:26.320232, 100.0
2018-12-11 15:39:27.221542, 100.0
2018-12-11 15:39:28.122756, 100.0
2018-12-11 15:39:29.024041, 100.0
2018-12-11 15:39:29.925326, 100.0
2018-12-11 15:39:30.825780, 100.0
2018-12-11 15:39:31.727065, 100.0
2018-12-11 15:39:32.628282, 100.0
2018-12-11 15:39:33.529591, 100.0
2018-12-11 15:39:34.430813, 100.0
2018-12-11 15:39:35.332107, 100.0
2018-12-11 15:39:36.233424, 100.0
2018-12-11 15:39:37.134822, 100.0
2018-12-11 15:39:38.036115, 100.0
2018-12-11 15:39:38.937400, 100.0
2018-12-11 15:39:39.838669, 100.0
2018-12-11 15:39:40.739896, 100.0
2018-12-11 15:39:41.641191, 100.0
2018-12-11 15:39:42.541778, 100.0
2018-12-11 15:39:43.443032, 100.0
2018-12-11 15:39:44.344330, 100.0
2018-12-11 15:39:45.245562, 100.0
2018-12-11 15:39:46.146740, 100.0
2018-12-11 15:39:47.048025, 100.0
2018-12-11 15:39:47.949306, 100.0
2018-12-11 15:39:48.849782, 100.0
2018-12-11 15:39:49.751080, 100.0
2018-12-11 15:39:50.652319, 100.0
2018-12-11 15:39:51.553570, 100.0
2018-12-11 15:39:52.454799, 100.0
2018-12-11 15:39:53.356120, 100.0
2018-12-11 15:39:54.257441, 100.0
2018-12-11 15:39:55.158704, 100.0
2018-12-11 15:39:56.059927, 100.0
2018-12-11 15:39:56.961187, 100.0
2018-12-11 15:39:57.861698, 100.0
2018-12-11 15:39:58.762923, 100.0
2018-12-11 15:39:59.664140, 100.0
2018-12-11 15:40:00.565356, 100.0
2018-12-11 15:40:01.465710, 100.0
2018-12-11 15:40:02.366943, 100.0
2018-12-11 15:40:03.268167, 100.0
2018-12-11 15:40:04.169375, 100.0
2018-12-11 15:40:05.069712, 100.0
2018-12-11 15:40:05.970959, 100.0
2018-12-11 15:40:06.872194, 100.0
2018-12-11 15:40:07.773417, 100.0
2018-12-11 15:40:08.673726, 100.0
2018-12-11 15:40:09.574992, 100.0
2018-12-11 15:40:10.476227, 100.0
2018-12-11 15:40:11.377487, 100.0
2018-12-11 15:40:12.277857, 100.0
2018-12-11 15:40:13.179049, 100.0
2018-12-11 15:40:14.080286, 100.0
2018-12-11 15:40:14.981555, 100.0
2018-12-11 15:40:15.882769, 100.0
2018-12-11 15:40:16.783993, 100.0
2018-12-11 15:40:17.685227, 100.0
2018-12-11 15:40:18.585795, 100.0
2018-12-11 15:40:19.487121, 100.0
2018-12-11 15:40:20.388428, 100.0
2018-12-11 15:40:21.289710, 100.0
2018-12-11 15:40:22.191032, 100.0
2018-12-11 15:40:23.092387, 100.0
2018-12-11 15:40:23.993763, 100.0
2018-12-11 15:40:24.895115, 100.0
2018-12-11 15:40:25.796444, 100.0
2018-12-11 15:40:26.697761, 100.0
2018-12-11 15:40:27.599065, 100.0
2018-12-11 15:40:28.500370, 100.0
2018-12-11 15:40:29.401679, 100.0
2018-12-11 15:40:30.302987, 100.0
2018-12-11 15:40:31.204295, 100.0
2018-12-11 15:40:32.105616, 100.0
2018-12-11 15:40:33.006916, 100.0
2018-12-11 15:40:33.908249, 100.0
2018-12-11 15:40:34.809890, 100.0
2018-12-11 15:40:35.711285, 100.0
2018-12-11 15:40:36.612586, 100.0
2018-12-11 15:40:37.513932, 100.0
2018-12-11 15:40:38.415279, 100.0
2018-12-11 15:40:39.316570, 100.0
2018-12-11 15:40:40.217942, 100.0
2018-12-11 15:40:41.119263, 100.0
2018-12-11 15:40:42.020592, 100.0
2018-12-11 15:40:42.921926, 100.0
2018-12-11 15:40:43.823209, 100.0
2018-12-11 15:40:44.724544, 100.0
2018-12-11 15:40:45.625901, 100.0
2018-12-11 15:40:46.527211, 100.0
2018-12-11 15:40:47.428544, 100.0
2018-12-11 15:40:48.329719, 100.0
2018-12-11 15:40:49.231045, 100.0
2018-12-11 15:40:50.132367, 100.0
2018-12-11 15:40:51.033686, 100.0
2018-12-11 15:40:51.934958, 100.0
2018-12-11 15:40:52.836281, 100.0
2018-12-11 15:40:53.737876, 100.0
2018-12-11 15:40:54.639338, 100.0
2018-12-11 15:40:55.540651, 100.0
2018-12-11 15:40:56.442004, 100.0
2018-12-11 15:40:57.343341, 100.0
2018-12-11 15:40:58.244676, 100.0
2018-12-11 15:40:59.145986, 100.0
2018-12-11 15:41:00.047334, 100.0
2018-12-11 15:41:00.948666, 100.0
2018-12-11 15:41:01.850016, 100.0
2018-12-11 15:41:02.751361, 100.0
2018-12-11 15:41:03.652695, 100.0
2018-12-11 15:41:04.554037, 100.0
2018-12-11 15:41:05.455376, 100.0
2018-12-11 15:41:06.356729, 100.0
2018-12-11 15:41:07.258072, 100.0
2018-12-11 15:41:08.159375, 100.0
2018-12-11 15:41:09.060717, 100.0
2018-12-11 15:41:09.962063, 100.0
2018-12-11 15:41:10.863392, 100.0
2018-12-11 15:41:11.764736, 100.0
2018-12-11 15:41:12.666063, 100.0
2018-12-11 15:41:13.567407, 100.0
2018-12-11 15:41:14.468749, 100.0
2018-12-11 15:41:15.370052, 100.0
2018-12-11 15:41:16.271369, 100.0
2018-12-11 15:41:17.172681, 100.0
2018-12-11 15:41:18.074025, 100.0
2018-12-11 15:41:18.975383, 100.0
2018-12-11 15:41:19.876714, 100.0
2018-12-11 15:41:20.778039, 100.0
2018-12-11 15:41:21.679292, 100.0
2018-12-11 15:41:22.580633, 100.0
2018-12-11 15:41:23.481953, 100.0
2018-12-11 15:41:24.383237, 100.0
2018-12-11 15:41:25.284545, 100.0
2018-12-11 15:41:26.185729, 100.0
2018-12-11 15:41:27.087043, 100.0
2018-12-11 15:41:27.988352, 100.0
2018-12-11 15:41:28.889688, 100.0
2018-12-11 15:41:29.790985, 100.0
2018-12-11 15:41:30.692332, 100.0
2018-12-11 15:41:31.593702, 100.0
2018-12-11 15:41:32.495037, 100.0
2018-12-11 15:41:33.396369, 100.0
2018-12-11 15:41:34.297745, 100.0
2018-12-11 15:41:35.199112, 100.0
2018-12-11 15:41:36.100435, 100.0
2018-12-11 15:41:37.001760, 100.0
2018-12-11 15:41:37.903067, 100.0
2018-12-11 15:41:38.804367, 100.0
2018-12-11 15:41:39.705716, 100.0
2018-12-11 15:41:40.607049, 100.0
2018-12-11 15:41:41.508395, 100.0
2018-12-11 15:41:42.409742, 100.0
2018-12-11 15:41:43.311052, 100.0
2018-12-11 15:41:44.212345, 100.0
2018-12-11 15:41:45.113669, 100.0
2018-12-11 15:41:46.014953, 100.0
2018-12-11 15:41:46.916256, 100.0
2018-12-11 15:41:47.817845, 100.0
2018-12-11 15:41:48.719304, 100.0
2018-12-11 15:41:49.620617, 100.0
2018-12-11 15:41:50.521922, 100.0
2018-12-11 15:41:51.423226, 100.0
2018-12-11 15:41:52.324512, 100.0
2018-12-11 15:41:53.225711, 100.0
2018-12-11 15:41:54.127000, 100.0
2018-12-11 15:41:55.028289, 100.0
2018-12-11 15:41:55.929865, 100.0
2018-12-11 15:41:56.831262, 100.0
2018-12-11 15:41:57.732637, 100.0
2018-12-11 15:41:58.633918, 100.0
2018-12-11 15:41:59.535208, 100.0
2018-12-11 15:42:00.436523, 100.0
2018-12-11 15:42:01.337741, 100.0
2018-12-11 15:42:02.239073, 100.0
2018-12-11 15:42:03.140419, 100.0
2018-12-11 15:42:04.041747, 100.0
2018-12-11 15:42:04.943117, 100.0
2018-12-11 15:42:05.844448, 100.0
2018-12-11 15:42:06.745796, 100.0
2018-12-11 15:42:07.647115, 100.0
2018-12-11 15:42:08.548418, 100.0
2018-12-11 15:42:09.449725, 100.0
2018-12-11 15:42:10.350436, 100.0
2018-12-11 15:42:11.251755, 100.0
2018-12-11 15:42:12.153052, 100.0
2018-12-11 15:42:13.053799, 100.0
2018-12-11 15:42:13.955107, 100.0
2018-12-11 15:42:14.856405, 100.0
2018-12-11 15:42:15.757721, 100.0
2018-12-11 15:42:16.659060, 100.0
2018-12-11 15:42:17.560366, 100.0
2018-12-11 15:42:18.461733, 100.0
2018-12-11 15:42:19.363059, 100.0
2018-12-11 15:42:20.264386, 100.0
2018-12-11 15:42:21.165719, 100.0
2018-12-11 15:42:22.067053, 100.0
2018-12-11 15:42:22.968381, 100.0
2018-12-11 15:42:23.869703, 100.0
2018-12-11 15:42:24.771045, 100.0
2018-12-11 15:42:25.672361, 100.0
2018-12-11 15:42:26.573714, 100.0
2018-12-11 15:42:27.475019, 100.0
2018-12-11 15:42:28.376323, 100.0
2018-12-11 15:42:29.277656, 100.0
2018-12-11 15:42:30.178953, 100.0
2018-12-11 15:42:31.080276, 100.0
2018-12-11 15:42:31.981878, 100.0
2018-12-11 15:42:32.883341, 100.0
2018-12-11 15:42:33.784704, 100.0
2018-12-11 15:42:34.686030, 100.0
2018-12-11 15:42:35.587350, 100.0
2018-12-11 15:42:36.488665, 100.0
2018-12-11 15:42:37.389939, 100.0
2018-12-11 15:42:38.291246, 100.0
2018-12-11 15:42:39.192533, 100.0
2018-12-11 15:42:40.093718, 100.0
2018-12-11 15:42:40.995011, 100.0
2018-12-11 15:42:41.896308, 100.0
2018-12-11 15:42:42.797647, 100.0
2018-12-11 15:42:43.698976, 100.0
2018-12-11 15:42:44.600286, 100.0
2018-12-11 15:42:45.501647, 100.0
2018-12-11 15:42:46.402946, 100.0
2018-12-11 15:42:47.304275, 100.0
2018-12-11 15:42:48.205868, 100.0
2018-12-11 15:42:49.107278, 100.0
2018-12-11 15:42:50.008573, 100.0
2018-12-11 15:42:50.909868, 100.0
2018-12-11 15:42:51.811165, 100.0
2018-12-11 15:42:52.712484, 100.0
2018-12-11 15:42:53.613708, 100.0
2018-12-11 15:42:54.515009, 100.0
2018-12-11 15:42:55.416355, 100.0
2018-12-11 15:42:56.317688, 100.0
2018-12-11 15:42:57.218975, 100.0
2018-12-11 15:42:58.120278, 100.0
2018-12-11 15:42:59.021868, 100.0
2018-12-11 15:42:59.923288, 100.0
2018-12-11 15:43:00.824621, 100.0
2018-12-11 15:43:01.725970, 100.0
2018-12-11 15:43:02.627292, 100.0
2018-12-11 15:43:03.528655, 100.0
2018-12-11 15:43:04.430020, 100.0
2018-12-11 15:43:05.331315, 100.0
2018-12-11 15:43:06.232649, 100.0
2018-12-11 15:43:07.133958, 100.0
2018-12-11 15:43:08.035299, 100.0
2018-12-11 15:43:08.936625, 100.0
2018-12-11 15:43:09.837968, 100.0
2018-12-11 15:43:10.739265, 100.0
2018-12-11 15:43:11.640593, 100.0
2018-12-11 15:43:12.541974, 100.0
2018-12-11 15:43:13.443279, 100.0
