time, cpu_percent
2018-12-13 17:37:02.303096, 6.2
2018-12-13 17:37:03.204550, 6.3
2018-12-13 17:37:04.105976, 6.2
2018-12-13 17:37:05.007418, 6.2
2018-12-13 17:37:05.908843, 6.3
2018-12-13 17:37:06.810275, 6.2
2018-12-13 17:37:07.711736, 6.2
2018-12-13 17:37:08.613161, 6.3
2018-12-13 17:37:09.514626, 6.2
2018-12-13 17:37:10.416057, 6.4
2018-12-13 17:37:11.317526, 6.3
2018-12-13 17:37:12.218934, 6.2
2018-12-13 17:37:13.120355, 6.2
2018-12-13 17:37:14.021792, 6.2
2018-12-13 17:37:14.923223, 6.2
2018-12-13 17:37:15.824697, 6.3
2018-12-13 17:37:16.726122, 6.2
2018-12-13 17:37:17.627584, 6.3
2018-12-13 17:37:18.529007, 6.2
2018-12-13 17:37:19.430469, 6.2
2018-12-13 17:37:20.331900, 6.2
2018-12-13 17:37:21.233369, 6.3
2018-12-13 17:37:22.134803, 6.2
2018-12-13 17:37:23.036234, 6.2
2018-12-13 17:37:23.937693, 6.2
2018-12-13 17:37:24.839117, 6.3
2018-12-13 17:37:25.740586, 6.2
2018-12-13 17:37:26.642009, 6.2
2018-12-13 17:37:27.543468, 6.3
2018-12-13 17:37:28.444897, 6.2
2018-12-13 17:37:29.346367, 6.2
2018-12-13 17:37:30.247796, 6.2
2018-12-13 17:37:31.149228, 6.2
2018-12-13 17:37:32.050696, 6.3
2018-12-13 17:37:32.952121, 6.2
2018-12-13 17:37:33.853578, 6.3
2018-12-13 17:37:34.755012, 6.2
2018-12-13 17:37:35.656469, 6.2
2018-12-13 17:37:36.557897, 6.3
2018-12-13 17:37:37.459367, 6.2
2018-12-13 17:37:38.360800, 6.3
2018-12-13 17:37:39.262233, 6.3
2018-12-13 17:37:40.163701, 6.2
2018-12-13 17:37:41.065132, 6.4
2018-12-13 17:37:41.966596, 6.2
2018-12-13 17:37:42.868028, 6.2
2018-12-13 17:37:43.769484, 6.2
2018-12-13 17:37:44.670911, 6.2
2018-12-13 17:37:45.572374, 6.3
2018-12-13 17:37:46.473801, 6.2
2018-12-13 17:37:47.375227, 6.2
2018-12-13 17:37:48.276699, 6.2
2018-12-13 17:37:49.178132, 6.3
2018-12-13 17:37:50.079601, 6.2
2018-12-13 17:37:50.981034, 6.3
2018-12-13 17:37:51.882488, 6.2
2018-12-13 17:37:52.783917, 6.2
2018-12-13 17:37:53.685381, 6.3
2018-12-13 17:37:54.586803, 6.2
2018-12-13 17:37:55.488218, 6.3
2018-12-13 17:37:56.389691, 6.2
2018-12-13 17:37:57.291122, 6.2
2018-12-13 17:37:58.192592, 6.2
2018-12-13 17:37:59.094026, 6.5
2018-12-13 17:37:59.995412, 12.7
2018-12-13 17:38:00.896923, 6.2
2018-12-13 17:38:01.798398, 6.2
2018-12-13 17:38:02.699681, 6.3
2018-12-13 17:38:03.601104, 6.2
2018-12-13 17:38:04.502579, 6.2
2018-12-13 17:38:05.403999, 6.3
2018-12-13 17:38:06.305444, 6.2
2018-12-13 17:38:07.206872, 6.2
2018-12-13 17:38:08.108328, 6.2
2018-12-13 17:38:09.009753, 6.2
2018-12-13 17:38:09.911172, 6.3
2018-12-13 17:38:10.812644, 6.4
2018-12-13 17:38:11.714067, 6.2
2018-12-13 17:38:12.615517, 6.2
2018-12-13 17:38:13.516931, 6.3
2018-12-13 17:38:14.418380, 6.2
2018-12-13 17:38:15.319816, 6.3
2018-12-13 17:38:16.221238, 6.3
2018-12-13 17:38:17.122694, 6.2
2018-12-13 17:38:18.024118, 6.3
2018-12-13 17:38:18.925584, 6.2
2018-12-13 17:38:19.827007, 6.2
2018-12-13 17:38:20.728463, 6.2
2018-12-13 17:38:21.629883, 6.3
2018-12-13 17:38:22.531343, 6.2
2018-12-13 17:38:23.432768, 6.2
2018-12-13 17:38:24.334190, 6.3
2018-12-13 17:38:25.235659, 6.2
2018-12-13 17:38:26.137079, 6.3
2018-12-13 17:38:27.038536, 6.2
2018-12-13 17:38:27.939964, 6.3
2018-12-13 17:38:28.841416, 6.2
2018-12-13 17:38:29.742837, 6.2
2018-12-13 17:38:30.644262, 6.3
2018-12-13 17:38:31.545723, 6.2
2018-12-13 17:38:32.447144, 6.3
2018-12-13 17:38:33.348604, 6.2
2018-12-13 17:38:34.250024, 6.2
2018-12-13 17:38:35.151480, 6.2
2018-12-13 17:38:36.052899, 6.2
2018-12-13 17:38:36.954363, 6.2
2018-12-13 17:38:37.855785, 6.2
2018-12-13 17:38:38.757218, 6.2
2018-12-13 17:38:39.658676, 6.3
2018-12-13 17:38:40.560105, 6.4
2018-12-13 17:38:41.461577, 6.2
2018-12-13 17:38:42.363002, 6.3
2018-12-13 17:38:43.264460, 6.2
2018-12-13 17:38:44.165882, 6.2
2018-12-13 17:38:45.067339, 6.2
2018-12-13 17:38:45.968772, 6.2
2018-12-13 17:38:46.870203, 6.2
2018-12-13 17:38:47.771663, 6.3
2018-12-13 17:38:48.673085, 6.2
2018-12-13 17:38:49.574532, 6.2
2018-12-13 17:38:50.475953, 6.3
2018-12-13 17:38:51.377402, 6.2
2018-12-13 17:38:52.278830, 6.3
2018-12-13 17:38:53.180248, 6.2
2018-12-13 17:38:54.081711, 6.3
2018-12-13 17:38:54.983144, 6.2
2018-12-13 17:38:55.884613, 6.2
2018-12-13 17:38:56.786035, 6.2
2018-12-13 17:38:57.687490, 6.3
2018-12-13 17:38:58.588893, 6.2
2018-12-13 17:38:59.490330, 6.2
2018-12-13 17:39:00.391763, 6.2
2018-12-13 17:39:01.293196, 6.3
2018-12-13 17:39:02.194657, 6.2
2018-12-13 17:39:03.096085, 6.2
2018-12-13 17:39:03.997532, 6.2
2018-12-13 17:39:04.898955, 6.3
2018-12-13 17:39:05.800409, 6.2
2018-12-13 17:39:06.701667, 6.2
2018-12-13 17:39:07.603100, 6.2
2018-12-13 17:39:08.504561, 6.2
2018-12-13 17:39:09.405989, 6.2
2018-12-13 17:39:10.307451, 6.3
2018-12-13 17:39:11.208882, 6.4
2018-12-13 17:39:12.110359, 6.2
2018-12-13 17:39:13.011791, 6.2
2018-12-13 17:39:13.913217, 6.2
2018-12-13 17:39:14.814687, 6.3
2018-12-13 17:39:15.716119, 6.3
2018-12-13 17:39:16.617582, 6.2
2018-12-13 17:39:17.519006, 6.3
2018-12-13 17:39:18.420460, 6.2
2018-12-13 17:39:19.321887, 6.2
2018-12-13 17:39:20.223357, 6.3
2018-12-13 17:39:21.124790, 6.2
2018-12-13 17:39:22.026222, 6.2
2018-12-13 17:39:22.927689, 6.2
2018-12-13 17:39:23.829108, 6.2
2018-12-13 17:39:24.730568, 6.2
2018-12-13 17:39:25.631989, 6.3
2018-12-13 17:39:26.533449, 6.2
2018-12-13 17:39:27.434878, 6.3
2018-12-13 17:39:28.336345, 6.2
2018-12-13 17:39:29.237778, 6.3
2018-12-13 17:39:30.139208, 6.2
2018-12-13 17:39:31.040681, 6.2
2018-12-13 17:39:31.942101, 6.3
2018-12-13 17:39:32.843565, 6.2
2018-12-13 17:39:33.744994, 6.2
2018-12-13 17:39:34.646448, 6.2
2018-12-13 17:39:35.547869, 6.2
2018-12-13 17:39:36.449319, 6.2
2018-12-13 17:39:37.350750, 6.2
2018-12-13 17:39:38.252182, 6.3
2018-12-13 17:39:39.153655, 6.2
2018-12-13 17:39:40.055087, 6.3
2018-12-13 17:39:40.956534, 6.4
2018-12-13 17:39:41.857964, 6.2
2018-12-13 17:39:42.759423, 6.2
2018-12-13 17:39:43.660849, 6.3
2018-12-13 17:39:44.562273, 6.2
2018-12-13 17:39:45.463742, 6.2
2018-12-13 17:39:46.365171, 6.2
2018-12-13 17:39:47.266637, 6.2
2018-12-13 17:39:48.168069, 6.2
2018-12-13 17:39:49.069531, 6.3
2018-12-13 17:39:49.970951, 6.2
2018-12-13 17:39:50.872414, 6.2
2018-12-13 17:39:51.773843, 6.3
2018-12-13 17:39:52.675264, 6.2
2018-12-13 17:39:53.576728, 6.2
2018-12-13 17:39:54.478150, 6.3
2018-12-13 17:39:55.379615, 6.2
2018-12-13 17:39:56.281041, 6.2
2018-12-13 17:39:57.182500, 6.3
2018-12-13 17:39:58.083933, 6.2
2018-12-13 17:39:58.985400, 6.2
2018-12-13 17:39:59.886815, 13.2
2018-12-13 17:40:00.788365, 6.2
2018-12-13 17:40:01.689807, 6.6
2018-12-13 17:40:02.591245, 6.2
2018-12-13 17:40:03.492706, 6.2
2018-12-13 17:40:04.394131, 6.2
2018-12-13 17:40:05.295591, 6.3
2018-12-13 17:40:06.197022, 6.2
2018-12-13 17:40:07.098476, 6.3
2018-12-13 17:40:07.999907, 6.2
2018-12-13 17:40:08.901368, 6.2
2018-12-13 17:40:09.802792, 6.3
2018-12-13 17:40:10.704226, 6.4
2018-12-13 17:40:11.605699, 6.3
2018-12-13 17:40:12.507122, 6.2
2018-12-13 17:40:13.408589, 6.3
2018-12-13 17:40:14.310019, 6.2
2018-12-13 17:40:15.211475, 6.2
2018-12-13 17:40:16.112906, 6.2
2018-12-13 17:40:17.014379, 6.2
2018-12-13 17:40:17.915811, 6.2
2018-12-13 17:40:18.817243, 6.2
2018-12-13 17:40:19.718704, 6.2
2018-12-13 17:40:20.620131, 6.2
2018-12-13 17:40:21.521592, 6.2
2018-12-13 17:40:22.423015, 6.2
2018-12-13 17:40:23.324440, 6.2
2018-12-13 17:40:24.225858, 6.2
2018-12-13 17:40:25.127274, 6.2
2018-12-13 17:40:26.028745, 6.2
2018-12-13 17:40:26.930176, 6.2
2018-12-13 17:40:27.831634, 6.3
2018-12-13 17:40:28.733057, 6.2
2018-12-13 17:40:29.634511, 6.2
2018-12-13 17:40:30.535933, 6.2
2018-12-13 17:40:31.437386, 6.2
2018-12-13 17:40:32.338815, 6.3
2018-12-13 17:40:33.240243, 6.2
2018-12-13 17:40:34.141717, 6.2
2018-12-13 17:40:35.043150, 6.2
2018-12-13 17:40:35.944615, 6.3
2018-12-13 17:40:36.846038, 6.2
2018-12-13 17:40:37.747492, 6.2
2018-12-13 17:40:38.648917, 6.2
2018-12-13 17:40:39.550378, 6.2
2018-12-13 17:40:40.451815, 6.4
2018-12-13 17:40:41.353251, 6.2
2018-12-13 17:40:42.254711, 6.3
2018-12-13 17:40:43.156143, 6.2
2018-12-13 17:40:44.057618, 6.2
2018-12-13 17:40:44.959041, 6.2
2018-12-13 17:40:45.860499, 6.2
2018-12-13 17:40:46.761937, 6.2
2018-12-13 17:40:47.663398, 6.2
2018-12-13 17:40:48.564823, 6.2
2018-12-13 17:40:49.466250, 6.2
2018-12-13 17:40:50.367719, 6.2
2018-12-13 17:40:51.269148, 6.2
2018-12-13 17:40:52.170618, 6.3
2018-12-13 17:40:53.072104, 6.2
2018-12-13 17:40:53.973573, 6.2
2018-12-13 17:40:54.875002, 6.2
2018-12-13 17:40:55.776463, 6.3
2018-12-13 17:40:56.677880, 6.2
2018-12-13 17:40:57.579329, 6.2
2018-12-13 17:40:58.480758, 6.3
2018-12-13 17:40:59.382185, 6.2
2018-12-13 17:41:00.283660, 6.3
2018-12-13 17:41:01.185093, 6.2
2018-12-13 17:41:02.086581, 6.3
2018-12-13 17:41:02.987993, 6.2
2018-12-13 17:41:03.889421, 6.3
2018-12-13 17:41:04.790843, 6.2
2018-12-13 17:41:05.692272, 6.2
2018-12-13 17:41:06.593738, 6.2
2018-12-13 17:41:07.495160, 6.3
2018-12-13 17:41:08.396632, 6.2
2018-12-13 17:41:09.298053, 6.3
2018-12-13 17:41:10.199504, 6.2
2018-12-13 17:41:11.100930, 6.4
2018-12-13 17:41:12.002392, 6.3
2018-12-13 17:41:12.903824, 6.2
2018-12-13 17:41:13.805241, 6.2
2018-12-13 17:41:14.706715, 6.2
2018-12-13 17:41:15.608138, 6.3
2018-12-13 17:41:16.509580, 6.2
2018-12-13 17:41:17.411000, 6.2
2018-12-13 17:41:18.312450, 6.2
2018-12-13 17:41:19.213879, 6.2
2018-12-13 17:41:20.115333, 6.3
2018-12-13 17:41:21.016755, 6.2
2018-12-13 17:41:21.918174, 6.2
2018-12-13 17:41:22.819645, 6.2
2018-12-13 17:41:23.721066, 6.3
2018-12-13 17:41:24.622513, 6.2
2018-12-13 17:41:25.523934, 6.3
2018-12-13 17:41:26.425395, 6.2
2018-12-13 17:41:27.326820, 6.2
2018-12-13 17:41:28.228232, 6.2
2018-12-13 17:41:29.129692, 6.3
2018-12-13 17:41:30.031125, 6.2
2018-12-13 17:41:30.932586, 6.3
2018-12-13 17:41:31.834005, 6.2
2018-12-13 17:41:32.735455, 6.3
2018-12-13 17:41:33.636867, 6.2
2018-12-13 17:41:34.538272, 6.2
2018-12-13 17:41:35.439734, 6.2
2018-12-13 17:41:36.341165, 6.2
2018-12-13 17:41:37.242623, 6.2
2018-12-13 17:41:38.144040, 6.3
2018-12-13 17:41:39.045500, 6.2
2018-12-13 17:41:39.946912, 6.3
2018-12-13 17:41:40.848359, 6.4
2018-12-13 17:41:41.749780, 6.2
2018-12-13 17:41:42.651200, 6.3
2018-12-13 17:41:43.552656, 6.2
2018-12-13 17:41:44.454076, 6.2
2018-12-13 17:41:45.355526, 6.3
2018-12-13 17:41:46.256948, 6.2
2018-12-13 17:41:47.158397, 6.2
2018-12-13 17:41:48.059830, 6.3
2018-12-13 17:41:48.961256, 6.2
2018-12-13 17:41:49.862719, 6.3
2018-12-13 17:41:50.764151, 6.2
2018-12-13 17:41:51.665615, 6.2
2018-12-13 17:41:52.567037, 6.3
2018-12-13 17:41:53.468489, 6.3
2018-12-13 17:41:54.369909, 6.2
2018-12-13 17:41:55.271366, 6.3
2018-12-13 17:41:56.172796, 6.2
2018-12-13 17:41:57.074214, 6.2
2018-12-13 17:41:57.975684, 6.3
2018-12-13 17:41:58.877114, 6.2
2018-12-13 17:41:59.778569, 13.1
2018-12-13 17:42:00.680134, 6.2
2018-12-13 17:42:01.581589, 6.3
2018-12-13 17:42:02.483005, 6.2
2018-12-13 17:42:03.384454, 6.2
2018-12-13 17:42:04.285875, 6.3
2018-12-13 17:42:05.187327, 6.2
2018-12-13 17:42:06.088762, 6.2
2018-12-13 17:42:06.990192, 6.3
2018-12-13 17:42:07.891646, 6.2
2018-12-13 17:42:08.793073, 6.3
2018-12-13 17:42:09.694519, 6.2
2018-12-13 17:42:10.595934, 6.4
2018-12-13 17:42:11.497385, 6.3
2018-12-13 17:42:12.398807, 6.2
2018-12-13 17:42:13.300226, 6.2
2018-12-13 17:42:14.201684, 6.2
2018-12-13 17:42:15.103116, 6.2
2018-12-13 17:42:16.004586, 6.3
2018-12-13 17:42:16.906005, 6.2
2018-12-13 17:42:17.807457, 6.2
2018-12-13 17:42:18.708890, 6.2
2018-12-13 17:42:19.610351, 6.3
2018-12-13 17:42:20.511778, 6.2
2018-12-13 17:42:21.413198, 6.2
2018-12-13 17:42:22.314656, 6.2
2018-12-13 17:42:23.216078, 6.2
2018-12-13 17:42:24.117524, 6.3
2018-12-13 17:42:25.018942, 6.2
2018-12-13 17:42:25.920407, 6.2
2018-12-13 17:42:26.821841, 6.2
2018-12-13 17:42:27.723266, 6.2
2018-12-13 17:42:28.624721, 6.2
2018-12-13 17:42:29.526140, 6.3
2018-12-13 17:42:30.427611, 6.2
2018-12-13 17:42:31.329033, 6.2
2018-12-13 17:42:32.230482, 6.3
2018-12-13 17:42:33.131906, 6.2
2018-12-13 17:42:34.033367, 6.2
2018-12-13 17:42:34.934801, 6.2
2018-12-13 17:42:35.836232, 6.2
2018-12-13 17:42:36.737688, 6.3
2018-12-13 17:42:37.639106, 6.2
2018-12-13 17:42:38.540565, 6.3
2018-12-13 17:42:39.441987, 6.2
2018-12-13 17:42:40.343442, 6.2
2018-12-13 17:42:41.244860, 6.4
2018-12-13 17:42:42.146321, 6.2
2018-12-13 17:42:43.047755, 6.2
2018-12-13 17:42:43.949172, 6.2
2018-12-13 17:42:44.850629, 6.3
2018-12-13 17:42:45.752049, 6.2
2018-12-13 17:42:46.653502, 6.2
2018-12-13 17:42:47.554917, 6.2
2018-12-13 17:42:48.456371, 6.2
2018-12-13 17:42:49.357795, 6.3
2018-12-13 17:42:50.259212, 6.2
2018-12-13 17:42:51.160678, 6.2
2018-12-13 17:42:52.062096, 6.3
2018-12-13 17:42:52.963577, 6.2
2018-12-13 17:42:53.864986, 6.2
2018-12-13 17:42:54.766436, 6.3
2018-12-13 17:42:55.667847, 6.2
2018-12-13 17:42:56.569261, 6.3
2018-12-13 17:42:57.470720, 6.2
2018-12-13 17:42:58.372139, 6.3
2018-12-13 17:42:59.273603, 6.2
2018-12-13 17:43:00.175035, 6.2
2018-12-13 17:43:01.076484, 6.2
2018-12-13 17:43:01.977901, 6.3
2018-12-13 17:43:02.879360, 6.2
2018-12-13 17:43:03.780789, 6.3
2018-12-13 17:43:04.682211, 6.2
2018-12-13 17:43:05.583684, 6.3
2018-12-13 17:43:06.485116, 6.2
2018-12-13 17:43:07.386571, 6.2
2018-12-13 17:43:08.288000, 6.2
2018-12-13 17:43:09.189451, 6.2
2018-12-13 17:43:10.090870, 6.3
2018-12-13 17:43:10.992339, 6.3
2018-12-13 17:43:11.893771, 6.2
2018-12-13 17:43:12.795190, 6.3
2018-12-13 17:43:13.696652, 6.2
2018-12-13 17:43:14.598077, 6.2
2018-12-13 17:43:15.499526, 6.3
2018-12-13 17:43:16.400954, 6.2
2018-12-13 17:43:17.302406, 6.2
2018-12-13 17:43:18.203828, 6.2
2018-12-13 17:43:19.105255, 6.3
2018-12-13 17:43:20.006715, 6.2
2018-12-13 17:43:20.908132, 6.2
2018-12-13 17:43:21.809590, 6.2
2018-12-13 17:43:22.711020, 6.2
2018-12-13 17:43:23.612471, 6.3
2018-12-13 17:43:24.513890, 6.2
2018-12-13 17:43:25.415348, 6.3
2018-12-13 17:43:26.316780, 6.2
2018-12-13 17:43:27.218213, 6.2
2018-12-13 17:43:28.119677, 6.3
2018-12-13 17:43:29.021095, 6.2
2018-12-13 17:43:29.922585, 6.3
2018-12-13 17:43:30.824017, 6.2
2018-12-13 17:43:31.725471, 6.3
2018-12-13 17:43:32.626884, 6.2
2018-12-13 17:43:33.528332, 6.2
2018-12-13 17:43:34.429756, 6.3
2018-12-13 17:43:35.331179, 6.3
2018-12-13 17:43:36.232650, 6.2
2018-12-13 17:43:37.134069, 6.3
2018-12-13 17:43:38.035519, 6.2
2018-12-13 17:43:38.936938, 6.2
2018-12-13 17:43:39.838386, 6.2
2018-12-13 17:43:40.739809, 6.4
2018-12-13 17:43:41.641239, 6.2
2018-12-13 17:43:42.542696, 6.3
2018-12-13 17:43:43.444118, 6.2
2018-12-13 17:43:44.345590, 6.3
2018-12-13 17:43:45.247010, 6.2
2018-12-13 17:43:46.148464, 6.2
2018-12-13 17:43:47.049892, 6.2
2018-12-13 17:43:47.951353, 6.3
2018-12-13 17:43:48.852774, 6.2
2018-12-13 17:43:49.754194, 6.3
2018-12-13 17:43:50.655654, 6.2
2018-12-13 17:43:51.557077, 6.3
2018-12-13 17:43:52.458521, 6.2
2018-12-13 17:43:53.359943, 6.2
2018-12-13 17:43:54.261400, 6.2
2018-12-13 17:43:55.162825, 6.3
2018-12-13 17:43:56.064256, 6.2
2018-12-13 17:43:56.965718, 6.3
2018-12-13 17:43:57.867135, 6.2
2018-12-13 17:43:58.768611, 6.2
2018-12-13 17:43:59.670031, 13.1
2018-12-13 17:44:00.571612, 6.2
2018-12-13 17:44:01.473041, 6.2
2018-12-13 17:44:02.374485, 6.2
2018-12-13 17:44:03.275911, 6.3
2018-12-13 17:44:04.177365, 6.2
2018-12-13 17:44:05.078787, 6.3
2018-12-13 17:44:05.980206, 6.2
2018-12-13 17:44:06.881668, 6.2
2018-12-13 17:44:07.783090, 6.3
2018-12-13 17:44:08.684559, 6.2
2018-12-13 17:44:09.585979, 6.2
2018-12-13 17:44:10.487435, 6.4
2018-12-13 17:44:11.388874, 6.2
2018-12-13 17:44:12.290330, 6.2
2018-12-13 17:44:13.191754, 6.2
2018-12-13 17:44:14.093171, 6.2
2018-12-13 17:44:14.994638, 6.2
2018-12-13 17:44:15.896073, 6.2
2018-12-13 17:44:16.797520, 6.2
2018-12-13 17:44:17.698948, 6.3
2018-12-13 17:44:18.600409, 6.2
2018-12-13 17:44:19.501830, 6.2
2018-12-13 17:44:20.403259, 6.3
2018-12-13 17:44:21.304710, 6.2
2018-12-13 17:44:22.206130, 6.2
2018-12-13 17:44:23.107598, 6.2
2018-12-13 17:44:24.009015, 6.2
2018-12-13 17:44:24.910468, 6.3
2018-12-13 17:44:25.811895, 6.2
2018-12-13 17:44:26.713362, 6.2
2018-12-13 17:44:27.614793, 6.2
2018-12-13 17:44:28.516214, 6.2
2018-12-13 17:44:29.417677, 6.3
2018-12-13 17:44:30.319110, 6.2
2018-12-13 17:44:31.220564, 6.2
2018-12-13 17:44:32.121984, 6.2
2018-12-13 17:44:33.023435, 6.2
2018-12-13 17:44:33.924856, 6.2
2018-12-13 17:44:34.826325, 6.2
2018-12-13 17:44:35.727758, 6.2
2018-12-13 17:44:36.629187, 6.2
2018-12-13 17:44:37.530645, 6.2
2018-12-13 17:44:38.432064, 6.3
2018-12-13 17:44:39.333516, 6.2
2018-12-13 17:44:40.234937, 6.2
2018-12-13 17:44:41.136384, 6.4
2018-12-13 17:44:42.037813, 6.3
2018-12-13 17:44:42.939244, 6.2
2018-12-13 17:44:43.840739, 6.3
2018-12-13 17:44:44.742173, 6.2
2018-12-13 17:44:45.643637, 6.2
2018-12-13 17:44:46.545068, 6.3
2018-12-13 17:44:47.446523, 6.2
2018-12-13 17:44:48.347937, 6.3
2018-12-13 17:44:49.249384, 6.2
2018-12-13 17:44:50.150803, 6.2
2018-12-13 17:44:51.052230, 6.3
2018-12-13 17:44:51.953688, 6.2
2018-12-13 17:44:52.855105, 6.2
2018-12-13 17:44:53.756563, 6.3
2018-12-13 17:44:54.657982, 6.2
2018-12-13 17:44:55.559433, 6.2
2018-12-13 17:44:56.460865, 6.3
2018-12-13 17:44:57.362321, 6.2
2018-12-13 17:44:58.263747, 6.2
2018-12-13 17:44:59.165176, 6.2
2018-12-13 17:45:00.066651, 6.3
2018-12-13 17:45:00.968084, 6.2
2018-12-13 17:45:01.869537, 6.2
2018-12-13 17:45:02.770967, 6.2
2018-12-13 17:45:03.672419, 6.3
2018-12-13 17:45:04.573849, 6.2
2018-12-13 17:45:05.475315, 6.3
2018-12-13 17:45:06.376748, 6.2
2018-12-13 17:45:07.278175, 6.2
2018-12-13 17:45:08.179639, 6.2
2018-12-13 17:45:09.081058, 6.3
2018-12-13 17:45:09.982505, 6.2
2018-12-13 17:45:10.883934, 6.4
2018-12-13 17:45:11.785399, 6.2
2018-12-13 17:45:12.686813, 6.3
2018-12-13 17:45:13.588219, 6.2
2018-12-13 17:45:14.489680, 6.2
2018-12-13 17:45:15.391110, 6.2
2018-12-13 17:45:16.292566, 6.2
2018-12-13 17:45:17.193989, 6.3
2018-12-13 17:45:18.095441, 6.2
2018-12-13 17:45:18.996864, 6.2
2018-12-13 17:45:19.898271, 6.2
2018-12-13 17:45:20.799736, 6.3
2018-12-13 17:45:21.701156, 6.2
2018-12-13 17:45:22.602615, 6.3
2018-12-13 17:45:23.504035, 6.2
2018-12-13 17:45:24.405485, 6.3
2018-12-13 17:45:25.306897, 6.2
2018-12-13 17:45:26.208346, 6.2
2018-12-13 17:45:27.109774, 6.3
2018-12-13 17:45:28.011192, 6.3
2018-12-13 17:45:28.912655, 6.2
2018-12-13 17:45:29.814073, 6.3
2018-12-13 17:45:30.715535, 6.2
2018-12-13 17:45:31.616946, 6.2
2018-12-13 17:45:32.518391, 6.3
2018-12-13 17:45:33.419820, 6.2
2018-12-13 17:45:34.321248, 6.2
2018-12-13 17:45:35.222708, 6.3
2018-12-13 17:45:36.124138, 6.2
2018-12-13 17:45:37.025593, 6.3
2018-12-13 17:45:37.927009, 6.2
2018-12-13 17:45:38.828469, 6.3
2018-12-13 17:45:39.729888, 6.2
2018-12-13 17:45:40.631346, 6.4
2018-12-13 17:45:41.532781, 6.3
2018-12-13 17:45:42.434201, 6.2
2018-12-13 17:45:43.335667, 6.2
2018-12-13 17:45:44.237087, 6.2
2018-12-13 17:45:45.138537, 6.3
2018-12-13 17:45:46.039971, 6.2
2018-12-13 17:45:46.941431, 6.3
2018-12-13 17:45:47.842852, 6.2
2018-12-13 17:45:48.744308, 6.2
2018-12-13 17:45:49.645745, 6.2
2018-12-13 17:45:50.547167, 6.3
2018-12-13 17:45:51.448629, 6.2
2018-12-13 17:45:52.350050, 6.2
2018-12-13 17:45:53.251499, 6.2
2018-12-13 17:45:54.152922, 6.3
2018-12-13 17:45:55.054387, 6.2
2018-12-13 17:45:55.955814, 6.3
2018-12-13 17:45:56.857233, 6.2
2018-12-13 17:45:57.758704, 6.3
2018-12-13 17:45:58.660121, 6.2
2018-12-13 17:45:59.561581, 13.4
2018-12-13 17:46:00.463154, 6.2
2018-12-13 17:46:01.364616, 6.2
2018-12-13 17:46:02.266038, 6.3
2018-12-13 17:46:03.167488, 6.2
2018-12-13 17:46:04.068911, 6.3
2018-12-13 17:46:04.970359, 6.2
2018-12-13 17:46:05.871783, 6.2
2018-12-13 17:46:06.773217, 6.3
2018-12-13 17:46:07.674678, 6.2
2018-12-13 17:46:08.576098, 6.2
2018-12-13 17:46:09.477579, 6.3
2018-12-13 17:46:10.379008, 6.2
2018-12-13 17:46:11.280466, 6.4
2018-12-13 17:46:12.181891, 6.2
2018-12-13 17:46:13.083351, 6.2
2018-12-13 17:46:13.984773, 6.3
2018-12-13 17:46:14.886200, 6.2
2018-12-13 17:46:15.787666, 6.2
2018-12-13 17:46:16.689092, 6.3
2018-12-13 17:46:17.590581, 6.2
2018-12-13 17:46:18.491998, 6.3
2018-12-13 17:46:19.393451, 6.2
2018-12-13 17:46:20.294873, 6.2
2018-12-13 17:46:21.196335, 6.2
2018-12-13 17:46:22.097760, 6.3
2018-12-13 17:46:22.999188, 6.2
2018-12-13 17:46:23.900653, 6.2
2018-12-13 17:46:24.802070, 6.2
2018-12-13 17:46:25.703527, 6.2
2018-12-13 17:46:26.604948, 6.2
2018-12-13 17:46:27.506396, 6.3
2018-12-13 17:46:28.407828, 6.2
2018-12-13 17:46:29.309246, 6.3
2018-12-13 17:46:30.210719, 6.2
2018-12-13 17:46:31.112142, 6.3
2018-12-13 17:46:32.013599, 6.2
2018-12-13 17:46:32.915020, 6.2
2018-12-13 17:46:33.816469, 6.2
2018-12-13 17:46:34.717895, 6.2
2018-12-13 17:46:35.619342, 6.3
2018-12-13 17:46:36.520772, 6.2
2018-12-13 17:46:37.422188, 6.3
2018-12-13 17:46:38.323651, 6.2
2018-12-13 17:46:39.225076, 6.2
2018-12-13 17:46:40.126521, 6.2
2018-12-13 17:46:41.027938, 6.4
2018-12-13 17:46:41.929388, 6.3
2018-12-13 17:46:42.830823, 6.2
2018-12-13 17:46:43.732243, 6.2
2018-12-13 17:46:44.633703, 6.2
2018-12-13 17:46:45.535127, 6.3
2018-12-13 17:46:46.436594, 6.2
2018-12-13 17:46:47.338014, 6.2
2018-12-13 17:46:48.239465, 6.2
2018-12-13 17:46:49.140881, 6.2
2018-12-13 17:46:50.042334, 6.2
2018-12-13 17:46:50.943766, 6.2
2018-12-13 17:46:51.845186, 6.2
2018-12-13 17:46:52.746652, 6.2
2018-12-13 17:46:53.648071, 6.2
2018-12-13 17:46:54.549519, 6.3
2018-12-13 17:46:55.450941, 6.2
2018-12-13 17:46:56.352399, 6.2
2018-12-13 17:46:57.253821, 6.2
2018-12-13 17:46:58.155239, 6.3
2018-12-13 17:46:59.056706, 6.2
2018-12-13 17:46:59.958123, 6.2
2018-12-13 17:47:00.859590, 6.2
2018-12-13 17:47:01.761018, 6.2
2018-12-13 17:47:02.662482, 6.3
2018-12-13 17:47:03.563904, 6.2
2018-12-13 17:47:04.465364, 6.2
2018-12-13 17:47:05.366786, 6.2
2018-12-13 17:47:06.268200, 6.3
2018-12-13 17:47:07.169657, 6.2
2018-12-13 17:47:08.071079, 6.2
2018-12-13 17:47:08.972528, 6.2
2018-12-13 17:47:09.873948, 6.2
2018-12-13 17:47:10.775412, 6.4
2018-12-13 17:47:11.676841, 6.2
2018-12-13 17:47:12.578262, 6.3
2018-12-13 17:47:13.479724, 6.2
2018-12-13 17:47:14.381156, 6.2
2018-12-13 17:47:15.282612, 6.3
2018-12-13 17:47:16.184041, 6.2
2018-12-13 17:47:17.085491, 6.2
2018-12-13 17:47:17.986912, 6.2
2018-12-13 17:47:18.888371, 6.3
2018-12-13 17:47:19.789790, 6.2
2018-12-13 17:47:20.691211, 6.2
2018-12-13 17:47:21.592678, 6.2
2018-12-13 17:47:22.494099, 6.3
2018-12-13 17:47:23.395558, 6.2
2018-12-13 17:47:24.296980, 6.2
2018-12-13 17:47:25.198427, 6.3
2018-12-13 17:47:26.099860, 6.2
2018-12-13 17:47:27.001323, 6.2
2018-12-13 17:47:27.902744, 6.3
2018-12-13 17:47:28.804163, 6.2
2018-12-13 17:47:29.705620, 6.3
2018-12-13 17:47:30.607046, 6.2
2018-12-13 17:47:31.508495, 6.2
2018-12-13 17:47:32.409915, 6.2
2018-12-13 17:47:33.311376, 6.2
2018-12-13 17:47:34.212794, 6.3
2018-12-13 17:47:35.114220, 6.2
2018-12-13 17:47:36.015691, 6.2
2018-12-13 17:47:36.917115, 6.2
2018-12-13 17:47:37.818568, 6.3
2018-12-13 17:47:38.719999, 6.2
2018-12-13 17:47:39.621448, 6.2
2018-12-13 17:47:40.522867, 6.4
2018-12-13 17:47:41.424329, 6.3
2018-12-13 17:47:42.325749, 6.2
2018-12-13 17:47:43.227175, 6.2
2018-12-13 17:47:44.128632, 6.2
2018-12-13 17:47:45.030049, 6.3
2018-12-13 17:47:45.931507, 6.2
2018-12-13 17:47:46.832941, 6.2
2018-12-13 17:47:47.734401, 6.2
2018-12-13 17:47:48.635832, 6.2
2018-12-13 17:47:49.537252, 6.2
2018-12-13 17:47:50.438717, 6.2
2018-12-13 17:47:51.340139, 6.2
2018-12-13 17:47:52.241599, 6.3
2018-12-13 17:47:53.143018, 6.2
2018-12-13 17:47:54.044472, 6.2
2018-12-13 17:47:54.945894, 6.2
2018-12-13 17:47:55.847343, 6.2
2018-12-13 17:47:56.748777, 6.3
2018-12-13 17:47:57.650194, 6.2
2018-12-13 17:47:58.551659, 6.2
2018-12-13 17:47:59.453082, 12.3
2018-12-13 17:48:00.354599, 6.7
2018-12-13 17:48:01.256078, 6.3
2018-12-13 17:48:02.157522, 6.2
2018-12-13 17:48:03.058951, 6.2
2018-12-13 17:48:03.960401, 6.2
2018-12-13 17:48:04.861821, 6.2
2018-12-13 17:48:05.763243, 6.3
2018-12-13 17:48:06.664700, 6.2
2018-12-13 17:48:07.566121, 6.3
2018-12-13 17:48:08.467580, 6.2
2018-12-13 17:48:09.369001, 6.2
2018-12-13 17:48:10.270481, 6.3
2018-12-13 17:48:11.171907, 6.3
2018-12-13 17:48:12.073366, 6.2
2018-12-13 17:48:12.974787, 6.3
2018-12-13 17:48:13.876208, 6.2
2018-12-13 17:48:14.777677, 6.2
2018-12-13 17:48:15.679106, 6.3
2018-12-13 17:48:16.580566, 6.2
2018-12-13 17:48:17.481995, 6.2
2018-12-13 17:48:18.383452, 6.3
2018-12-13 17:48:19.284879, 6.2
2018-12-13 17:48:20.186340, 6.2
2018-12-13 17:48:21.087757, 6.2
2018-12-13 17:48:21.989172, 6.2
2018-12-13 17:48:22.890643, 6.3
2018-12-13 17:48:23.792064, 6.2
2018-12-13 17:48:24.693512, 6.2
2018-12-13 17:48:25.594922, 6.2
2018-12-13 17:48:26.496363, 6.3
2018-12-13 17:48:27.397797, 6.2
2018-12-13 17:48:28.299224, 6.2
2018-12-13 17:48:29.200679, 6.2
2018-12-13 17:48:30.102111, 6.2
2018-12-13 17:48:31.003565, 6.3
2018-12-13 17:48:31.904983, 6.2
2018-12-13 17:48:32.806448, 6.2
2018-12-13 17:48:33.707868, 6.2
2018-12-13 17:48:34.609351, 6.3
2018-12-13 17:48:35.510785, 6.2
2018-12-13 17:48:36.412213, 6.2
2018-12-13 17:48:37.313668, 6.2
2018-12-13 17:48:38.215089, 6.3
2018-12-13 17:48:39.116568, 6.2
2018-12-13 17:48:40.017979, 6.2
2018-12-13 17:48:40.919419, 6.4
2018-12-13 17:48:41.820848, 6.2
2018-12-13 17:48:42.722314, 6.3
2018-12-13 17:48:43.623742, 6.2
2018-12-13 17:48:44.525158, 6.2
2018-12-13 17:48:45.426614, 6.2
2018-12-13 17:48:46.328040, 6.3
2018-12-13 17:48:47.229497, 6.2
2018-12-13 17:48:48.130917, 6.2
2018-12-13 17:48:49.032374, 6.2
2018-12-13 17:48:49.933797, 6.2
2018-12-13 17:48:50.835229, 6.3
2018-12-13 17:48:51.736687, 6.2
2018-12-13 17:48:52.638110, 6.3
2018-12-13 17:48:53.539565, 6.2
2018-12-13 17:48:54.440984, 6.2
2018-12-13 17:48:55.342440, 6.2
2018-12-13 17:48:56.243870, 6.3
2018-12-13 17:48:57.145334, 6.2
2018-12-13 17:48:58.046753, 6.2
2018-12-13 17:48:58.948181, 6.3
2018-12-13 17:48:59.849642, 6.2
2018-12-13 17:49:00.751067, 6.2
2018-12-13 17:49:01.652518, 6.2
2018-12-13 17:49:02.553938, 6.2
2018-12-13 17:49:03.455399, 6.2
2018-12-13 17:49:04.356814, 6.2
2018-12-13 17:49:05.258237, 6.3
2018-12-13 17:49:06.159705, 6.2
2018-12-13 17:49:07.061135, 6.3
2018-12-13 17:49:07.962597, 6.2
2018-12-13 17:49:08.864016, 6.2
2018-12-13 17:49:09.765466, 6.3
2018-12-13 17:49:10.666882, 6.4
2018-12-13 17:49:11.568339, 6.3
2018-12-13 17:49:12.469762, 6.2
2018-12-13 17:49:13.371184, 6.3
2018-12-13 17:49:14.272643, 6.2
2018-12-13 17:49:15.174070, 6.2
2018-12-13 17:49:16.075520, 6.3
2018-12-13 17:49:16.976938, 6.2
2018-12-13 17:49:17.878384, 6.2
2018-12-13 17:49:18.779816, 6.2
2018-12-13 17:49:19.681233, 6.2
2018-12-13 17:49:20.582689, 6.2
2018-12-13 17:49:21.484105, 6.3
2018-12-13 17:49:22.385563, 6.2
2018-12-13 17:49:23.286991, 6.2
2018-12-13 17:49:24.188442, 6.3
2018-12-13 17:49:25.089863, 6.2
2018-12-13 17:49:25.991316, 6.2
2018-12-13 17:49:26.892749, 6.2
2018-12-13 17:49:27.794170, 6.2
2018-12-13 17:49:28.695630, 6.3
2018-12-13 17:49:29.597058, 6.2
2018-12-13 17:49:30.498510, 6.2
2018-12-13 17:49:31.399934, 6.2
2018-12-13 17:49:32.301391, 6.3
2018-12-13 17:49:33.202807, 6.2
2018-12-13 17:49:34.104224, 6.3
2018-12-13 17:49:35.005691, 6.2
2018-12-13 17:49:35.907111, 6.2
2018-12-13 17:49:36.808568, 6.3
2018-12-13 17:49:37.709986, 6.2
2018-12-13 17:49:38.611441, 6.2
2018-12-13 17:49:39.512862, 6.2
2018-12-13 17:49:40.414315, 6.4
2018-12-13 17:49:41.315754, 6.2
2018-12-13 17:49:42.217174, 6.2
2018-12-13 17:49:43.118640, 6.2
2018-12-13 17:49:44.020061, 6.2
2018-12-13 17:49:44.921509, 6.3
2018-12-13 17:49:45.822940, 6.2
2018-12-13 17:49:46.724405, 6.3
2018-12-13 17:49:47.625835, 6.2
2018-12-13 17:49:48.527254, 6.2
2018-12-13 17:49:49.428717, 6.2
2018-12-13 17:49:50.330138, 6.3
2018-12-13 17:49:51.231604, 6.2
2018-12-13 17:49:52.133021, 6.2
2018-12-13 17:49:53.034471, 6.2
2018-12-13 17:49:53.935881, 6.2
2018-12-13 17:49:54.837341, 6.3
2018-12-13 17:49:55.738774, 6.2
2018-12-13 17:49:56.640200, 6.3
2018-12-13 17:49:57.541657, 6.2
2018-12-13 17:49:58.443073, 6.2
2018-12-13 17:49:59.344527, 12.3
2018-12-13 17:50:00.246100, 7.2
2018-12-13 17:50:01.147703, 6.5
2018-12-13 17:50:02.049150, 6.2
2018-12-13 17:50:02.950610, 6.2
2018-12-13 17:50:03.852028, 6.2
2018-12-13 17:50:04.753472, 6.2
2018-12-13 17:50:05.654892, 6.2
2018-12-13 17:50:06.556346, 6.3
2018-12-13 17:50:07.457767, 6.2
2018-12-13 17:50:08.359195, 6.2
2018-12-13 17:50:09.260653, 6.2
2018-12-13 17:50:10.162083, 6.2
2018-12-13 17:50:11.063539, 6.4
2018-12-13 17:50:11.964968, 6.2
2018-12-13 17:50:12.866421, 6.2
2018-12-13 17:50:13.767833, 6.2
2018-12-13 17:50:14.669241, 6.2
2018-12-13 17:50:15.570714, 6.3
2018-12-13 17:50:16.472138, 6.2
2018-12-13 17:50:17.373604, 6.2
2018-12-13 17:50:18.275025, 6.2
2018-12-13 17:50:19.176484, 6.3
2018-12-13 17:50:20.077892, 6.2
2018-12-13 17:50:20.979336, 6.2
2018-12-13 17:50:21.880764, 6.2
2018-12-13 17:50:22.782195, 6.2
2018-12-13 17:50:23.683654, 6.2
2018-12-13 17:50:24.585071, 6.2
2018-12-13 17:50:25.486518, 6.3
2018-12-13 17:50:26.387940, 6.2
2018-12-13 17:50:27.289391, 6.2
2018-12-13 17:50:28.190807, 6.2
2018-12-13 17:50:29.092227, 6.3
2018-12-13 17:50:29.993688, 6.2
2018-12-13 17:50:30.895116, 6.2
2018-12-13 17:50:31.796575, 6.2
2018-12-13 17:50:32.697992, 6.3
2018-12-13 17:50:33.599447, 6.2
2018-12-13 17:50:34.500871, 6.2
2018-12-13 17:50:35.402332, 6.2
2018-12-13 17:50:36.303762, 6.2
2018-12-13 17:50:37.205181, 6.3
2018-12-13 17:50:38.106648, 6.2
2018-12-13 17:50:39.008077, 6.3
2018-12-13 17:50:39.909531, 6.2
2018-12-13 17:50:40.810952, 6.4
2018-12-13 17:50:41.712407, 6.3
2018-12-13 17:50:42.613827, 6.2
2018-12-13 17:50:43.515251, 6.3
2018-12-13 17:50:44.416711, 6.2
2018-12-13 17:50:45.318128, 6.2
2018-12-13 17:50:46.219598, 6.3
2018-12-13 17:50:47.121027, 6.2
2018-12-13 17:50:48.022477, 6.2
2018-12-13 17:50:48.923899, 6.2
2018-12-13 17:50:49.825359, 6.3
2018-12-13 17:50:50.726782, 6.2
2018-12-13 17:50:51.628187, 6.2
2018-12-13 17:50:52.529643, 6.3
2018-12-13 17:50:53.431059, 6.2
2018-12-13 17:50:54.332508, 6.2
2018-12-13 17:50:55.233937, 6.2
2018-12-13 17:50:56.135395, 6.2
2018-12-13 17:50:57.036819, 6.2
2018-12-13 17:50:57.938227, 6.3
2018-12-13 17:50:58.839695, 6.2
2018-12-13 17:50:59.741123, 6.3
2018-12-13 17:51:00.642583, 6.2
2018-12-13 17:51:01.544010, 6.3
2018-12-13 17:51:02.445461, 6.2
2018-12-13 17:51:03.346878, 6.2
2018-12-13 17:51:04.248323, 6.2
2018-12-13 17:51:05.149748, 6.2
2018-12-13 17:51:06.051180, 6.3
2018-12-13 17:51:06.952642, 6.2
2018-12-13 17:51:07.854059, 6.3
2018-12-13 17:51:08.755508, 6.2
2018-12-13 17:51:09.656921, 6.2
2018-12-13 17:51:10.558372, 6.4
2018-12-13 17:51:11.459809, 4.2
