time, cpu_percent
2018-12-13 14:47:04.632666, 100.0
2018-12-13 14:47:05.533263, 100.0
2018-12-13 14:47:06.434560, 100.0
2018-12-13 14:47:07.335872, 100.0
2018-12-13 14:47:08.237240, 100.0
2018-12-13 14:47:09.138550, 100.0
2018-12-13 14:47:10.039859, 100.0
2018-12-13 14:47:10.941190, 100.0
2018-12-13 14:47:11.842444, 100.0
2018-12-13 14:47:12.743766, 100.0
2018-12-13 14:47:13.645125, 100.0
2018-12-13 14:47:14.548685, 100.0
2018-12-13 14:47:15.449249, 100.0
2018-12-13 14:47:16.350628, 100.0
2018-12-13 14:47:17.251980, 100.0
2018-12-13 14:47:18.153199, 100.0
2018-12-13 14:47:19.054498, 100.0
2018-12-13 14:47:19.955827, 100.0
2018-12-13 14:47:20.857153, 100.0
2018-12-13 14:47:21.758411, 100.0
2018-12-13 14:47:22.659688, 100.0
2018-12-13 14:47:23.565564, 100.0
2018-12-13 14:47:24.466871, 100.0
2018-12-13 14:47:25.368155, 100.0
2018-12-13 14:47:26.269231, 100.0
2018-12-13 14:47:27.170587, 100.0
2018-12-13 14:47:28.071891, 100.0
2018-12-13 14:47:28.973202, 100.0
2018-12-13 14:47:29.874506, 100.0
2018-12-13 14:47:30.775782, 100.0
2018-12-13 14:47:31.677098, 100.0
2018-12-13 14:47:32.578388, 100.0
2018-12-13 14:47:33.479699, 100.0
2018-12-13 14:47:34.380973, 100.0
2018-12-13 14:47:35.282292, 100.0
2018-12-13 14:47:36.183616, 100.0
2018-12-13 14:47:37.084903, 100.0
2018-12-13 14:47:37.986216, 100.0
2018-12-13 14:47:38.887497, 100.0
2018-12-13 14:47:39.788784, 100.0
2018-12-13 14:47:40.689180, 100.0
2018-12-13 14:47:41.590468, 100.0
2018-12-13 14:47:42.491721, 100.0
2018-12-13 14:47:43.393052, 100.0
2018-12-13 14:47:44.294346, 100.0
2018-12-13 14:47:45.195599, 100.0
2018-12-13 14:47:46.096875, 100.0
2018-12-13 14:47:46.997214, 100.0
2018-12-13 14:47:47.898510, 100.0
2018-12-13 14:47:48.799810, 100.0
2018-12-13 14:47:49.701097, 100.0
2018-12-13 14:47:50.602391, 100.0
2018-12-13 14:47:51.503664, 100.0
2018-12-13 14:47:52.404943, 100.0
2018-12-13 14:47:53.306272, 100.0
2018-12-13 14:47:54.207503, 100.0
2018-12-13 14:47:55.108791, 100.0
2018-12-13 14:47:56.009243, 100.0
2018-12-13 14:47:56.910492, 100.0
2018-12-13 14:47:57.811792, 100.0
2018-12-13 14:47:58.713088, 100.0
2018-12-13 14:47:59.614315, 100.0
2018-12-13 14:48:00.515558, 100.0
2018-12-13 14:48:01.416810, 100.0
2018-12-13 14:48:02.317208, 100.0
2018-12-13 14:48:03.218481, 100.0
2018-12-13 14:48:04.119746, 100.0
2018-12-13 14:48:05.021078, 100.0
2018-12-13 14:48:05.922320, 100.0
2018-12-13 14:48:06.823566, 100.0
2018-12-13 14:48:07.724831, 100.0
2018-12-13 14:48:08.625216, 100.0
2018-12-13 14:48:09.526501, 100.0
2018-12-13 14:48:10.427753, 100.0
2018-12-13 14:48:11.329357, 100.0
2018-12-13 14:48:12.230650, 100.0
2018-12-13 14:48:13.131973, 100.0
2018-12-13 14:48:14.033234, 100.0
2018-12-13 14:48:14.934486, 100.0
2018-12-13 14:48:15.835780, 100.0
2018-12-13 14:48:16.737102, 100.0
2018-12-13 14:48:17.638355, 100.0
2018-12-13 14:48:18.539608, 100.0
2018-12-13 14:48:19.440845, 100.0
2018-12-13 14:48:20.341438, 100.0
2018-12-13 14:48:21.242680, 100.0
2018-12-13 14:48:22.145125, 100.0
2018-12-13 14:48:23.046349, 100.0
2018-12-13 14:48:23.947598, 100.0
2018-12-13 14:48:24.848831, 100.0
2018-12-13 14:48:25.749188, 100.0
2018-12-13 14:48:26.650410, 100.0
2018-12-13 14:48:27.551633, 100.0
2018-12-13 14:48:28.452881, 100.0
2018-12-13 14:48:29.354571, 100.0
2018-12-13 14:48:30.255794, 100.0
2018-12-13 14:48:31.157053, 100.0
2018-12-13 14:48:32.058256, 100.0
2018-12-13 14:48:32.959488, 100.0
2018-12-13 14:48:33.860703, 100.0
2018-12-13 14:48:34.761137, 100.0
2018-12-13 14:48:35.662376, 100.0
2018-12-13 14:48:36.563593, 100.0
2018-12-13 14:48:37.464812, 100.0
2018-12-13 14:48:38.365181, 100.0
2018-12-13 14:48:39.266400, 100.0
2018-12-13 14:48:40.168017, 100.0
2018-12-13 14:48:41.069187, 100.0
2018-12-13 14:48:41.970476, 100.0
2018-12-13 14:48:42.871776, 100.0
2018-12-13 14:48:43.773086, 100.0
2018-12-13 14:48:44.674390, 100.0
2018-12-13 14:48:45.575735, 100.0
2018-12-13 14:48:46.477464, 100.0
2018-12-13 14:48:47.378786, 100.0
2018-12-13 14:48:48.280083, 100.0
2018-12-13 14:48:49.181232, 100.0
2018-12-13 14:48:50.082544, 100.0
2018-12-13 14:48:50.985248, 100.0
2018-12-13 14:48:51.886600, 100.0
2018-12-13 14:48:52.787893, 100.0
2018-12-13 14:48:53.689196, 100.0
2018-12-13 14:48:54.590485, 100.0
2018-12-13 14:48:55.491784, 100.0
2018-12-13 14:48:56.393103, 100.0
2018-12-13 14:48:57.294425, 100.0
2018-12-13 14:48:58.195744, 100.0
2018-12-13 14:48:59.097394, 100.0
2018-12-13 14:48:59.998693, 100.0
2018-12-13 14:49:00.899991, 100.0
2018-12-13 14:49:01.801250, 100.0
2018-12-13 14:49:02.702585, 100.0
2018-12-13 14:49:03.603881, 100.0
2018-12-13 14:49:04.505210, 100.0
2018-12-13 14:49:05.406510, 100.0
2018-12-13 14:49:06.307796, 100.0
2018-12-13 14:49:07.210313, 100.0
2018-12-13 14:49:08.111611, 100.0
2018-12-13 14:49:09.012918, 100.0
2018-12-13 14:49:09.914249, 100.0
2018-12-13 14:49:10.815548, 100.0
2018-12-13 14:49:11.716841, 100.0
2018-12-13 14:49:12.617242, 100.0
2018-12-13 14:49:13.518562, 100.0
2018-12-13 14:49:14.419908, 100.0
2018-12-13 14:49:15.321209, 100.0
2018-12-13 14:49:16.222519, 100.0
2018-12-13 14:49:17.123828, 100.0
2018-12-13 14:49:18.025148, 100.0
2018-12-13 14:49:18.926486, 100.0
2018-12-13 14:49:19.827779, 100.0
2018-12-13 14:49:20.729112, 100.0
2018-12-13 14:49:21.630404, 100.0
2018-12-13 14:49:22.531714, 100.0
2018-12-13 14:49:23.433409, 100.0
2018-12-13 14:49:24.334690, 100.0
2018-12-13 14:49:25.236014, 100.0
2018-12-13 14:49:26.137228, 100.0
2018-12-13 14:49:27.038537, 100.0
2018-12-13 14:49:27.939836, 100.0
2018-12-13 14:49:28.841113, 100.0
2018-12-13 14:49:29.742433, 100.0
2018-12-13 14:49:30.643727, 100.0
2018-12-13 14:49:31.545410, 100.0
2018-12-13 14:49:32.446715, 100.0
2018-12-13 14:49:33.348024, 100.0
2018-12-13 14:49:34.249264, 100.0
2018-12-13 14:49:35.150564, 100.0
2018-12-13 14:49:36.051856, 100.0
2018-12-13 14:49:36.953167, 100.0
2018-12-13 14:49:37.854468, 100.0
2018-12-13 14:49:38.755778, 100.0
2018-12-13 14:49:39.657093, 100.0
2018-12-13 14:49:40.558406, 100.0
2018-12-13 14:49:41.459737, 100.0
2018-12-13 14:49:42.361069, 100.0
2018-12-13 14:49:43.262408, 100.0
2018-12-13 14:49:44.163719, 100.0
2018-12-13 14:49:45.065042, 100.0
2018-12-13 14:49:45.966349, 100.0
2018-12-13 14:49:46.867641, 100.0
2018-12-13 14:49:47.768937, 100.0
2018-12-13 14:49:48.670846, 100.0
2018-12-13 14:49:49.572178, 100.0
2018-12-13 14:49:50.473256, 100.0
2018-12-13 14:49:51.374581, 100.0
2018-12-13 14:49:52.275900, 100.0
2018-12-13 14:49:53.177527, 100.0
2018-12-13 14:49:54.078819, 100.0
2018-12-13 14:49:54.980145, 100.0
2018-12-13 14:49:55.881262, 100.0
2018-12-13 14:49:56.782570, 100.0
2018-12-13 14:49:57.683857, 100.0
2018-12-13 14:49:58.585175, 100.0
2018-12-13 14:49:59.486459, 100.0
2018-12-13 14:50:00.387768, 100.0
2018-12-13 14:50:01.289669, 100.0
2018-12-13 14:50:02.190981, 100.0
2018-12-13 14:50:03.092286, 100.0
2018-12-13 14:50:03.993382, 100.0
2018-12-13 14:50:04.894684, 100.0
2018-12-13 14:50:05.795985, 100.0
2018-12-13 14:50:06.697228, 100.0
2018-12-13 14:50:07.598531, 100.0
2018-12-13 14:50:08.499840, 100.0
2018-12-13 14:50:09.401162, 100.0
2018-12-13 14:50:10.302463, 100.0
2018-12-13 14:50:11.203803, 100.0
2018-12-13 14:50:12.105159, 100.0
2018-12-13 14:50:13.006468, 100.0
2018-12-13 14:50:13.907777, 100.0
2018-12-13 14:50:14.809093, 100.0
2018-12-13 14:50:15.710410, 100.0
2018-12-13 14:50:16.611706, 100.0
2018-12-13 14:50:17.513044, 100.0
2018-12-13 14:50:18.414336, 100.0
2018-12-13 14:50:19.315649, 100.0
2018-12-13 14:50:20.216943, 100.0
2018-12-13 14:50:21.118325, 100.0
2018-12-13 14:50:22.019632, 100.0
2018-12-13 14:50:22.920942, 100.0
2018-12-13 14:50:23.822277, 100.0
2018-12-13 14:50:24.723594, 100.0
2018-12-13 14:50:25.624887, 100.0
2018-12-13 14:50:26.526240, 100.0
2018-12-13 14:50:27.427558, 100.0
2018-12-13 14:50:28.328880, 100.0
2018-12-13 14:50:29.229231, 100.0
2018-12-13 14:50:30.130523, 100.0
2018-12-13 14:50:31.031830, 100.0
2018-12-13 14:50:31.933134, 100.0
2018-12-13 14:50:32.834451, 100.0
2018-12-13 14:50:33.735738, 100.0
2018-12-13 14:50:34.637116, 100.0
2018-12-13 14:50:35.538481, 100.0
2018-12-13 14:50:36.439791, 100.0
2018-12-13 14:50:37.341112, 100.0
2018-12-13 14:50:38.242413, 100.0
2018-12-13 14:50:39.143744, 100.0
2018-12-13 14:50:40.045074, 100.0
2018-12-13 14:50:40.946370, 100.0
2018-12-13 14:50:41.848121, 100.0
2018-12-13 14:50:42.749208, 100.0
2018-12-13 14:50:43.650220, 100.0
2018-12-13 14:50:44.551518, 100.0
2018-12-13 14:50:45.452818, 100.0
2018-12-13 14:50:46.353249, 100.0
2018-12-13 14:50:47.254563, 100.0
2018-12-13 14:50:48.155842, 100.0
2018-12-13 14:50:49.057149, 100.0
2018-12-13 14:50:49.958464, 100.0
2018-12-13 14:50:50.859758, 100.0
2018-12-13 14:50:51.761133, 100.0
2018-12-13 14:50:52.662430, 100.0
2018-12-13 14:50:53.563670, 100.0
2018-12-13 14:50:54.464979, 100.0
2018-12-13 14:50:55.366326, 100.0
2018-12-13 14:50:56.268418, 100.0
2018-12-13 14:50:57.169261, 100.0
2018-12-13 14:50:58.070599, 100.0
2018-12-13 14:50:58.971967, 100.0
2018-12-13 14:50:59.873347, 100.0
2018-12-13 14:51:00.774651, 100.0
2018-12-13 14:51:01.675957, 100.0
2018-12-13 14:51:02.577210, 100.0
2018-12-13 14:51:03.478494, 100.0
2018-12-13 14:51:04.379803, 100.0
2018-12-13 14:51:05.281204, 100.0
2018-12-13 14:51:06.182540, 100.0
2018-12-13 14:51:07.083830, 100.0
2018-12-13 14:51:07.985147, 100.0
2018-12-13 14:51:08.886450, 100.0
2018-12-13 14:51:09.787742, 100.0
2018-12-13 14:51:10.689068, 100.0
2018-12-13 14:51:11.590393, 100.0
2018-12-13 14:51:12.491731, 100.0
2018-12-13 14:51:13.393056, 100.0
2018-12-13 14:51:14.294596, 100.0
2018-12-13 14:51:15.195894, 100.0
2018-12-13 14:51:16.097182, 100.0
2018-12-13 14:51:16.998508, 100.0
2018-12-13 14:51:17.899830, 100.0
2018-12-13 14:51:18.801144, 100.0
2018-12-13 14:51:19.702435, 100.0
2018-12-13 14:51:20.603736, 100.0
2018-12-13 14:51:21.505177, 100.0
2018-12-13 14:51:22.406473, 100.0
2018-12-13 14:51:23.307795, 100.0
2018-12-13 14:51:24.209107, 100.0
2018-12-13 14:51:25.110410, 100.0
2018-12-13 14:51:26.011706, 100.0
2018-12-13 14:51:26.913029, 100.0
2018-12-13 14:51:27.814328, 100.0
2018-12-13 14:51:28.715637, 100.0
2018-12-13 14:51:29.616936, 100.0
2018-12-13 14:51:30.518257, 100.0
2018-12-13 14:51:31.419547, 100.0
2018-12-13 14:51:32.320838, 100.0
2018-12-13 14:51:33.221194, 100.0
2018-12-13 14:51:34.122498, 100.0
2018-12-13 14:51:35.023789, 100.0
2018-12-13 14:51:35.925105, 100.0
2018-12-13 14:51:36.826393, 100.0
2018-12-13 14:51:37.727783, 100.0
2018-12-13 14:51:38.629137, 100.0
2018-12-13 14:51:39.530457, 100.0
2018-12-13 14:51:40.431756, 100.0
2018-12-13 14:51:41.333085, 100.0
2018-12-13 14:51:42.234394, 100.0
2018-12-13 14:51:43.135693, 100.0
2018-12-13 14:51:44.037032, 100.0
2018-12-13 14:51:44.938357, 100.0
2018-12-13 14:51:45.839643, 100.0
2018-12-13 14:51:46.740979, 100.0
2018-12-13 14:51:47.642323, 100.0
2018-12-13 14:51:48.543665, 100.0
2018-12-13 14:51:49.444963, 100.0
2018-12-13 14:51:50.346300, 100.0
2018-12-13 14:51:51.247590, 100.0
2018-12-13 14:51:52.148897, 100.0
2018-12-13 14:51:53.050220, 100.0
2018-12-13 14:51:53.951528, 100.0
2018-12-13 14:51:54.852831, 100.0
2018-12-13 14:51:55.753235, 100.0
2018-12-13 14:51:56.654558, 100.0
2018-12-13 14:51:57.555862, 100.0
2018-12-13 14:51:58.457184, 100.0
2018-12-13 14:51:59.358481, 100.0
2018-12-13 14:52:00.259806, 100.0
2018-12-13 14:52:01.161162, 100.0
2018-12-13 14:52:02.062492, 100.0
2018-12-13 14:52:02.963785, 100.0
2018-12-13 14:52:03.865093, 100.0
2018-12-13 14:52:04.766387, 100.0
2018-12-13 14:52:05.667685, 100.0
2018-12-13 14:52:06.569019, 100.0
2018-12-13 14:52:07.470319, 100.0
2018-12-13 14:52:08.371619, 100.0
2018-12-13 14:52:09.272932, 100.0
2018-12-13 14:52:10.174238, 100.0
2018-12-13 14:52:11.075543, 100.0
2018-12-13 14:52:11.976858, 100.0
2018-12-13 14:52:12.877277, 100.0
2018-12-13 14:52:13.778602, 100.0
2018-12-13 14:52:14.679921, 100.0
2018-12-13 14:52:15.581219, 100.0
2018-12-13 14:52:16.482498, 100.0
2018-12-13 14:52:17.383809, 100.0
2018-12-13 14:52:18.285097, 100.0
2018-12-13 14:52:19.186377, 100.0
2018-12-13 14:52:20.087667, 100.0
2018-12-13 14:52:20.988961, 100.0
2018-12-13 14:52:21.890291, 100.0
2018-12-13 14:52:22.791596, 100.0
2018-12-13 14:52:23.692891, 100.0
2018-12-13 14:52:24.594249, 100.0
2018-12-13 14:52:25.495540, 100.0
2018-12-13 14:52:26.396814, 100.0
2018-12-13 14:52:27.297226, 100.0
2018-12-13 14:52:28.198525, 100.0
2018-12-13 14:52:29.099814, 100.0
2018-12-13 14:52:30.001139, 100.0
2018-12-13 14:52:30.902412, 100.0
2018-12-13 14:52:31.803729, 100.0
2018-12-13 14:52:32.705079, 100.0
2018-12-13 14:52:33.606407, 100.0
2018-12-13 14:52:34.507699, 100.0
2018-12-13 14:52:35.409021, 100.0
2018-12-13 14:52:36.310319, 100.0
2018-12-13 14:52:37.211632, 100.0
2018-12-13 14:52:38.112918, 100.0
2018-12-13 14:52:39.014242, 100.0
2018-12-13 14:52:39.915540, 100.0
2018-12-13 14:52:40.816837, 100.0
2018-12-13 14:52:41.717251, 100.0
2018-12-13 14:52:42.618540, 100.0
2018-12-13 14:52:43.519835, 100.0
2018-12-13 14:52:44.421159, 100.0
2018-12-13 14:52:45.322477, 100.0
2018-12-13 14:52:46.223776, 100.0
2018-12-13 14:52:47.125107, 100.0
2018-12-13 14:52:48.026415, 100.0
2018-12-13 14:52:48.927704, 100.0
2018-12-13 14:52:49.829021, 100.0
2018-12-13 14:52:50.730316, 100.0
2018-12-13 14:52:51.631646, 100.0
2018-12-13 14:52:52.532961, 100.0
2018-12-13 14:52:53.434302, 100.0
2018-12-13 14:52:54.335611, 100.0
2018-12-13 14:52:55.236943, 100.0
2018-12-13 14:52:56.138306, 100.0
2018-12-13 14:52:57.039630, 100.0
2018-12-13 14:52:57.945996, 100.0
2018-12-13 14:52:58.847287, 100.0
2018-12-13 14:52:59.748583, 100.0
2018-12-13 14:53:00.649231, 100.0
2018-12-13 14:53:01.550524, 100.0
2018-12-13 14:53:02.451833, 100.0
2018-12-13 14:53:03.353148, 100.0
2018-12-13 14:53:04.254491, 100.0
2018-12-13 14:53:05.155788, 100.0
2018-12-13 14:53:06.057120, 100.0
2018-12-13 14:53:06.958439, 100.0
2018-12-13 14:53:07.859744, 100.0
2018-12-13 14:53:08.761068, 100.0
2018-12-13 14:53:09.662384, 100.0
2018-12-13 14:53:10.563698, 100.0
2018-12-13 14:53:11.465023, 100.0
2018-12-13 14:53:12.366311, 100.0
2018-12-13 14:53:13.267638, 100.0
2018-12-13 14:53:14.168937, 100.0
2018-12-13 14:53:15.070293, 100.0
2018-12-13 14:53:15.971612, 100.0
2018-12-13 14:53:16.872922, 100.0
2018-12-13 14:53:17.774236, 100.0
2018-12-13 14:53:18.675537, 100.0
2018-12-13 14:53:19.576831, 100.0
2018-12-13 14:53:20.477255, 100.0
2018-12-13 14:53:21.378555, 100.0
2018-12-13 14:53:22.279862, 100.0
2018-12-13 14:53:23.181185, 100.0
2018-12-13 14:53:24.082487, 100.0
2018-12-13 14:53:24.983779, 100.0
2018-12-13 14:53:25.885085, 100.0
2018-12-13 14:53:26.786347, 100.0
2018-12-13 14:53:27.687635, 100.0
2018-12-13 14:53:28.588957, 100.0
2018-12-13 14:53:29.490294, 100.0
2018-12-13 14:53:30.391580, 100.0
2018-12-13 14:53:31.292895, 100.0
2018-12-13 14:53:32.194233, 100.0
2018-12-13 14:53:33.095554, 100.0
2018-12-13 14:53:33.996879, 100.0
2018-12-13 14:53:34.897245, 100.0
2018-12-13 14:53:35.798550, 100.0
2018-12-13 14:53:36.699845, 100.0
2018-12-13 14:53:37.601183, 100.0
2018-12-13 14:53:38.502477, 100.0
2018-12-13 14:53:39.403768, 100.0
2018-12-13 14:53:40.305122, 100.0
2018-12-13 14:53:41.206415, 100.0
2018-12-13 14:53:42.107733, 100.0
2018-12-13 14:53:43.009061, 100.0
2018-12-13 14:53:43.910360, 100.0
2018-12-13 14:53:44.811648, 100.0
2018-12-13 14:53:45.712952, 100.0
2018-12-13 14:53:46.614277, 100.0
2018-12-13 14:53:47.515573, 100.0
2018-12-13 14:53:48.416886, 100.0
2018-12-13 14:53:49.318216, 100.0
2018-12-13 14:53:50.219505, 100.0
2018-12-13 14:53:51.120794, 100.0
2018-12-13 14:53:52.021234, 100.0
2018-12-13 14:53:52.922551, 100.0
2018-12-13 14:53:53.823877, 100.0
2018-12-13 14:53:54.725211, 100.0
2018-12-13 14:53:55.626514, 100.0
2018-12-13 14:53:56.527844, 100.0
2018-12-13 14:53:57.429175, 100.0
2018-12-13 14:53:58.330482, 100.0
2018-12-13 14:53:59.231759, 100.0
2018-12-13 14:54:00.133076, 100.0
2018-12-13 14:54:01.034373, 100.0
2018-12-13 14:54:01.935694, 100.0
2018-12-13 14:54:02.837027, 100.0
2018-12-13 14:54:03.738315, 100.0
2018-12-13 14:54:04.639605, 100.0
2018-12-13 14:54:05.540893, 100.0
2018-12-13 14:54:06.442233, 100.0
2018-12-13 14:54:07.343554, 100.0
2018-12-13 14:54:08.244881, 100.0
2018-12-13 14:54:09.145237, 100.0
2018-12-13 14:54:10.046540, 100.0
2018-12-13 14:54:10.947854, 100.0
2018-12-13 14:54:11.849177, 100.0
2018-12-13 14:54:12.750493, 100.0
2018-12-13 14:54:13.651797, 100.0
2018-12-13 14:54:14.553127, 100.0
2018-12-13 14:54:15.454453, 100.0
2018-12-13 14:54:16.355743, 100.0
2018-12-13 14:54:17.257061, 100.0
2018-12-13 14:54:18.158334, 100.0
2018-12-13 14:54:19.060177, 100.0
2018-12-13 14:54:19.961262, 100.0
2018-12-13 14:54:20.862586, 100.0
2018-12-13 14:54:21.763895, 100.0
2018-12-13 14:54:22.665209, 100.0
2018-12-13 14:54:23.566536, 100.0
2018-12-13 14:54:24.467828, 100.0
2018-12-13 14:54:25.369154, 100.0
2018-12-13 14:54:26.270451, 100.0
2018-12-13 14:54:27.171744, 100.0
2018-12-13 14:54:28.073060, 100.0
2018-12-13 14:54:28.974387, 100.0
2018-12-13 14:54:29.875684, 100.0
2018-12-13 14:54:30.776934, 100.0
2018-12-13 14:54:31.678279, 100.0
2018-12-13 14:54:32.579588, 100.0
2018-12-13 14:54:33.480884, 100.0
2018-12-13 14:54:34.381246, 100.0
2018-12-13 14:54:35.282515, 100.0
2018-12-13 14:54:36.183815, 100.0
2018-12-13 14:54:37.085119, 100.0
2018-12-13 14:54:37.986402, 100.0
2018-12-13 14:54:38.887694, 100.0
2018-12-13 14:54:39.789027, 100.0
2018-12-13 14:54:40.690330, 100.0
2018-12-13 14:54:41.591618, 100.0
2018-12-13 14:54:42.492903, 100.0
2018-12-13 14:54:43.394216, 100.0
2018-12-13 14:54:44.295502, 100.0
2018-12-13 14:54:45.196815, 100.0
2018-12-13 14:54:46.097223, 100.0
2018-12-13 14:54:46.998548, 100.0
2018-12-13 14:54:47.899868, 100.0
2018-12-13 14:54:48.801202, 100.0
2018-12-13 14:54:49.702519, 100.0
2018-12-13 14:54:50.603832, 100.0
2018-12-13 14:54:51.505141, 100.0
2018-12-13 14:54:52.406460, 100.0
2018-12-13 14:54:53.307751, 100.0
2018-12-13 14:54:54.209090, 100.0
2018-12-13 14:54:55.110407, 100.0
2018-12-13 14:54:56.011697, 100.0
2018-12-13 14:54:56.913030, 100.0
2018-12-13 14:54:57.814339, 100.0
2018-12-13 14:54:58.715628, 100.0
2018-12-13 14:54:59.616921, 100.0
2018-12-13 14:55:00.518260, 100.0
2018-12-13 14:55:01.419568, 100.0
2018-12-13 14:55:02.320884, 100.0
2018-12-13 14:55:03.221235, 100.0
2018-12-13 14:55:04.122568, 100.0
2018-12-13 14:55:05.023876, 100.0
2018-12-13 14:55:05.925187, 100.0
2018-12-13 14:55:06.826492, 100.0
2018-12-13 14:55:07.727816, 100.0
2018-12-13 14:55:08.629165, 100.0
2018-12-13 14:55:09.530492, 100.0
2018-12-13 14:55:10.431824, 100.0
2018-12-13 14:55:11.333130, 100.0
2018-12-13 14:55:12.234427, 100.0
2018-12-13 14:55:13.135718, 100.0
2018-12-13 14:55:14.037056, 100.0
2018-12-13 14:55:14.938363, 100.0
2018-12-13 14:55:15.839648, 100.0
2018-12-13 14:55:16.740969, 100.0
2018-12-13 14:55:17.642326, 100.0
2018-12-13 14:55:18.543663, 100.0
2018-12-13 14:55:19.444953, 100.0
2018-12-13 14:55:20.346293, 100.0
2018-12-13 14:55:21.247608, 100.0
2018-12-13 14:55:22.148905, 100.0
2018-12-13 14:55:23.050264, 100.0
2018-12-13 14:55:23.951590, 100.0
2018-12-13 14:55:24.852932, 100.0
2018-12-13 14:55:25.754280, 100.0
2018-12-13 14:55:26.655583, 100.0
2018-12-13 14:55:27.556877, 100.0
2018-12-13 14:55:28.457243, 100.0
2018-12-13 14:55:29.358508, 100.0
2018-12-13 14:55:30.259801, 100.0
2018-12-13 14:55:31.161109, 100.0
2018-12-13 14:55:32.062384, 100.0
2018-12-13 14:55:32.963687, 100.0
2018-12-13 14:55:33.865067, 100.0
2018-12-13 14:55:34.766386, 100.0
2018-12-13 14:55:35.667712, 100.0
2018-12-13 14:55:36.569052, 100.0
2018-12-13 14:55:37.470340, 100.0
2018-12-13 14:55:38.371635, 100.0
2018-12-13 14:55:39.272927, 100.0
2018-12-13 14:55:40.174274, 100.0
2018-12-13 14:55:41.075573, 100.0
2018-12-13 14:55:41.976866, 100.0
2018-12-13 14:55:42.877238, 100.0
2018-12-13 14:55:43.778529, 100.0
2018-12-13 14:55:44.679828, 100.0
2018-12-13 14:55:45.581148, 100.0
2018-12-13 14:55:46.482456, 100.0
2018-12-13 14:55:47.383729, 100.0
2018-12-13 14:55:48.285022, 100.0
2018-12-13 14:55:49.186328, 100.0
2018-12-13 14:55:50.087624, 100.0
2018-12-13 14:55:50.988928, 100.0
2018-12-13 14:55:51.890243, 100.0
2018-12-13 14:55:52.791536, 100.0
2018-12-13 14:55:53.692834, 100.0
2018-12-13 14:55:54.593227, 100.0
2018-12-13 14:55:55.494528, 100.0
2018-12-13 14:55:56.395822, 100.0
2018-12-13 14:55:57.297149, 100.0
2018-12-13 14:55:58.198449, 100.0
2018-12-13 14:55:59.099738, 100.0
2018-12-13 14:56:00.001053, 100.0
2018-12-13 14:56:00.902355, 100.0
2018-12-13 14:56:01.803661, 100.0
2018-12-13 14:56:02.704956, 100.0
2018-12-13 14:56:03.606329, 100.0
2018-12-13 14:56:04.507643, 100.0
2018-12-13 14:56:05.409030, 100.0
2018-12-13 14:56:06.310352, 100.0
2018-12-13 14:56:07.211662, 100.0
2018-12-13 14:56:08.113027, 100.0
2018-12-13 14:56:09.014345, 100.0
2018-12-13 14:56:09.915642, 100.0
2018-12-13 14:56:10.816941, 100.0
2018-12-13 14:56:11.718282, 100.0
2018-12-13 14:56:12.619588, 100.0
2018-12-13 14:56:13.520894, 100.0
2018-12-13 14:56:14.422206, 100.0
2018-12-13 14:56:15.323521, 100.0
2018-12-13 14:56:16.224828, 100.0
2018-12-13 14:56:17.125265, 100.0
2018-12-13 14:56:18.026558, 100.0
2018-12-13 14:56:18.927851, 100.0
2018-12-13 14:56:19.829190, 100.0
2018-12-13 14:56:20.730514, 100.0
2018-12-13 14:56:21.631822, 100.0
2018-12-13 14:56:22.533129, 100.0
2018-12-13 14:56:23.434429, 100.0
2018-12-13 14:56:24.335737, 100.0
2018-12-13 14:56:25.237058, 100.0
2018-12-13 14:56:26.138363, 100.0
2018-12-13 14:56:27.039670, 100.0
2018-12-13 14:56:27.940971, 100.0
2018-12-13 14:56:28.842308, 100.0
2018-12-13 14:56:29.743586, 100.0
2018-12-13 14:56:30.644881, 100.0
2018-12-13 14:56:31.546230, 100.0
2018-12-13 14:56:32.447562, 100.0
2018-12-13 14:56:33.348890, 100.0
2018-12-13 14:56:34.250222, 100.0
2018-12-13 14:56:35.151537, 100.0
2018-12-13 14:56:36.052835, 100.0
2018-12-13 14:56:36.953239, 100.0
2018-12-13 14:56:37.854528, 100.0
2018-12-13 14:56:38.755815, 100.0
2018-12-13 14:56:39.657122, 100.0
2018-12-13 14:56:40.558413, 100.0
2018-12-13 14:56:41.459705, 100.0
2018-12-13 14:56:42.361043, 100.0
2018-12-13 14:56:43.262368, 100.0
2018-12-13 14:56:44.163680, 100.0
2018-12-13 14:56:45.064974, 100.0
2018-12-13 14:56:45.966324, 100.0
2018-12-13 14:56:46.867661, 100.0
2018-12-13 14:56:47.768951, 100.0
2018-12-13 14:56:48.670303, 100.0
2018-12-13 14:56:49.571614, 100.0
2018-12-13 14:56:50.472933, 100.0
2018-12-13 14:56:51.374283, 100.0
2018-12-13 14:56:52.275597, 100.0
2018-12-13 14:56:53.176905, 100.0
2018-12-13 14:56:54.078232, 100.0
2018-12-13 14:56:54.979523, 100.0
2018-12-13 14:56:55.880837, 100.0
2018-12-13 14:56:56.781287, 100.0
2018-12-13 14:56:57.682597, 100.0
2018-12-13 14:56:58.583883, 100.0
2018-12-13 14:56:59.485193, 100.0
2018-12-13 14:57:00.386509, 100.0
2018-12-13 14:57:01.287807, 100.0
2018-12-13 14:57:02.189147, 100.0
2018-12-13 14:57:03.090416, 100.0
2018-12-13 14:57:03.991713, 100.0
2018-12-13 14:57:04.893038, 100.0
2018-12-13 14:57:05.794335, 100.0
2018-12-13 14:57:06.695628, 100.0
2018-12-13 14:57:07.596928, 100.0
2018-12-13 14:57:08.498259, 100.0
2018-12-13 14:57:09.399570, 100.0
2018-12-13 14:57:10.300881, 100.0
2018-12-13 14:57:11.201242, 100.0
2018-12-13 14:57:12.102527, 100.0
2018-12-13 14:57:13.003811, 100.0
2018-12-13 14:57:13.905126, 100.0
2018-12-13 14:57:14.806419, 100.0
2018-12-13 14:57:15.707738, 100.0
2018-12-13 14:57:16.609068, 100.0
2018-12-13 14:57:17.510370, 100.0
2018-12-13 14:57:18.411663, 100.0
2018-12-13 14:57:19.312952, 100.0
2018-12-13 14:57:20.214283, 100.0
2018-12-13 14:57:21.115585, 100.0
2018-12-13 14:57:22.016901, 100.0
2018-12-13 14:57:22.918250, 100.0
2018-12-13 14:57:23.819529, 100.0
2018-12-13 14:57:24.720834, 100.0
2018-12-13 14:57:25.621252, 100.0
2018-12-13 14:57:26.522583, 100.0
2018-12-13 14:57:27.423885, 100.0
2018-12-13 14:57:28.325195, 100.0
2018-12-13 14:57:29.226473, 100.0
2018-12-13 14:57:30.127785, 100.0
2018-12-13 14:57:31.029115, 100.0
2018-12-13 14:57:31.930439, 100.0
2018-12-13 14:57:32.831742, 100.0
2018-12-13 14:57:33.733064, 100.0
2018-12-13 14:57:34.634377, 100.0
2018-12-13 14:57:35.535694, 100.0
2018-12-13 14:57:36.436974, 100.0
2018-12-13 14:57:37.338332, 100.0
2018-12-13 14:57:38.239653, 100.0
2018-12-13 14:57:39.141028, 100.0
2018-12-13 14:57:40.042335, 100.0
2018-12-13 14:57:40.943627, 100.0
2018-12-13 14:57:41.844943, 100.0
2018-12-13 14:57:42.746273, 100.0
2018-12-13 14:57:43.647569, 100.0
2018-12-13 14:57:44.548858, 100.0
2018-12-13 14:57:45.449238, 100.0
2018-12-13 14:57:46.350530, 100.0
2018-12-13 14:57:47.251820, 100.0
2018-12-13 14:57:48.153167, 100.0
2018-12-13 14:57:49.054444, 100.0
2018-12-13 14:57:49.955763, 100.0
2018-12-13 14:57:50.857104, 100.0
2018-12-13 14:57:51.758403, 100.0
2018-12-13 14:57:52.659718, 100.0
2018-12-13 14:57:53.561047, 100.0
2018-12-13 14:57:54.462332, 100.0
2018-12-13 14:57:55.363613, 100.0
2018-12-13 14:57:56.264975, 100.0
2018-12-13 14:57:57.166298, 100.0
2018-12-13 14:57:58.067594, 100.0
2018-12-13 14:57:58.968870, 100.0
2018-12-13 14:57:59.869210, 100.0
2018-12-13 14:58:00.770488, 100.0
2018-12-13 14:58:01.671774, 100.0
2018-12-13 14:58:02.573117, 100.0
2018-12-13 14:58:03.474420, 100.0
2018-12-13 14:58:04.375724, 100.0
2018-12-13 14:58:05.277044, 100.0
2018-12-13 14:58:06.178364, 100.0
2018-12-13 14:58:07.079661, 100.0
2018-12-13 14:58:07.980951, 100.0
2018-12-13 14:58:08.882286, 100.0
2018-12-13 14:58:09.783547, 100.0
2018-12-13 14:58:10.684861, 100.0
2018-12-13 14:58:11.585238, 100.0
2018-12-13 14:58:12.486527, 100.0
2018-12-13 14:58:13.387809, 100.0
2018-12-13 14:58:14.289117, 100.0
2018-12-13 14:58:15.190403, 100.0
2018-12-13 14:58:16.091723, 100.0
2018-12-13 14:58:16.993036, 100.0
2018-12-13 14:58:17.894342, 100.0
2018-12-13 14:58:18.795648, 100.0
2018-12-13 14:58:19.696945, 100.0
2018-12-13 14:58:20.598271, 100.0
2018-12-13 14:58:21.499577, 100.0
2018-12-13 14:58:22.400889, 100.0
2018-12-13 14:58:23.301258, 100.0
2018-12-13 14:58:24.202561, 100.0
2018-12-13 14:58:25.103862, 100.0
2018-12-13 14:58:26.005183, 100.0
2018-12-13 14:58:26.906472, 100.0
2018-12-13 14:58:27.807787, 100.0
2018-12-13 14:58:28.708433, 100.0
2018-12-13 14:58:29.609245, 100.0
2018-12-13 14:58:30.510539, 100.0
2018-12-13 14:58:31.411848, 100.0
2018-12-13 14:58:32.313161, 100.0
2018-12-13 14:58:33.214446, 100.0
2018-12-13 14:58:34.115755, 100.0
2018-12-13 14:58:35.017063, 100.0
2018-12-13 14:58:35.918368, 100.0
2018-12-13 14:58:36.819698, 100.0
2018-12-13 14:58:37.720973, 100.0
2018-12-13 14:58:38.622276, 100.0
2018-12-13 14:58:39.523582, 100.0
2018-12-13 14:58:40.424863, 100.0
2018-12-13 14:58:41.326217, 100.0
2018-12-13 14:58:42.227500, 100.0
2018-12-13 14:58:43.128765, 100.0
2018-12-13 14:58:44.029235, 100.0
2018-12-13 14:58:44.930546, 100.0
2018-12-13 14:58:45.831848, 100.0
2018-12-13 14:58:46.733182, 100.0
2018-12-13 14:58:47.634479, 100.0
2018-12-13 14:58:48.535805, 100.0
2018-12-13 14:58:49.437134, 100.0
2018-12-13 14:58:50.338421, 100.0
2018-12-13 14:58:51.239730, 100.0
2018-12-13 14:58:52.141040, 100.0
2018-12-13 14:58:53.042352, 100.0
2018-12-13 14:58:53.943646, 100.0
2018-12-13 14:58:54.844947, 100.0
2018-12-13 14:58:55.746262, 100.0
2018-12-13 14:58:56.647566, 100.0
2018-12-13 14:58:57.548869, 100.0
2018-12-13 14:58:58.450193, 100.0
2018-12-13 14:58:59.351474, 100.0
2018-12-13 14:59:00.252811, 100.0
2018-12-13 14:59:01.153235, 100.0
2018-12-13 14:59:02.054556, 100.0
2018-12-13 14:59:02.955862, 100.0
2018-12-13 14:59:03.857192, 100.0
2018-12-13 14:59:04.758488, 100.0
2018-12-13 14:59:05.659777, 100.0
2018-12-13 14:59:06.561096, 100.0
2018-12-13 14:59:07.462407, 100.0
2018-12-13 14:59:08.363711, 100.0
2018-12-13 14:59:09.265048, 100.0
2018-12-13 14:59:10.166325, 100.0
2018-12-13 14:59:11.067616, 100.0
2018-12-13 14:59:11.968933, 100.0
2018-12-13 14:59:12.870271, 100.0
2018-12-13 14:59:13.771563, 100.0
2018-12-13 14:59:14.672863, 100.0
2018-12-13 14:59:15.573254, 100.0
2018-12-13 14:59:16.474553, 100.0
2018-12-13 14:59:17.375883, 100.0
2018-12-13 14:59:18.277181, 100.0
2018-12-13 14:59:19.178468, 100.0
2018-12-13 14:59:20.079814, 100.0
2018-12-13 14:59:20.981113, 100.0
2018-12-13 14:59:21.882405, 100.0
2018-12-13 14:59:22.783693, 100.0
2018-12-13 14:59:23.684978, 100.0
2018-12-13 14:59:24.586333, 100.0
2018-12-13 14:59:25.487668, 100.0
2018-12-13 14:59:26.388975, 100.0
2018-12-13 14:59:27.290338, 100.0
2018-12-13 14:59:28.191645, 100.0
2018-12-13 14:59:29.092982, 100.0
2018-12-13 14:59:29.994317, 100.0
2018-12-13 14:59:30.895651, 100.0
2018-12-13 14:59:31.796966, 100.0
2018-12-13 14:59:32.698310, 100.0
2018-12-13 14:59:33.599624, 100.0
2018-12-13 14:59:34.500920, 100.0
2018-12-13 14:59:35.402272, 100.0
2018-12-13 14:59:36.303590, 100.0
2018-12-13 14:59:37.204863, 100.0
2018-12-13 14:59:38.105226, 100.0
2018-12-13 14:59:39.006520, 100.0
2018-12-13 14:59:39.907804, 100.0
2018-12-13 14:59:40.809158, 100.0
2018-12-13 14:59:41.710478, 100.0
2018-12-13 14:59:42.611800, 100.0
2018-12-13 14:59:43.513135, 100.0
2018-12-13 14:59:44.414447, 100.0
2018-12-13 14:59:45.315737, 100.0
2018-12-13 14:59:46.217071, 100.0
2018-12-13 14:59:47.118309, 100.0
2018-12-13 14:59:48.019606, 100.0
2018-12-13 14:59:48.920898, 100.0
2018-12-13 14:59:49.822230, 100.0
2018-12-13 14:59:50.723526, 100.0
2018-12-13 14:59:51.624838, 100.0
2018-12-13 14:59:52.525259, 100.0
2018-12-13 14:59:53.426553, 100.0
2018-12-13 14:59:54.327850, 100.0
2018-12-13 14:59:55.229196, 100.0
2018-12-13 14:59:56.130536, 100.0
2018-12-13 14:59:57.031855, 100.0
2018-12-13 14:59:57.933202, 100.0
2018-12-13 14:59:58.834502, 100.0
2018-12-13 14:59:59.735780, 100.0
2018-12-13 15:00:00.637094, 100.0
2018-12-13 15:00:01.538383, 100.0
2018-12-13 15:00:02.439685, 100.0
2018-12-13 15:00:03.341010, 100.0
2018-12-13 15:00:04.242314, 100.0
2018-12-13 15:00:05.143600, 100.0
2018-12-13 15:00:06.044917, 100.0
2018-12-13 15:00:06.946245, 100.0
2018-12-13 15:00:07.847539, 100.0
2018-12-13 15:00:08.748854, 100.0
2018-12-13 15:00:09.649202, 100.0
2018-12-13 15:00:10.550491, 100.0
2018-12-13 15:00:11.451774, 100.0
2018-12-13 15:00:12.353090, 100.0
2018-12-13 15:00:13.254399, 100.0
2018-12-13 15:00:14.155728, 100.0
2018-12-13 15:00:15.057062, 100.0
2018-12-13 15:00:15.958386, 100.0
2018-12-13 15:00:16.859700, 100.0
2018-12-13 15:00:17.761023, 100.0
2018-12-13 15:00:18.662319, 100.0
2018-12-13 15:00:19.563603, 100.0
2018-12-13 15:00:20.464915, 100.0
2018-12-13 15:00:21.366246, 100.0
2018-12-13 15:00:22.267531, 100.0
2018-12-13 15:00:23.168838, 100.0
2018-12-13 15:00:24.069227, 100.0
2018-12-13 15:00:24.970516, 100.0
2018-12-13 15:00:25.871808, 100.0
2018-12-13 15:00:26.773110, 100.0
2018-12-13 15:00:27.674434, 100.0
2018-12-13 15:00:28.575754, 100.0
2018-12-13 15:00:29.477087, 100.0
2018-12-13 15:00:30.378382, 100.0
2018-12-13 15:00:31.279700, 100.0
2018-12-13 15:00:32.181029, 100.0
2018-12-13 15:00:33.082336, 100.0
2018-12-13 15:00:33.983631, 100.0
2018-12-13 15:00:34.884931, 100.0
2018-12-13 15:00:35.786279, 100.0
2018-12-13 15:00:36.687560, 100.0
2018-12-13 15:00:37.588849, 100.0
2018-12-13 15:00:38.489264, 100.0
2018-12-13 15:00:39.390580, 100.0
2018-12-13 15:00:40.291880, 100.0
2018-12-13 15:00:41.193186, 100.0
2018-12-13 15:00:42.094492, 100.0
2018-12-13 15:00:42.995778, 100.0
2018-12-13 15:00:43.897069, 100.0
2018-12-13 15:00:44.798369, 100.0
2018-12-13 15:00:45.699671, 100.0
2018-12-13 15:00:46.600969, 100.0
2018-12-13 15:00:47.502299, 100.0
2018-12-13 15:00:48.403593, 100.0
2018-12-13 15:00:49.304907, 100.0
2018-12-13 15:00:50.206231, 100.0
2018-12-13 15:00:51.107528, 100.0
2018-12-13 15:00:52.008832, 100.0
2018-12-13 15:00:52.909251, 100.0
2018-12-13 15:00:53.810542, 100.0
2018-12-13 15:00:54.711829, 100.0
2018-12-13 15:00:55.613134, 100.0
2018-12-13 15:00:56.514435, 100.0
2018-12-13 15:00:57.415711, 100.0
2018-12-13 15:00:58.317026, 100.0
2018-12-13 15:00:59.218330, 100.0
2018-12-13 15:01:00.119618, 100.0
2018-12-13 15:01:01.020908, 100.0
2018-12-13 15:01:01.922250, 100.0
2018-12-13 15:01:02.823551, 100.0
2018-12-13 15:01:03.724839, 100.0
2018-12-13 15:01:04.625226, 100.0
2018-12-13 15:01:05.526511, 100.0
2018-12-13 15:01:06.427797, 100.0
2018-12-13 15:01:07.329115, 100.0
2018-12-13 15:01:08.230431, 100.0
2018-12-13 15:01:09.131720, 100.0
2018-12-13 15:01:10.033048, 100.0
2018-12-13 15:01:10.934341, 100.0
2018-12-13 15:01:11.835670, 100.0
2018-12-13 15:01:12.736981, 100.0
2018-12-13 15:01:13.638310, 100.0
2018-12-13 15:01:14.539602, 100.0
2018-12-13 15:01:15.440885, 100.0
2018-12-13 15:01:16.342221, 100.0
2018-12-13 15:01:17.243509, 100.0
2018-12-13 15:01:18.144810, 100.0
2018-12-13 15:01:19.045255, 100.0
2018-12-13 15:01:19.946590, 100.0
2018-12-13 15:01:20.847893, 100.0
2018-12-13 15:01:21.749184, 100.0
2018-12-13 15:01:22.650486, 100.0
2018-12-13 15:01:23.551854, 100.0
2018-12-13 15:01:24.453177, 100.0
2018-12-13 15:01:25.354485, 100.0
2018-12-13 15:01:26.255795, 100.0
2018-12-13 15:01:27.157109, 100.0
2018-12-13 15:01:28.058412, 100.0
2018-12-13 15:01:28.959703, 100.0
2018-12-13 15:01:29.861023, 100.0
2018-12-13 15:01:30.762347, 100.0
2018-12-13 15:01:31.663666, 100.0
2018-12-13 15:01:32.565014, 100.0
