time, cpu_percent, memory_percent, memory_used, disc_read_bytes, disc_write_bytes, disc_read_time, disc_write_time, net_bytes_sent, net_bytes_recv
2018-12-12 23:48:07.943559, 8.9, 26.8, 121634816, 377257472, 342786048, 14548, 10676, 379758, 179269047
2018-12-12 23:48:08.845565, 1.1, 26.9, 122269696, 377257472, 342786048, 14548, 10676, 381936, 179815474
2018-12-12 23:48:09.747700, 0.0, 27.0, 122937344, 377257472, 342786048, 14548, 10676, 383256, 180492609
2018-12-12 23:48:10.649802, 0.0, 27.0, 123539456, 377257472, 342786048, 14548, 10676, 384576, 181169744
2018-12-12 23:48:11.551865, 0.0, 27.1, 124428288, 377257472, 342786048, 14548, 10676, 385632, 181846025
2018-12-12 23:48:12.453973, 1.1, 27.2, 125063168, 377257472, 342786048, 14548, 10676, 387480, 182523160
2018-12-12 23:48:13.356005, 0.0, 27.2, 125730816, 377257472, 342786048, 14548, 10676, 390054, 183200295
2018-12-12 23:48:14.258061, 1.1, 27.3, 126332928, 377257472, 342786048, 14548, 10676, 393726, 183883472
2018-12-12 23:48:15.160059, 1.1, 27.3, 127000576, 377257472, 342786048, 14548, 10676, 397026, 184560607
2018-12-12 23:48:16.062137, 0.0, 27.4, 127602688, 377257472, 342786048, 14548, 10676, 400458, 185243742
2018-12-12 23:48:16.964138, 1.1, 27.5, 128237568, 377257472, 342786048, 14548, 10676, 403758, 185920877
2018-12-12 23:48:17.866182, 18.5, 27.6, 128180224, 377732608, 448970752, 14608, 20548, 404220, 186018007
2018-12-12 23:48:18.768255, 2.4, 27.7, 128126976, 377732608, 506773504, 14608, 35796, 404220, 186018007
2018-12-12 23:48:19.670341, 5.9, 27.7, 128102400, 377732608, 564445184, 14608, 51040, 404574, 186018439
2018-12-12 23:48:20.572364, 3.5, 28.1, 132034560, 377732608, 622108672, 14608, 66256, 404810, 186018727
2018-12-12 23:48:21.473907, 4.9, 27.7, 128053248, 379211264, 679907328, 14644, 81476, 405180, 186019159
2018-12-12 23:48:22.377328, 3.7, 27.7, 128184320, 381861376, 738627584, 14680, 96572, 405458, 186019303
2018-12-12 23:48:23.294836, 43.9, 29.0, 141783040, 391462400, 796430336, 15064, 111704, 405812, 186019735
2018-12-12 23:48:24.197527, 24.1, 27.7, 128253952, 391486976, 854233088, 15068, 126856, 407098, 186019999
2018-12-12 23:48:25.099563, 2.4, 27.8, 128860160, 391769600, 911904768, 15076, 142096, 409036, 186020327
2018-12-12 23:48:26.001550, 1.2, 27.7, 128151552, 391773696, 969576448, 15080, 157396, 409744, 186021191
2018-12-12 23:48:26.903606, 2.5, 27.8, 128196608, 391773696, 1027379200, 15080, 172584, 410452, 186022015
2018-12-12 23:48:27.805585, 2.5, 27.8, 128790528, 391777792, 1085050880, 15080, 187888, 410688, 186022343
2018-12-12 23:48:28.707607, 2.5, 27.8, 128151552, 391777792, 1142853632, 15080, 203212, 411042, 186022631
2018-12-12 23:48:29.609601, 3.7, 27.8, 128733184, 391781888, 1200525312, 15080, 218380, 411294, 186022919
2018-12-12 23:48:30.511682, 5.1, 28.3, 133791744, 410258944, 1258328064, 15484, 233800, 411908, 186023561
2018-12-12 23:48:31.413747, 3.7, 28.5, 135548928, 415440384, 1316032512, 15572, 249164, 411908, 186023561
2018-12-12 23:48:32.315890, 2.4, 28.4, 134852608, 415440384, 1373671424, 15572, 264476, 411908, 186023561
2018-12-12 23:48:33.217000, 2.4, 28.5, 134959104, 415440384, 1431343104, 15572, 279720, 411908, 186023561
2018-12-12 23:48:34.118614, 8.3, 28.0, 130158592, 418627072, 1489149952, 15628, 294932, 412186, 186023561
2018-12-12 23:48:35.020526, 100.0, 28.5, 134905856, 420105728, 1546825728, 15660, 310240, 412186, 186023601
2018-12-12 23:48:35.922480, 100.0, 28.5, 134889472, 420105728, 1604628480, 15660, 325492, 412186, 186023601
2018-12-12 23:48:36.824435, 100.0, 28.5, 134873088, 420105728, 1662300160, 15660, 340724, 412186, 186023601
2018-12-12 23:48:37.726377, 100.0, 28.5, 135401472, 420105728, 1719971840, 15660, 355968, 412186, 186023601
2018-12-12 23:48:38.628345, 100.0, 28.5, 134856704, 420109824, 1777774592, 15660, 371240, 412186, 186023601
2018-12-12 23:48:39.530306, 100.0, 28.5, 134770688, 420109824, 1835446272, 15660, 386616, 412186, 186023601
2018-12-12 23:48:40.432234, 100.0, 28.6, 135008256, 420109824, 1893249024, 15660, 401812, 412186, 186023601
2018-12-12 23:48:41.335273, 100.0, 28.5, 134897664, 420109824, 1951051776, 15660, 417064, 412186, 186023601
2018-12-12 23:48:42.237213, 100.0, 28.6, 134889472, 420109824, 2008723456, 15660, 432336, 412186, 186023601
2018-12-12 23:48:43.138507, 100.0, 28.6, 134918144, 420109824, 2066395136, 15660, 447532, 412186, 186023601
2018-12-12 23:48:44.040428, 100.0, 28.6, 134946816, 420109824, 2124197888, 15660, 462792, 412186, 186023601
2018-12-12 23:48:44.942396, 100.0, 28.6, 134823936, 420109824, 2181869568, 15660, 478008, 412186, 186023601
2018-12-12 23:48:45.844372, 100.0, 28.6, 134967296, 420109824, 2239541248, 15660, 493196, 412186, 186023601
2018-12-12 23:48:46.746362, 100.0, 28.6, 134905856, 420109824, 2297344000, 15660, 508476, 412186, 186023601
2018-12-12 23:48:47.648322, 100.0, 28.6, 134926336, 420109824, 2355015680, 15660, 523724, 412186, 186023601
2018-12-12 23:48:48.550304, 100.0, 28.6, 134877184, 420109824, 2412818432, 15660, 538964, 412186, 186023601
2018-12-12 23:48:49.452247, 100.0, 28.6, 134852608, 420109824, 2470490112, 15660, 554256, 412186, 186023601
2018-12-12 23:48:50.354248, 100.0, 28.6, 134893568, 420109824, 2528161792, 15660, 569516, 412186, 186023601
2018-12-12 23:48:51.256214, 100.0, 28.6, 134959104, 420109824, 2585964544, 15660, 584784, 412186, 186023601
2018-12-12 23:48:52.158226, 100.0, 28.6, 134979584, 420109824, 2643673088, 15660, 599732, 412186, 186023601
2018-12-12 23:48:53.060162, 100.0, 28.6, 134815744, 420109824, 2701475840, 15660, 615008, 412186, 186023601
2018-12-12 23:48:53.962751, 100.0, 28.6, 134885376, 420109824, 2759147520, 15660, 630284, 412186, 186023601
2018-12-12 23:48:54.864738, 100.0, 28.6, 134897664, 420109824, 2816950272, 15660, 645600, 412186, 186023601
2018-12-12 23:48:55.766547, 100.0, 28.6, 134729728, 420109824, 2874621952, 15660, 660328, 412186, 186023601
2018-12-12 23:48:56.668502, 100.0, 28.6, 134836224, 420109824, 2932293632, 15660, 675568, 412186, 186023601
2018-12-12 23:48:57.570463, 100.0, 28.6, 134782976, 420109824, 2990096384, 15660, 690904, 412186, 186023601
2018-12-12 23:48:58.472431, 100.0, 28.6, 134832128, 420109824, 3047768064, 15660, 706088, 412186, 186023601
2018-12-12 23:48:59.374397, 100.0, 28.6, 134844416, 420109824, 3105570816, 15660, 721320, 412186, 186023601
2018-12-12 23:49:00.276387, 100.0, 28.6, 134946816, 420109824, 3163242496, 15660, 736492, 412186, 186023601
2018-12-12 23:49:01.178362, 100.0, 28.6, 134815744, 420240896, 3220914176, 15660, 751668, 412186, 186023601
2018-12-12 23:49:02.080947, 100.0, 28.6, 134922240, 420240896, 3278716928, 15660, 766964, 412186, 186023601
2018-12-12 23:49:02.982517, 100.0, 28.6, 134909952, 420240896, 3336388608, 15660, 782244, 412186, 186023601
2018-12-12 23:49:03.884481, 100.0, 28.7, 134823936, 420240896, 3394191360, 15660, 797484, 412186, 186023601
2018-12-12 23:49:04.786461, 100.0, 28.7, 134918144, 420240896, 3451863040, 15660, 812772, 412186, 186023601
2018-12-12 23:49:05.688421, 100.0, 28.7, 134950912, 420240896, 3509665792, 15660, 828048, 412186, 186023601
2018-12-12 23:49:06.590534, 100.0, 28.7, 134828032, 420244992, 3567357952, 15660, 843408, 412186, 186023601
2018-12-12 23:49:07.492511, 100.0, 28.7, 134774784, 420244992, 3625029632, 15660, 858656, 412186, 186023601
2018-12-12 23:49:08.394509, 100.0, 28.7, 134840320, 420244992, 3682832384, 15660, 873860, 412186, 186023601
2018-12-12 23:49:09.296935, 100.0, 28.7, 134762496, 420311552, 3740504064, 15664, 889160, 412186, 186023601
2018-12-12 23:49:10.198529, 100.0, 28.7, 134963200, 420311552, 3798306816, 15664, 904460, 412186, 186023601
2018-12-12 23:49:11.100502, 100.0, 28.7, 134795264, 420311552, 3855978496, 15664, 919668, 412186, 186023601
2018-12-12 23:49:12.002471, 100.0, 28.7, 134885376, 420311552, 3913650176, 15664, 934984, 412186, 186023601
2018-12-12 23:49:12.904416, 100.0, 28.7, 134873088, 420311552, 3971452928, 15664, 950244, 412186, 186023601
2018-12-12 23:49:13.806385, 100.0, 28.8, 135008256, 420315648, 4029124608, 15664, 965496, 412186, 186023601
2018-12-12 23:49:14.708344, 100.0, 28.7, 134848512, 420315648, 4086927360, 15664, 980796, 412186, 186023601
2018-12-12 23:49:15.610364, 100.0, 28.8, 134852608, 420315648, 4144599040, 15664, 996004, 412186, 186023601
2018-12-12 23:49:16.513675, 100.0, 29.4, 142196736, 432968192, 4202414080, 16088, 1011264, 414576, 186026571
2018-12-12 23:49:17.415598, 100.0, 29.0, 137232384, 441019904, 4260110336, 16612, 1026424, 417968, 186027859
2018-12-12 23:49:18.317555, 100.0, 29.0, 137146368, 441019904, 4317913088, 16612, 1041620, 418010, 186027901
2018-12-12 23:49:19.220370, 100.0, 29.0, 137261056, 442377728, 4375584768, 16768, 1056852, 418010, 186027901
2018-12-12 23:49:20.122354, 100.0, 29.0, 137261056, 442377728, 4433399808, 16768, 1072116, 418010, 186027901
2018-12-12 23:49:21.024611, 100.0, 29.0, 137199616, 442377728, 4491071488, 16768, 1087392, 418010, 186027901
2018-12-12 23:49:21.926517, 100.0, 29.0, 137306112, 442377728, 4548747264, 16768, 1102340, 418010, 186027901
2018-12-12 23:49:22.828480, 100.0, 29.0, 137166848, 442377728, 4606550016, 16768, 1117764, 418010, 186027901
2018-12-12 23:49:23.730442, 100.0, 29.0, 137330688, 442377728, 4664221696, 16768, 1133004, 418010, 186027901
2018-12-12 23:49:24.632356, 100.0, 29.0, 137191424, 442377728, 4721893376, 16768, 1148292, 418010, 186027901
2018-12-12 23:49:25.534371, 100.0, 29.0, 137269248, 442377728, 4779696128, 16768, 1163604, 418482, 186028437
2018-12-12 23:49:26.436340, 100.0, 29.0, 137150464, 442377728, 4837498880, 16768, 1178836, 418954, 186029053
2018-12-12 23:49:27.339023, 100.0, 29.1, 137359360, 442377728, 4895170560, 16768, 1194124, 418954, 186029053
2018-12-12 23:49:28.240937, 100.0, 29.1, 137469952, 442533376, 4952973312, 16820, 1209408, 419324, 186029485
2018-12-12 23:49:29.142558, 100.0, 29.2, 138641408, 443086336, 5010644992, 16824, 1224644, 420054, 186030290
2018-12-12 23:49:30.044530, 100.0, 29.2, 138625024, 443086336, 5068406784, 16824, 1239892, 420054, 186030290
2018-12-12 23:49:30.946538, 100.0, 29.2, 138387456, 443438592, 5126037504, 16828, 1255200, 420054, 186030290
2018-12-12 23:49:31.848483, 100.0, 29.2, 138575872, 443438592, 5183823872, 16828, 1270388, 420054, 186030290
2018-12-12 23:49:32.750472, 100.0, 29.2, 138485760, 443438592, 5241483264, 16828, 1285748, 420054, 186030290
2018-12-12 23:49:33.652451, 100.0, 29.2, 138641408, 443438592, 5299269632, 16828, 1300860, 420054, 186030290
2018-12-12 23:49:34.554579, 100.0, 29.2, 138526720, 443438592, 5357047808, 16828, 1316196, 420054, 186030290
2018-12-12 23:49:35.456554, 100.0, 29.3, 138518528, 443438592, 5414711296, 16828, 1331416, 420054, 186030290
2018-12-12 23:49:36.358512, 100.0, 29.3, 138641408, 443573760, 5472493568, 16836, 1346228, 423330, 186031590
2018-12-12 23:49:37.260518, 100.0, 29.2, 138493952, 443573760, 5530148864, 16836, 1361500, 423330, 186031590
2018-12-12 23:49:38.162525, 100.0, 29.3, 138645504, 443577856, 5587894272, 16840, 1376492, 423330, 186031590
2018-12-12 23:49:39.064488, 100.0, 29.3, 139120640, 443577856, 5645565952, 16840, 1391704, 423330, 186031590
2018-12-12 23:49:39.966507, 100.0, 29.3, 138604544, 443577856, 5703368704, 16840, 1406932, 423330, 186031590
2018-12-12 23:49:40.868474, 100.0, 29.3, 138567680, 443577856, 5761040384, 16840, 1422336, 423330, 186031590
2018-12-12 23:49:41.770432, 100.0, 29.3, 138682368, 443577856, 5818843136, 16840, 1437592, 423330, 186031590
2018-12-12 23:49:42.672412, 100.0, 29.3, 138694656, 443577856, 5876514816, 16840, 1452828, 423330, 186031590
2018-12-12 23:49:43.574361, 100.0, 29.3, 138579968, 443577856, 5934317568, 16840, 1468144, 423330, 186031590
2018-12-12 23:49:44.476338, 100.0, 29.3, 138575872, 443577856, 5991989248, 16840, 1483372, 423330, 186031590
2018-12-12 23:49:45.378529, 100.0, 29.3, 138518528, 443577856, 6049660928, 16840, 1498660, 423330, 186031590
2018-12-12 23:49:46.280493, 100.0, 29.3, 138489856, 443577856, 6107463680, 16840, 1514000, 423330, 186031590
2018-12-12 23:49:47.182474, 100.0, 29.3, 138633216, 443577856, 6165135360, 16840, 1529156, 423330, 186031590
2018-12-12 23:49:48.084416, 100.0, 29.3, 138649600, 443577856, 6222938112, 16840, 1544380, 423330, 186031590
2018-12-12 23:49:48.986393, 100.0, 29.4, 138690560, 443577856, 6280609792, 16840, 1559636, 423330, 186031590
2018-12-12 23:49:49.888318, 100.0, 29.3, 138551296, 443577856, 6338281472, 16840, 1574812, 423330, 186031590
2018-12-12 23:49:50.790325, 100.0, 29.4, 138530816, 443577856, 6396084224, 16840, 1590156, 423330, 186031590
2018-12-12 23:49:51.692263, 100.0, 29.4, 138612736, 443577856, 6453755904, 16840, 1605324, 423330, 186031590
2018-12-12 23:49:52.594229, 100.0, 29.4, 138653696, 443577856, 6511558656, 16840, 1620692, 423330, 186031590
2018-12-12 23:49:53.496234, 100.0, 29.4, 139141120, 443577856, 6569230336, 16840, 1635976, 423330, 186031590
2018-12-12 23:49:54.398841, 100.0, 29.4, 138711040, 443577856, 6627033088, 16840, 1651240, 423330, 186031590
2018-12-12 23:49:55.300907, 100.0, 29.4, 138567680, 443577856, 6684704768, 16840, 1666476, 423330, 186031590
2018-12-12 23:49:56.202563, 100.0, 29.4, 138596352, 443577856, 6742376448, 16840, 1681708, 423330, 186031590
2018-12-12 23:49:57.104523, 100.0, 29.4, 138629120, 443577856, 6800179200, 16840, 1696908, 423330, 186031590
2018-12-12 23:49:58.006495, 100.0, 29.4, 138510336, 443823616, 6857850880, 16848, 1712172, 423400, 186031590
2018-12-12 23:49:58.908461, 100.0, 29.4, 138743808, 443823616, 6915653632, 16848, 1727384, 423400, 186031590
2018-12-12 23:49:59.810481, 100.0, 29.4, 138534912, 443823616, 6973325312, 16848, 1742684, 423400, 186031590
2018-12-12 23:50:00.712384, 100.0, 29.4, 138522624, 443897344, 7031128064, 16852, 1757936, 423400, 186031590
2018-12-12 23:50:01.614419, 100.0, 29.4, 138694656, 443897344, 7088799744, 16852, 1773004, 423400, 186031590
2018-12-12 23:50:02.516383, 100.0, 29.4, 138702848, 443897344, 7146471424, 16852, 1788224, 423400, 186031590
2018-12-12 23:50:03.418421, 100.0, 29.4, 138629120, 443897344, 7204274176, 16852, 1803512, 423400, 186031590
2018-12-12 23:50:04.320411, 100.0, 29.4, 138493952, 443897344, 7261945856, 16852, 1818764, 423400, 186031590
2018-12-12 23:50:05.222412, 100.0, 29.4, 138670080, 443897344, 7319748608, 16852, 1833848, 423400, 186031590
2018-12-12 23:50:06.124394, 100.0, 29.4, 138539008, 443897344, 7377420288, 16852, 1849068, 423400, 186031590
2018-12-12 23:50:07.026391, 100.0, 29.4, 138551296, 443897344, 7435091968, 16852, 1864348, 423400, 186031590
2018-12-12 23:50:07.928364, 100.0, 29.4, 138469376, 443991552, 7492894720, 16868, 1879644, 423490, 186031666
2018-12-12 23:50:08.830999, 100.0, 29.4, 138604544, 443991552, 7550697472, 16868, 1894964, 423490, 186031666
2018-12-12 23:50:09.732960, 100.0, 29.4, 138637312, 443995648, 7608377344, 16868, 1909880, 423490, 186031666
2018-12-12 23:50:10.634475, 100.0, 29.4, 138526720, 443995648, 7666049024, 16868, 1925136, 423490, 186031666
2018-12-12 23:50:11.536434, 100.0, 29.4, 138633216, 443995648, 7723851776, 16868, 1940436, 423490, 186031666
2018-12-12 23:50:12.438395, 100.0, 29.4, 138584064, 443999744, 7781527552, 16872, 1955520, 423532, 186031708
2018-12-12 23:50:13.340351, 100.0, 29.4, 138510336, 443999744, 7839264768, 16872, 1970852, 423532, 186031708
2018-12-12 23:50:14.242341, 100.0, 29.4, 138612736, 443999744, 7896936448, 16872, 1986064, 423532, 186031708
2018-12-12 23:50:15.144286, 100.0, 29.4, 138514432, 443999744, 7954739200, 16872, 2001372, 423532, 186031708
2018-12-12 23:50:16.046766, 100.0, 29.4, 138698752, 443999744, 8012410880, 16872, 2016588, 423532, 186031708
2018-12-12 23:50:16.948752, 100.0, 29.4, 138539008, 443999744, 8070213632, 16872, 2031684, 423532, 186031708
2018-12-12 23:50:17.850538, 100.0, 29.4, 138539008, 443999744, 8127885312, 16872, 2046908, 423532, 186031708
2018-12-12 23:50:18.752463, 100.0, 29.4, 138498048, 444528128, 8185556992, 17084, 2062160, 423532, 186031708
2018-12-12 23:50:19.654477, 100.0, 29.4, 138616832, 444528128, 8243359744, 17084, 2077368, 423532, 186031708
2018-12-12 23:50:20.556455, 100.0, 29.4, 138493952, 444528128, 8301031424, 17084, 2092676, 423574, 186031750
2018-12-12 23:50:21.458469, 100.0, 29.4, 138600448, 444528128, 8358834176, 17084, 2107860, 423574, 186031750
2018-12-12 23:50:22.360440, 100.0, 29.4, 138625024, 444528128, 8416505856, 17084, 2123192, 423574, 186031750
2018-12-12 23:50:23.262416, 100.0, 29.4, 139153408, 444528128, 8474308608, 17084, 2138440, 423574, 186031750
2018-12-12 23:50:24.166117, 100.0, 29.4, 138694656, 444528128, 8532111360, 17084, 2153688, 423574, 186031750
2018-12-12 23:50:25.068676, 100.0, 29.4, 138539008, 444532224, 8589783040, 17084, 2168992, 423574, 186031750
2018-12-12 23:50:25.970556, 100.0, 29.4, 138579968, 444536320, 8647598080, 17088, 2184216, 423574, 186031750
2018-12-12 23:50:26.872532, 100.0, 29.4, 138579968, 444536320, 8705269760, 17088, 2199648, 423574, 186031750
2018-12-12 23:50:27.774482, 100.0, 29.4, 138534912, 444536320, 8763072512, 17088, 2214828, 423574, 186031750
2018-12-12 23:50:28.676525, 100.0, 29.4, 138633216, 444536320, 8820744192, 17088, 2230044, 423574, 186031750
2018-12-12 23:50:29.578543, 100.0, 29.4, 138485760, 444536320, 8878546944, 17088, 2245372, 423574, 186031750
2018-12-12 23:50:30.480809, 100.0, 29.4, 138547200, 444536320, 8936218624, 17088, 2260544, 423574, 186031750
2018-12-12 23:50:31.382536, 100.0, 29.4, 138485760, 445199872, 8993939456, 17116, 2275760, 423574, 186031750
2018-12-12 23:50:32.284496, 100.0, 29.4, 138522624, 445199872, 9051693056, 17116, 2290984, 423574, 186031750
2018-12-12 23:50:33.186480, 100.0, 29.4, 138575872, 445199872, 9109364736, 17116, 2306140, 423574, 186031750
2018-12-12 23:50:34.088379, 100.0, 29.4, 139091968, 445199872, 9167167488, 17116, 2321360, 423574, 186031750
2018-12-12 23:50:34.990527, 100.0, 29.4, 138555392, 445199872, 9224839168, 17116, 2336664, 423574, 186031750
2018-12-12 23:50:35.892467, 100.0, 29.4, 138510336, 445199872, 9282510848, 17116, 2351880, 423574, 186031750
2018-12-12 23:50:36.794452, 100.0, 29.4, 138448896, 445199872, 9340313600, 17116, 2367120, 423574, 186031750
2018-12-12 23:50:37.696416, 100.0, 29.4, 138633216, 445199872, 9397985280, 17116, 2382436, 423574, 186031750
2018-12-12 23:50:38.598406, 100.0, 29.4, 138457088, 445199872, 9455788032, 17116, 2397648, 423574, 186031750
2018-12-12 23:50:39.500361, 100.0, 29.4, 138633216, 445199872, 9513451520, 17116, 2412568, 423574, 186031750
2018-12-12 23:50:40.402359, 100.0, 29.4, 138539008, 445203968, 9571258368, 17116, 2427812, 423574, 186031750
2018-12-12 23:50:41.304365, 100.0, 29.4, 138653696, 445203968, 9628893184, 17116, 2443036, 423574, 186031750
2018-12-12 23:50:42.206356, 100.0, 29.4, 138432512, 445203968, 9686695936, 17116, 2458276, 423574, 186031750
2018-12-12 23:50:43.108348, 100.0, 29.4, 138686464, 445203968, 9744367616, 17116, 2473524, 423574, 186031750
2018-12-12 23:50:44.010695, 100.0, 29.4, 138506240, 445203968, 9802170368, 17116, 2488768, 423574, 186031750
2018-12-12 23:50:44.912950, 100.0, 29.4, 138596352, 445203968, 9859842048, 17116, 2503988, 423574, 186031750
2018-12-12 23:50:45.814549, 100.0, 29.4, 138592256, 445203968, 9917513728, 17116, 2519300, 423574, 186031750
2018-12-12 23:50:46.716539, 100.0, 29.4, 138645504, 445203968, 9975316480, 17116, 2534552, 423574, 186031750
2018-12-12 23:50:47.618483, 100.0, 29.4, 138682368, 445203968, 10032988160, 17116, 2549856, 423574, 186031750
2018-12-12 23:50:48.520466, 100.0, 29.4, 138567680, 445687296, 10090790912, 17120, 2565144, 423574, 186031750
2018-12-12 23:50:49.422790, 100.0, 29.4, 138571776, 445687296, 10148462592, 17120, 2580360, 423574, 186031750
2018-12-12 23:50:50.324733, 100.0, 29.4, 138768384, 445687296, 10206265344, 17120, 2595680, 423574, 186031750
2018-12-12 23:50:51.226587, 100.0, 29.4, 138608640, 445687296, 10263937024, 17120, 2610852, 423574, 186031750
2018-12-12 23:50:52.128566, 100.0, 29.4, 138665984, 445687296, 10321608704, 17120, 2626144, 423574, 186031750
2018-12-12 23:50:53.030674, 100.0, 29.4, 138686464, 445687296, 10379411456, 17120, 2641296, 423574, 186031750
2018-12-12 23:50:53.932639, 100.0, 29.4, 138653696, 445687296, 10437083136, 17120, 2656520, 423574, 186031750
2018-12-12 23:50:54.834577, 100.0, 29.4, 138661888, 445687296, 10494885888, 17120, 2671772, 423574, 186031750
2018-12-12 23:50:55.736529, 100.0, 29.4, 138719232, 445687296, 10552557568, 17120, 2686960, 423574, 186031750
2018-12-12 23:50:56.638502, 100.0, 29.4, 138485760, 445687296, 10610229248, 17120, 2702200, 423574, 186031750
2018-12-12 23:50:57.540448, 100.0, 29.4, 138661888, 445687296, 10668032000, 17120, 2717492, 423574, 186031750
2018-12-12 23:50:58.442439, 100.0, 29.4, 138641408, 445687296, 10725703680, 17120, 2732780, 423574, 186031750
2018-12-12 23:50:59.344407, 100.0, 29.5, 139259904, 445687296, 10783506432, 17120, 2748120, 423574, 186031750
2018-12-12 23:51:00.246564, 100.0, 29.4, 138715136, 445687296, 10841178112, 17120, 2763352, 423574, 186031750
2018-12-12 23:51:01.148539, 100.0, 29.4, 138694656, 445695488, 10898980864, 17124, 2778656, 423574, 186031750
2018-12-12 23:51:02.050509, 100.0, 29.4, 138665984, 445695488, 10956652544, 17124, 2793848, 423574, 186031750
2018-12-12 23:51:02.952447, 100.0, 29.4, 138702848, 445695488, 11014324224, 17124, 2809068, 423574, 186031750
2018-12-12 23:51:03.854460, 100.0, 29.4, 138616832, 445695488, 11072126976, 17124, 2824332, 423574, 186031750
2018-12-12 23:51:04.756435, 100.0, 29.4, 138727424, 445695488, 11129798656, 17124, 2839608, 423574, 186031750
2018-12-12 23:51:05.658441, 100.0, 29.4, 138567680, 445695488, 11187601408, 17124, 2854896, 423574, 186031750
2018-12-12 23:51:06.560386, 100.0, 29.4, 138665984, 445695488, 11245273088, 17124, 2870080, 423574, 186031750
2018-12-12 23:51:07.462369, 100.0, 29.4, 138657792, 450210304, 11303075840, 17444, 2885280, 423574, 186031750
2018-12-12 23:51:08.364352, 100.0, 29.4, 138715136, 451334656, 11360878592, 17804, 2900592, 423574, 186031750
2018-12-12 23:51:09.267756, 100.0, 29.4, 138686464, 458577408, 11418595328, 18992, 2915496, 424071, 186032506
2018-12-12 23:51:10.169745, 100.0, 29.4, 138543104, 458577408, 11476275200, 18992, 2930816, 424071, 186032506
2018-12-12 23:51:11.071672, 100.0, 29.4, 138825728, 458577408, 11534077952, 18992, 2946072, 424071, 186032506
2018-12-12 23:51:11.973876, 100.0, 29.1, 135516160, 458716672, 11591708672, 18996, 2960968, 424071, 186032506
2018-12-12 23:51:12.875848, 100.0, 29.1, 135430144, 458716672, 11649441792, 18996, 2976208, 424113, 186032548
2018-12-12 23:51:13.778031, 100.0, 29.1, 135589888, 458716672, 11707252736, 18996, 2991480, 424113, 186032548
2018-12-12 23:51:14.679976, 100.0, 29.1, 135479296, 458716672, 11764916224, 18996, 3006784, 424155, 186032590
2018-12-12 23:51:15.582367, 100.0, 29.1, 135593984, 458716672, 11822727168, 18996, 3022092, 424155, 186032590
2018-12-12 23:51:16.484298, 100.0, 29.1, 135479296, 458716672, 11880398848, 18996, 3037284, 424155, 186032590
2018-12-12 23:51:17.386317, 100.0, 29.1, 135577600, 461136384, 11938189312, 19040, 3052348, 424155, 186032590
2018-12-12 23:51:18.288286, 100.0, 29.1, 135647232, 461136384, 11995860992, 19040, 3067528, 424155, 186032590
2018-12-12 23:51:19.190939, 100.0, 29.1, 135602176, 461136384, 12053663744, 19040, 3082800, 424155, 186032590
2018-12-12 23:51:20.092905, 100.0, 29.1, 135487488, 461136384, 12111335424, 19040, 3098040, 424155, 186032590
2018-12-12 23:51:20.994597, 100.0, 29.1, 135516160, 461136384, 12169138176, 19040, 3113320, 424155, 186032590
2018-12-12 23:51:21.896627, 100.0, 29.1, 135512064, 461136384, 12226809856, 19040, 3128588, 424155, 186032590
2018-12-12 23:51:22.798512, 100.0, 29.1, 135655424, 461136384, 12284481536, 19040, 3143836, 424155, 186032590
2018-12-12 23:51:23.700488, 100.0, 29.1, 135602176, 461136384, 12342284288, 19040, 3159120, 424155, 186032590
2018-12-12 23:51:24.602551, 100.0, 29.1, 135426048, 461136384, 12399955968, 19040, 3174312, 424155, 186032590
2018-12-12 23:51:25.504485, 100.0, 29.1, 135483392, 461136384, 12457758720, 19040, 3189580, 424155, 186032590
2018-12-12 23:51:26.406469, 100.0, 29.1, 135462912, 461136384, 12515430400, 19040, 3204880, 424155, 186032590
2018-12-12 23:51:27.308469, 100.0, 29.1, 135421952, 461136384, 12573102080, 19040, 3220128, 424155, 186032590
2018-12-12 23:51:28.210479, 100.0, 29.1, 135651328, 461136384, 12630904832, 19040, 3235284, 424155, 186032590
2018-12-12 23:51:29.112438, 100.0, 29.1, 135446528, 461136384, 12688576512, 19040, 3250540, 424155, 186032590
2018-12-12 23:51:30.014428, 100.0, 29.1, 135565312, 461136384, 12746379264, 19040, 3265812, 424155, 186032590
2018-12-12 23:51:30.916402, 100.0, 29.1, 135487488, 461492736, 12804050944, 19048, 3281036, 424155, 186032590
2018-12-12 23:51:31.818355, 100.0, 29.1, 135565312, 461492736, 12861722624, 19048, 3296316, 424155, 186032590
2018-12-12 23:51:32.720962, 100.0, 29.1, 135569408, 461496832, 12919275520, 19048, 3311464, 424155, 186032590
2018-12-12 23:51:33.622550, 100.0, 29.1, 135438336, 461496832, 12977209344, 19048, 3326772, 424155, 186032590
2018-12-12 23:51:34.524449, 100.0, 29.1, 135487488, 461496832, 13035012096, 19048, 3342044, 424155, 186032590
2018-12-12 23:51:35.426530, 100.0, 29.1, 135499776, 461496832, 13092683776, 19048, 3357304, 424155, 186032590
2018-12-12 23:51:36.328448, 100.0, 29.1, 135487488, 461496832, 13150355456, 19048, 3372508, 424155, 186032590
2018-12-12 23:51:37.230440, 100.0, 29.1, 135503872, 461496832, 13208158208, 19048, 3387736, 424155, 186032590
2018-12-12 23:51:38.132390, 100.0, 29.1, 135454720, 461496832, 13265829888, 19048, 3402952, 424155, 186032590
2018-12-12 23:51:39.034420, 100.0, 29.1, 135548928, 461496832, 13323632640, 19048, 3418196, 424155, 186032590
2018-12-12 23:51:39.936383, 100.0, 29.1, 135544832, 461496832, 13381304320, 19048, 3433472, 424155, 186032590
2018-12-12 23:51:40.838372, 100.0, 29.1, 136085504, 461496832, 13439107072, 19048, 3448684, 424155, 186032590
2018-12-12 23:51:41.740345, 100.0, 29.1, 135561216, 461496832, 13496778752, 19048, 3464012, 424155, 186032590
2018-12-12 23:51:42.642337, 100.0, 29.1, 135438336, 461496832, 13554450432, 19048, 3479168, 424155, 186032590
2018-12-12 23:51:43.544306, 100.0, 29.1, 135540736, 474984960, 13612249088, 19172, 3494220, 424155, 186032590
2018-12-12 23:51:44.446329, 100.0, 29.2, 136196096, 505786880, 13670072320, 19432, 3509552, 424155, 186032590
2018-12-12 23:51:45.350425, 100.0, 29.1, 135630848, 534098432, 13727875072, 19616, 3524856, 424155, 186032590
2018-12-12 23:51:46.252396, 100.0, 29.2, 136982528, 567874048, 13785546752, 20096, 3540116, 425757, 186034116
2018-12-12 23:51:47.154365, 100.0, 29.3, 137646080, 606102016, 13843218432, 20520, 3555348, 427099, 186035560
2018-12-12 23:51:48.057028, 100.0, 29.3, 138092544, 635429376, 13901025280, 20788, 3570736, 462861, 186051112
2018-12-12 23:51:48.958833, 100.0, 29.3, 138035200, 663872000, 13958696960, 21104, 3585916, 462861, 186051112
2018-12-12 23:51:49.860161, 100.0, 29.3, 137949184, 692183552, 14016368640, 21424, 3601164, 462861, 186051112
2018-12-12 23:51:50.761515, 100.0, 29.3, 138104832, 720364032, 14074040320, 21748, 3616384, 462861, 186051112
2018-12-12 23:51:51.662880, 100.0, 29.3, 138260480, 748937728, 14131843072, 21984, 3631648, 462861, 186051112
2018-12-12 23:51:52.565321, 100.0, 29.3, 138014720, 777380352, 14189514752, 22304, 3646860, 462861, 186051112
2018-12-12 23:51:53.466694, 100.0, 29.3, 137981952, 806609408, 14247186432, 22564, 3662116, 498043, 186065852
2018-12-12 23:51:54.368086, 100.0, 29.3, 138047488, 835314176, 14304858112, 22832, 3677328, 498043, 186065852
2018-12-12 23:51:55.269441, 100.0, 29.3, 138014720, 864543232, 14362529792, 23168, 3692680, 498043, 186065852
2018-12-12 23:51:56.170774, 100.0, 29.3, 138076160, 893248000, 14420332544, 23520, 3707944, 498043, 186065852
2018-12-12 23:51:57.072177, 100.0, 29.3, 137932800, 922477056, 14478004224, 24044, 3722528, 498043, 186065852
2018-12-12 23:51:57.973517, 100.0, 29.3, 137920512, 951181824, 14535675904, 24348, 3737792, 498043, 186065852
2018-12-12 23:51:58.874851, 100.0, 29.3, 138383360, 979755520, 14593347584, 24592, 3753064, 498043, 186065852
2018-12-12 23:51:59.776237, 100.0, 29.3, 137969664, 1008984576, 14651019264, 24908, 3768268, 498043, 186065852
2018-12-12 23:52:00.677594, 100.0, 29.3, 137957376, 1037820416, 14708690944, 25220, 3783512, 498043, 186065852
2018-12-12 23:52:01.579867, 100.0, 29.3, 138035200, 1066525184, 14766493696, 25508, 3798780, 498043, 186065852
2018-12-12 23:52:02.481760, 100.0, 29.3, 137891840, 1095229952, 14824165376, 25716, 3814052, 498043, 186065852
2018-12-12 23:52:03.383596, 100.0, 29.3, 138113024, 1124459008, 14881968128, 25920, 3829264, 498043, 186065852
2018-12-12 23:52:04.285442, 100.0, 29.3, 137953280, 1153163776, 14939639808, 26164, 3844536, 498043, 186065852
2018-12-12 23:52:05.186443, 100.0, 29.3, 138108928, 1182523904, 14997311488, 26384, 3859792, 498043, 186065852
2018-12-12 23:52:06.088417, 100.0, 29.3, 138072064, 1211097600, 15055114240, 26640, 3874976, 498043, 186065852
2018-12-12 23:52:06.990313, 100.0, 29.3, 137908224, 1239933440, 15112785920, 26892, 3890224, 498043, 186065852
2018-12-12 23:52:07.892234, 100.0, 29.3, 138063872, 1269031424, 15170588672, 27268, 3905444, 498043, 186065852
2018-12-12 23:52:08.794726, 100.0, 29.3, 138059776, 1297867264, 15228260352, 27560, 3920664, 498043, 186065852
2018-12-12 23:52:09.696588, 100.0, 29.3, 137900032, 1327552000, 15285932032, 27776, 3935968, 498043, 186065852
2018-12-12 23:52:10.598469, 100.0, 29.3, 137928704, 1356256768, 15343734784, 27948, 3951216, 498043, 186065852
2018-12-12 23:52:11.500344, 100.0, 29.3, 137973760, 1385485824, 15401406464, 28196, 3966444, 498043, 186065852
2018-12-12 23:52:12.402880, 100.0, 29.3, 137969664, 1414714880, 15459209216, 28492, 3981744, 498043, 186065852
2018-12-12 23:52:13.304743, 100.0, 29.3, 138014720, 1443419648, 15516893184, 28716, 3996904, 498043, 186065852
2018-12-12 23:52:14.206525, 100.0, 29.3, 137981952, 1472386560, 15574564864, 28960, 4012084, 498043, 186065852
2018-12-12 23:52:15.108455, 100.0, 29.3, 137981952, 1500829184, 15632367616, 29204, 4027384, 498043, 186065852
2018-12-12 23:52:16.010402, 100.0, 29.3, 137949184, 1529796096, 15690039296, 29500, 4042588, 498043, 186065852
2018-12-12 23:52:16.912264, 100.0, 29.3, 138010624, 1558763008, 15747842048, 29756, 4057888, 498085, 186065894
2018-12-12 23:52:17.814529, 100.0, 29.3, 138096640, 1587992064, 15805513728, 30004, 4073108, 498085, 186065894
2018-12-12 23:52:18.716428, 100.0, 29.3, 138129408, 1616696832, 15863316480, 30284, 4088288, 498085, 186065894
2018-12-12 23:52:19.618684, 100.0, 29.3, 138002432, 1645925888, 15920988160, 30544, 4103588, 498085, 186065894
2018-12-12 23:52:20.520619, 100.0, 29.3, 137998336, 1674630656, 15978659840, 30996, 4118256, 498085, 186065894
2018-12-12 23:52:21.422477, 100.0, 29.3, 137965568, 1703859712, 16036462592, 31332, 4133484, 498085, 186065894
2018-12-12 23:52:22.324556, 100.0, 29.3, 138006528, 1732564480, 16094134272, 31584, 4148760, 498085, 186065894
2018-12-12 23:52:23.226431, 100.0, 29.3, 137994240, 1761400320, 16151805952, 31856, 4164056, 498085, 186065894
2018-12-12 23:52:24.128356, 100.0, 29.3, 137969664, 1790629376, 16209608704, 32116, 4179292, 498085, 186065894
2018-12-12 23:52:25.030336, 100.0, 29.3, 137916416, 1818809856, 16267280384, 32428, 4194488, 498085, 186065894
2018-12-12 23:52:25.932299, 100.0, 29.3, 138014720, 1848563200, 16325083136, 32772, 4209780, 498085, 186065894
2018-12-12 23:52:26.834772, 100.0, 29.3, 137977856, 1877661184, 16382754816, 33124, 4225032, 498085, 186065894
2018-12-12 23:52:27.736619, 100.0, 29.4, 138604544, 1906890240, 16440688640, 33276, 4240332, 498085, 186065894
2018-12-12 23:52:28.640135, 100.0, 29.3, 138014720, 1935726080, 16498360320, 33540, 4255584, 498085, 186065894
2018-12-12 23:52:29.542024, 100.0, 29.3, 137904128, 1964037632, 16556032000, 33832, 4270856, 498085, 186065894
2018-12-12 23:52:30.443980, 100.0, 29.3, 138006528, 1993659904, 16613834752, 34024, 4286172, 498085, 186065894
2018-12-12 23:52:31.345986, 100.0, 29.3, 137949184, 2022409728, 16671506432, 34220, 4301408, 498085, 186065894
2018-12-12 23:52:32.247127, 100.0, 29.3, 137986048, 2051638784, 16729178112, 34452, 4316636, 498085, 186065894
2018-12-12 23:52:33.149036, 100.0, 29.3, 138059776, 2080867840, 16786849792, 34684, 4331880, 498085, 186065894
2018-12-12 23:52:34.050538, 100.0, 29.3, 137981952, 2109572608, 16844652544, 34880, 4347112, 498085, 186065894
2018-12-12 23:52:34.952413, 100.0, 29.3, 138133504, 2138801664, 16902324224, 35020, 4362388, 498085, 186065894
2018-12-12 23:52:35.854329, 100.0, 29.2, 138027008, 2174158336, 16959983616, 36432, 4377588, 498085, 186065894
2018-12-12 23:52:36.756226, 100.0, 29.2, 138039296, 2202863104, 17017729024, 36628, 4392952, 498085, 186065894
2018-12-12 23:52:37.658653, 100.0, 29.2, 138002432, 2232616448, 17075531776, 36884, 4408256, 498085, 186065894
2018-12-12 23:52:38.560469, 100.0, 29.2, 138018816, 2266826240, 17133187072, 37188, 4423520, 498085, 186065894
2018-12-12 23:52:39.462428, 100.0, 29.2, 137900032, 2319255040, 17190989824, 37800, 4438824, 498085, 186065894
