time, cpu_percent
2018-12-14 15:39:50.453199, 100.0
2018-12-14 15:39:51.354540, 100.0
2018-12-14 15:39:52.255858, 100.0
2018-12-14 15:39:53.156636, 100.0
2018-12-14 15:39:54.057959, 100.0
2018-12-14 15:39:54.959286, 100.0
2018-12-14 15:39:55.860623, 100.0
2018-12-14 15:39:56.761929, 100.0
2018-12-14 15:39:57.663234, 100.0
2018-12-14 15:39:58.564586, 100.0
2018-12-14 15:39:59.465914, 100.0
2018-12-14 15:40:00.367269, 100.0
2018-12-14 15:40:01.268606, 100.0
2018-12-14 15:40:02.169937, 100.0
2018-12-14 15:40:03.071263, 100.0
2018-12-14 15:40:03.972590, 100.0
2018-12-14 15:40:04.873912, 100.0
2018-12-14 15:40:05.775264, 100.0
2018-12-14 15:40:06.676626, 100.0
2018-12-14 15:40:07.577960, 100.0
2018-12-14 15:40:08.479322, 100.0
2018-12-14 15:40:09.380663, 100.0
2018-12-14 15:40:10.281998, 100.0
2018-12-14 15:40:11.183343, 100.0
2018-12-14 15:40:12.084754, 100.0
2018-12-14 15:40:12.986179, 100.0
2018-12-14 15:40:13.887551, 100.0
2018-12-14 15:40:14.788693, 100.0
2018-12-14 15:40:15.690030, 100.0
2018-12-14 15:40:16.591385, 100.0
2018-12-14 15:40:17.492687, 100.0
2018-12-14 15:40:18.394060, 100.0
2018-12-14 15:40:19.295391, 100.0
2018-12-14 15:40:20.196659, 100.0
2018-12-14 15:40:21.098000, 100.0
2018-12-14 15:40:21.999360, 100.0
2018-12-14 15:40:22.900713, 100.0
2018-12-14 15:40:23.802097, 100.0
2018-12-14 15:40:24.703420, 100.0
2018-12-14 15:40:25.604695, 100.0
2018-12-14 15:40:26.506072, 100.0
2018-12-14 15:40:27.407414, 100.0
2018-12-14 15:40:28.308678, 100.0
2018-12-14 15:40:29.209973, 100.0
2018-12-14 15:40:30.111327, 100.0
2018-12-14 15:40:31.012685, 100.0
2018-12-14 15:40:31.914076, 100.0
2018-12-14 15:40:32.815398, 100.0
2018-12-14 15:40:33.716627, 100.0
2018-12-14 15:40:34.618006, 100.0
2018-12-14 15:40:35.519385, 100.0
2018-12-14 15:40:36.420697, 100.0
2018-12-14 15:40:37.322022, 100.0
2018-12-14 15:40:38.223385, 100.0
2018-12-14 15:40:39.124636, 100.0
2018-12-14 15:40:40.026027, 100.0
2018-12-14 15:40:40.927361, 100.0
2018-12-14 15:40:41.828657, 100.0
2018-12-14 15:40:42.729996, 100.0
2018-12-14 15:40:43.631372, 100.0
2018-12-14 15:40:44.532654, 100.0
2018-12-14 15:40:45.434016, 100.0
2018-12-14 15:40:46.335374, 100.0
2018-12-14 15:40:47.236671, 100.0
2018-12-14 15:40:48.138010, 100.0
2018-12-14 15:40:49.039345, 100.0
2018-12-14 15:40:49.940656, 100.0
2018-12-14 15:40:50.841996, 100.0
2018-12-14 15:40:51.743307, 100.0
2018-12-14 15:40:52.644667, 100.0
2018-12-14 15:40:53.546014, 100.0
2018-12-14 15:40:54.447344, 100.0
2018-12-14 15:40:55.348657, 100.0
2018-12-14 15:40:56.249997, 100.0
2018-12-14 15:40:57.151351, 100.0
2018-12-14 15:40:58.052664, 100.0
2018-12-14 15:40:58.954018, 100.0
2018-12-14 15:40:59.855360, 100.0
2018-12-14 15:41:00.756630, 100.0
2018-12-14 15:41:01.657962, 100.0
2018-12-14 15:41:02.559298, 100.0
2018-12-14 15:41:03.460642, 100.0
2018-12-14 15:41:04.362006, 100.0
2018-12-14 15:41:05.263371, 100.0
2018-12-14 15:41:06.164643, 100.0
2018-12-14 15:41:07.065959, 100.0
2018-12-14 15:41:07.967274, 100.0
2018-12-14 15:41:08.868588, 100.0
2018-12-14 15:41:09.769935, 100.0
2018-12-14 15:41:10.671246, 100.0
2018-12-14 15:41:11.572566, 100.0
2018-12-14 15:41:12.473883, 100.0
2018-12-14 15:41:13.375179, 100.0
2018-12-14 15:41:14.276528, 100.0
2018-12-14 15:41:15.177839, 100.0
2018-12-14 15:41:16.079170, 100.0
2018-12-14 15:41:16.980491, 100.0
2018-12-14 15:41:17.881817, 100.0
2018-12-14 15:41:18.783157, 100.0
2018-12-14 15:41:19.684476, 100.0
2018-12-14 15:41:20.585791, 100.0
2018-12-14 15:41:21.487109, 100.0
2018-12-14 15:41:22.388471, 100.0
2018-12-14 15:41:23.289817, 100.0
2018-12-14 15:41:24.191147, 100.0
2018-12-14 15:41:25.092470, 100.0
2018-12-14 15:41:25.993779, 100.0
2018-12-14 15:41:26.895091, 100.0
2018-12-14 15:41:27.796435, 100.0
2018-12-14 15:41:28.697754, 100.0
2018-12-14 15:41:29.599081, 100.0
2018-12-14 15:41:30.500367, 100.0
2018-12-14 15:41:31.401705, 100.0
2018-12-14 15:41:32.303021, 100.0
2018-12-14 15:41:33.204345, 100.0
2018-12-14 15:41:34.105715, 100.0
2018-12-14 15:41:35.007029, 100.0
2018-12-14 15:41:35.908352, 100.0
2018-12-14 15:41:36.809765, 100.0
2018-12-14 15:41:37.711077, 100.0
2018-12-14 15:41:38.612459, 100.0
2018-12-14 15:41:39.513772, 100.0
2018-12-14 15:41:40.415122, 100.0
2018-12-14 15:41:41.316498, 100.0
2018-12-14 15:41:42.217820, 100.0
2018-12-14 15:41:43.119130, 100.0
2018-12-14 15:41:44.020514, 100.0
2018-12-14 15:41:44.921832, 100.0
2018-12-14 15:41:45.823160, 100.0
2018-12-14 15:41:46.724485, 100.0
2018-12-14 15:41:47.625793, 100.0
2018-12-14 15:41:48.527103, 100.0
2018-12-14 15:41:49.428485, 100.0
2018-12-14 15:41:50.329802, 100.0
2018-12-14 15:41:51.231134, 100.0
2018-12-14 15:41:52.132473, 100.0
2018-12-14 15:41:53.033807, 100.0
2018-12-14 15:41:53.935117, 100.0
2018-12-14 15:41:54.836502, 100.0
2018-12-14 15:41:55.737826, 100.0
2018-12-14 15:41:56.639154, 100.0
2018-12-14 15:41:57.540470, 100.0
2018-12-14 15:41:58.441787, 100.0
2018-12-14 15:41:59.343097, 100.0
2018-12-14 15:42:00.244461, 100.0
2018-12-14 15:42:01.145789, 100.0
2018-12-14 15:42:02.047110, 100.0
2018-12-14 15:42:02.948498, 100.0
2018-12-14 15:42:03.849807, 100.0
2018-12-14 15:42:04.751160, 100.0
2018-12-14 15:42:05.652505, 100.0
2018-12-14 15:42:06.553814, 100.0
2018-12-14 15:42:07.455170, 100.0
2018-12-14 15:42:08.356532, 100.0
2018-12-14 15:42:09.257848, 100.0
2018-12-14 15:42:10.159185, 100.0
2018-12-14 15:42:11.060544, 100.0
2018-12-14 15:42:11.961871, 100.0
2018-12-14 15:42:12.863192, 100.0
2018-12-14 15:42:13.764519, 100.0
2018-12-14 15:42:14.665843, 100.0
2018-12-14 15:42:15.567153, 100.0
2018-12-14 15:42:16.468481, 100.0
2018-12-14 15:42:17.369793, 100.0
2018-12-14 15:42:18.271108, 100.0
2018-12-14 15:42:19.172447, 100.0
2018-12-14 15:42:20.073812, 100.0
2018-12-14 15:42:20.975138, 100.0
2018-12-14 15:42:21.876512, 100.0
2018-12-14 15:42:22.777833, 100.0
2018-12-14 15:42:23.679162, 100.0
2018-12-14 15:42:24.580469, 100.0
2018-12-14 15:42:25.481809, 100.0
2018-12-14 15:42:26.383128, 100.0
2018-12-14 15:42:27.284471, 100.0
2018-12-14 15:42:28.185800, 100.0
2018-12-14 15:42:29.087123, 100.0
2018-12-14 15:42:29.988455, 100.0
2018-12-14 15:42:30.889778, 100.0
2018-12-14 15:42:31.791090, 100.0
2018-12-14 15:42:32.691591, 100.0
2018-12-14 15:42:33.592633, 100.0
2018-12-14 15:42:34.493944, 100.0
2018-12-14 15:42:35.395262, 100.0
2018-12-14 15:42:36.296598, 100.0
2018-12-14 15:42:37.197920, 100.0
2018-12-14 15:42:38.099231, 100.0
2018-12-14 15:42:39.000575, 100.0
2018-12-14 15:42:39.901904, 100.0
2018-12-14 15:42:40.803235, 100.0
2018-12-14 15:42:41.704634, 100.0
2018-12-14 15:42:42.605943, 100.0
2018-12-14 15:42:43.507275, 100.0
2018-12-14 15:42:44.408578, 100.0
2018-12-14 15:42:45.309918, 100.0
2018-12-14 15:42:46.211223, 100.0
2018-12-14 15:42:47.112564, 100.0
2018-12-14 15:42:48.013874, 100.0
2018-12-14 15:42:48.915238, 100.0
2018-12-14 15:42:49.816622, 100.0
2018-12-14 15:42:50.717943, 100.0
2018-12-14 15:42:51.619259, 100.0
2018-12-14 15:42:52.520646, 100.0
2018-12-14 15:42:53.421962, 100.0
2018-12-14 15:42:54.323264, 100.0
2018-12-14 15:42:55.224571, 100.0
2018-12-14 15:42:56.125903, 100.0
2018-12-14 15:42:57.027234, 100.0
2018-12-14 15:42:57.928554, 100.0
2018-12-14 15:42:58.829902, 100.0
2018-12-14 15:42:59.731212, 100.0
2018-12-14 15:43:00.632580, 100.0
2018-12-14 15:43:01.533901, 100.0
2018-12-14 15:43:02.435233, 100.0
2018-12-14 15:43:03.336585, 100.0
2018-12-14 15:43:04.237912, 100.0
2018-12-14 15:43:05.139219, 100.0
2018-12-14 15:43:06.040546, 100.0
2018-12-14 15:43:06.941861, 100.0
2018-12-14 15:43:07.843175, 100.0
2018-12-14 15:43:08.744498, 100.0
2018-12-14 15:43:09.645809, 100.0
2018-12-14 15:43:10.547119, 100.0
2018-12-14 15:43:11.448460, 100.0
2018-12-14 15:43:12.349770, 100.0
2018-12-14 15:43:13.251083, 100.0
2018-12-14 15:43:14.152625, 100.0
2018-12-14 15:43:15.053940, 100.0
2018-12-14 15:43:15.955267, 100.0
2018-12-14 15:43:16.856607, 100.0
2018-12-14 15:43:17.757991, 100.0
2018-12-14 15:43:18.659352, 100.0
2018-12-14 15:43:19.560652, 100.0
2018-12-14 15:43:20.461969, 100.0
2018-12-14 15:43:21.363293, 100.0
2018-12-14 15:43:22.264592, 100.0
2018-12-14 15:43:23.165867, 100.0
2018-12-14 15:43:24.067177, 100.0
2018-12-14 15:43:24.968511, 100.0
2018-12-14 15:43:25.869880, 100.0
2018-12-14 15:43:26.771845, 100.0
