time, cpu_percent, memory_percent, memory_used, disc_read_bytes, disc_write_bytes, disc_read_time, disc_write_time, net_bytes_sent, net_bytes_recv
2018-12-14 15:33:00.273968, 11.1, 25.7, 116277248, 187421184, 8523776, 25504, 6068, 81503, 495922
2018-12-14 15:33:01.175888, 1.1, 25.8, 116871168, 187421184, 8523776, 25504, 6068, 84205, 1092529
2018-12-14 15:33:02.077838, 0.0, 25.9, 117538816, 187421184, 8523776, 25504, 6068, 87167, 1838244
2018-12-14 15:33:02.979747, 0.0, 25.9, 118333440, 187421184, 9105408, 25504, 6304, 91203, 2561860
2018-12-14 15:33:03.881706, 1.1, 26.0, 118837248, 187421184, 9105408, 25504, 6304, 97073, 3305040
2018-12-14 15:33:04.783643, 0.0, 26.1, 119599104, 187421184, 9105408, 25504, 6304, 102275, 4001149
2018-12-14 15:33:05.685602, 0.0, 26.1, 120233984, 187421184, 9105408, 25504, 6304, 108239, 4745893
2018-12-14 15:33:06.587573, 1.1, 26.2, 120868864, 187421184, 9105408, 25504, 6304, 116839, 5489545
2018-12-14 15:33:07.489486, 0.0, 26.3, 121663488, 187421184, 9105408, 25504, 6304, 124415, 6212729
2018-12-14 15:33:08.391448, 0.0, 26.3, 122392576, 187421184, 9105408, 25504, 6304, 135345, 6957013
2018-12-14 15:33:09.293327, 14.3, 26.7, 122593280, 187953664, 100536320, 25592, 42400, 139725, 7233104
2018-12-14 15:33:10.195247, 2.4, 26.8, 122609664, 187953664, 158339072, 25592, 172088, 140669, 7234216
2018-12-14 15:33:11.097306, 2.4, 26.9, 122650624, 187961856, 216010752, 25600, 301052, 142183, 7234768
2018-12-14 15:33:11.999256, 2.4, 27.0, 122740736, 187961856, 273682432, 25600, 430228, 142419, 7234912
2018-12-14 15:33:12.901206, 1.2, 27.1, 122847232, 187965952, 331485184, 25604, 559656, 142671, 7235200
2018-12-14 15:33:13.803173, 7.0, 27.3, 125161472, 199438848, 389156864, 26052, 689544, 143169, 7235724
2018-12-14 15:33:14.705142, 11.4, 27.2, 124313600, 211776000, 462245888, 28276, 856788, 143641, 7236300
2018-12-14 15:33:15.875831, 60.2, 50.2, 364294144, 218149376, 521768960, 29512, 988156, 143641, 7236300
2018-12-14 15:33:16.777328, 100.0, 50.2, 364572672, 218149376, 579457024, 29512, 1117536, 143641, 7236300
2018-12-14 15:33:17.679263, 100.0, 50.3, 364703744, 218149376, 637259776, 29512, 1246836, 143641, 7236300
2018-12-14 15:33:18.581175, 100.0, 50.2, 364236800, 218149376, 694931456, 29512, 1375916, 143641, 7236300
2018-12-14 15:33:19.483126, 100.0, 50.2, 364347392, 218157568, 752734208, 29524, 1505128, 143641, 7236300
2018-12-14 15:33:20.385089, 100.0, 50.3, 364265472, 218157568, 810405888, 29524, 1634256, 143683, 7236342
2018-12-14 15:33:21.287015, 100.0, 50.3, 364253184, 218165760, 868077568, 29528, 1763200, 143683, 7236342
2018-12-14 15:33:22.188995, 100.0, 50.3, 364290048, 218165760, 925790208, 29528, 1891292, 143683, 7236342
2018-12-14 15:33:23.091005, 100.0, 50.3, 364593152, 218165760, 983592960, 29528, 2022204, 143683, 7236342
2018-12-14 15:33:23.992937, 100.0, 50.3, 364576768, 218169856, 1041264640, 29532, 2151436, 143683, 7236342
2018-12-14 15:33:24.894888, 100.0, 50.3, 364658688, 218169856, 1099067392, 29532, 2280716, 143683, 7236342
2018-12-14 15:33:25.796889, 100.0, 50.3, 364367872, 218173952, 1156739072, 29536, 2409744, 143683, 7236342
2018-12-14 15:33:26.698784, 100.0, 50.4, 364724224, 218173952, 1214541824, 29536, 2539316, 143683, 7236342
2018-12-14 15:33:27.602126, 100.0, 50.4, 364474368, 218178048, 1272344576, 29540, 2668708, 143683, 7236342
2018-12-14 15:33:28.504054, 100.0, 50.3, 364224512, 218178048, 1330016256, 29540, 2798100, 143683, 7236342
2018-12-14 15:33:29.405289, 100.0, 50.3, 364261376, 218182144, 1387687936, 29544, 2927132, 143683, 7236342
2018-12-14 15:33:30.307221, 100.0, 50.3, 364224512, 218182144, 1445359616, 29544, 3056228, 143683, 7236342
2018-12-14 15:33:31.209228, 100.0, 50.4, 364244992, 218182144, 1503162368, 29544, 3185744, 143683, 7236342
2018-12-14 15:33:32.111136, 100.0, 50.4, 364417024, 218186240, 1560834048, 29552, 3315088, 143683, 7236342
2018-12-14 15:33:33.013061, 100.0, 50.4, 364634112, 218186240, 1618636800, 29552, 3444548, 143683, 7236342
2018-12-14 15:33:33.914998, 100.0, 50.4, 364826624, 218190336, 1676439552, 29556, 3573896, 143683, 7236342
2018-12-14 15:33:34.818274, 100.0, 50.4, 364851200, 218190336, 1734111232, 29556, 3703132, 143683, 7236342
2018-12-14 15:33:35.720174, 100.0, 50.4, 364400640, 218194432, 1791782912, 29564, 3832468, 143683, 7236342
2018-12-14 15:33:36.621214, 100.0, 50.4, 364666880, 218194432, 1849454592, 29564, 3961500, 143683, 7236342
2018-12-14 15:33:37.523157, 100.0, 50.5, 364896256, 218194432, 1907257344, 29564, 4090784, 143683, 7236342
2018-12-14 15:33:38.425067, 100.0, 50.4, 364404736, 218198528, 1964929024, 29568, 4219720, 143683, 7236342
2018-12-14 15:33:39.326980, 100.0, 50.4, 364310528, 218198528, 2022731776, 29568, 4349112, 143683, 7236342
2018-12-14 15:33:40.228942, 100.0, 50.5, 364642304, 218202624, 2080403456, 29572, 4478424, 143683, 7236342
2018-12-14 15:33:41.130828, 100.0, 50.5, 364576768, 218202624, 2138075136, 29572, 4607416, 143683, 7236342
2018-12-14 15:33:42.032808, 100.0, 50.5, 364589056, 218206720, 2195877888, 29576, 4736816, 143683, 7236342
2018-12-14 15:33:42.934859, 100.0, 50.5, 364527616, 218206720, 2253549568, 29576, 4865900, 143683, 7236342
2018-12-14 15:33:43.838116, 100.0, 50.5, 364806144, 218206720, 2311352320, 29576, 4995500, 143683, 7236342
2018-12-14 15:33:44.739988, 100.0, 50.4, 364220416, 218210816, 2369024000, 29580, 5124696, 143683, 7236342
2018-12-14 15:33:45.641232, 100.0, 50.5, 364236800, 218210816, 2426826752, 29580, 5254044, 143683, 7236342
2018-12-14 15:33:46.543189, 100.0, 50.5, 364408832, 218214912, 2484498432, 29584, 5383000, 143683, 7236342
2018-12-14 15:33:47.445126, 100.0, 50.5, 364572672, 218214912, 2542301184, 29584, 5512496, 143683, 7236342
2018-12-14 15:33:48.347075, 100.0, 50.5, 364408832, 218214912, 2599972864, 29584, 5641768, 143683, 7236342
2018-12-14 15:33:49.249333, 100.0, 50.5, 364285952, 218214912, 2657644544, 29584, 5770820, 143683, 7236342
2018-12-14 15:33:50.151278, 100.0, 50.5, 364216320, 218214912, 2715447296, 29584, 5900272, 143683, 7236342
2018-12-14 15:33:51.053219, 100.0, 50.5, 364306432, 218214912, 2773118976, 29584, 6029576, 143683, 7236342
2018-12-14 15:33:51.955104, 100.0, 50.5, 364261376, 218214912, 2830921728, 29584, 6158960, 143683, 7236342
2018-12-14 15:33:52.857051, 100.0, 50.5, 364396544, 218214912, 2888593408, 29584, 6288120, 143683, 7236342
2018-12-14 15:33:53.758963, 100.0, 50.5, 364367872, 218214912, 2946265088, 29584, 6417244, 143683, 7236342
2018-12-14 15:33:54.660933, 100.0, 50.5, 364306432, 218214912, 3004067840, 29584, 6546668, 143683, 7236342
2018-12-14 15:33:55.562850, 100.0, 50.5, 364408832, 218214912, 3061870592, 29584, 6676200, 143683, 7236342
2018-12-14 15:33:56.465509, 100.0, 50.5, 364183552, 218214912, 3119542272, 29584, 6805508, 143683, 7236342
2018-12-14 15:33:57.367409, 100.0, 50.6, 364396544, 218214912, 3177213952, 29584, 6934568, 143683, 7236342
2018-12-14 15:33:58.269228, 100.0, 50.6, 364331008, 218214912, 3235016704, 29584, 7063940, 143683, 7236342
2018-12-14 15:33:59.171179, 100.0, 50.6, 364412928, 219076096, 3292688384, 31068, 7193328, 143753, 7236342
2018-12-14 15:34:00.073090, 100.0, 50.6, 364322816, 219076096, 3350360064, 31068, 7322596, 143753, 7236342
2018-12-14 15:34:00.975019, 100.0, 50.6, 364392448, 219215360, 3408162816, 31080, 7451896, 143753, 7236342
2018-12-14 15:34:01.876971, 100.0, 50.6, 364163072, 219215360, 3465834496, 31080, 7580964, 143753, 7236342
2018-12-14 15:34:02.778895, 100.0, 50.6, 364359680, 219411968, 3523637248, 31248, 7710468, 143843, 7236418
2018-12-14 15:34:03.680889, 100.0, 50.6, 364408832, 219411968, 3581308928, 31248, 7839744, 143843, 7236418
2018-12-14 15:34:04.582791, 100.0, 50.6, 364421120, 219411968, 3638980608, 31248, 7968868, 143843, 7236418
2018-12-14 15:34:05.484784, 100.0, 50.6, 364216320, 219411968, 3696783360, 31248, 8098296, 143843, 7236418
2018-12-14 15:34:06.386708, 100.0, 50.6, 364199936, 219411968, 3754455040, 31248, 8227540, 143843, 7236418
2018-12-14 15:34:07.288626, 100.0, 50.8, 365633536, 223135232, 3812257792, 32116, 8357916, 144112, 7237816
2018-12-14 15:34:08.190540, 100.0, 50.8, 365654016, 228267520, 3870060544, 32704, 8486744, 146350, 7239388
2018-12-14 15:34:09.093285, 100.0, 51.2, 370028544, 236717568, 3927089152, 34568, 8626520, 146350, 7239388
2018-12-14 15:34:09.995234, 100.0, 51.3, 370778112, 238040576, 3985559552, 35596, 8744596, 146350, 7239388
2018-12-14 15:34:10.897222, 100.0, 50.9, 366702592, 241419776, 4043231232, 35808, 8873340, 147740, 7239868
2018-12-14 15:34:11.799153, 100.0, 50.9, 366694400, 241423872, 4100902912, 35808, 9002556, 149796, 7240676
2018-12-14 15:34:12.701077, 100.0, 50.9, 366600192, 244398592, 4158705664, 37292, 9132136, 149838, 7240718
2018-12-14 15:34:13.603057, 100.0, 50.9, 366743552, 244398592, 4216414208, 37292, 9261220, 149838, 7240718
2018-12-14 15:34:14.505645, 100.0, 50.9, 366698496, 244398592, 4274216960, 37292, 9390640, 149838, 7240718
2018-12-14 15:34:15.407589, 100.0, 50.9, 366710784, 244398592, 4331888640, 37292, 9520364, 149838, 7240718
2018-12-14 15:34:16.309217, 100.0, 50.9, 366690304, 244398592, 4389560320, 37292, 9649652, 149838, 7240718
2018-12-14 15:34:17.211116, 100.0, 50.9, 366616576, 244398592, 4447363072, 37292, 9779216, 149838, 7240718
2018-12-14 15:34:18.113104, 100.0, 50.9, 366686208, 244402688, 4505034752, 37292, 9908584, 149838, 7240718
2018-12-14 15:34:19.015005, 100.0, 50.9, 366731264, 244402688, 4562837504, 37292, 10038048, 149838, 7240718
2018-12-14 15:34:19.917650, 100.0, 51.0, 366743552, 244406784, 4620509184, 37296, 10164680, 149838, 7240718
2018-12-14 15:34:20.819531, 100.0, 50.9, 366690304, 244406784, 4678180864, 37296, 10296188, 149838, 7240718
2018-12-14 15:34:21.721271, 100.0, 50.9, 366673920, 244406784, 4735983616, 37296, 10425424, 149838, 7240718
2018-12-14 15:34:22.623203, 100.0, 51.0, 366755840, 244406784, 4793655296, 37296, 10554464, 149838, 7240718
2018-12-14 15:34:23.525151, 100.0, 50.9, 366624768, 244406784, 4851458048, 37296, 10684024, 149838, 7240718
2018-12-14 15:34:24.427242, 100.0, 51.0, 366804992, 244410880, 4909129728, 37300, 10813368, 149838, 7240718
2018-12-14 15:34:25.329552, 100.0, 50.9, 366546944, 244410880, 4966932480, 37300, 10942592, 149838, 7240718
2018-12-14 15:34:26.231489, 100.0, 50.9, 366632960, 244410880, 5024604160, 37300, 11070856, 149838, 7240718
2018-12-14 15:34:27.133284, 100.0, 51.0, 366608384, 244414976, 5082275840, 37304, 11201060, 149838, 7240718
2018-12-14 15:34:28.035199, 100.0, 50.9, 366563328, 244414976, 5140078592, 37304, 11329204, 149838, 7240718
2018-12-14 15:34:28.937142, 100.0, 51.0, 366645248, 244419072, 5197750272, 37308, 11459000, 149838, 7240718
2018-12-14 15:34:29.839064, 100.0, 51.0, 366694400, 244419072, 5255553024, 37308, 11589060, 149838, 7240718
2018-12-14 15:34:30.741035, 100.0, 51.0, 366850048, 244423168, 5313224704, 37312, 11718200, 149838, 7240718
2018-12-14 15:34:31.642986, 100.0, 51.0, 366727168, 244423168, 5370896384, 37312, 11847308, 149838, 7240718
2018-12-14 15:34:32.544888, 40.2, 27.7, 125542400, 247511552, 5428699136, 37572, 11977784, 150116, 7240758
2018-12-14 15:34:33.446894, 0.0, 27.8, 125423616, 247515648, 5486403584, 37576, 12106252, 150234, 7240862
2018-12-14 15:34:34.348835, 5.8, 27.8, 125378560, 248561152, 5544075264, 38192, 12235348, 153810, 7241270
2018-12-14 15:34:35.250763, 1.2, 27.8, 124825600, 248565248, 5601878016, 38196, 12364824, 154400, 7241990
2018-12-14 15:34:36.152782, 1.2, 27.8, 124780544, 248565248, 5659549696, 38196, 12494092, 155226, 7242958
2018-12-14 15:34:37.054724, 5.7, 27.9, 125440000, 248573440, 5717221376, 38200, 12623060, 155714, 7243390
2018-12-14 15:34:37.956721, 17.4, 28.0, 126488576, 250396160, 5775024128, 38652, 12755552, 156444, 7244195
2018-12-14 15:34:38.858605, 100.0, 28.0, 126324736, 250396160, 5832712192, 38652, 12881200, 156444, 7244195
2018-12-14 15:34:39.760538, 100.0, 28.0, 126291968, 250400256, 5890461696, 38664, 13010236, 156444, 7244195
2018-12-14 15:34:40.662402, 100.0, 28.0, 126210048, 250400256, 5948129280, 38664, 13139092, 156444, 7244195
2018-12-14 15:34:41.564307, 100.0, 28.0, 126283776, 250404352, 6005841920, 38672, 13268772, 156444, 7244195
2018-12-14 15:34:42.466309, 63.2, 28.0, 126451712, 250404352, 6063583232, 38672, 13399020, 156444, 7244195
2018-12-14 15:34:43.368273, 2.4, 28.0, 126390272, 250596864, 6121385984, 38696, 13528668, 160606, 7245495
2018-12-14 15:34:44.270261, 2.4, 28.0, 126472192, 250596864, 6179057664, 38696, 13657520, 160606, 7245495
2018-12-14 15:34:45.172214, 3.5, 28.0, 126504960, 250596864, 6236729344, 38696, 13786788, 160606, 7245495
2018-12-14 15:34:46.073298, 2.4, 28.0, 126369792, 250600960, 6294532096, 38700, 13916420, 160606, 7245495
2018-12-14 15:34:46.975314, 3.5, 28.0, 126361600, 250600960, 6352203776, 38700, 14045460, 160606, 7245495
2018-12-14 15:34:47.877345, 2.4, 28.1, 126414848, 250609152, 6409875456, 38708, 14174604, 160606, 7245495
2018-12-14 15:34:48.779286, 2.4, 28.0, 126382080, 250609152, 6467678208, 38708, 14304112, 160606, 7245495
2018-12-14 15:34:49.681197, 3.5, 28.1, 126439424, 250613248, 6525349888, 38712, 14433428, 160606, 7245495
2018-12-14 15:34:50.583115, 3.5, 28.0, 126246912, 250613248, 6583152640, 38712, 14562924, 160606, 7245495
2018-12-14 15:34:51.485074, 1.2, 28.1, 126451712, 250617344, 6640824320, 38716, 14692008, 160606, 7245495
2018-12-14 15:34:52.386978, 3.5, 28.1, 126447616, 250617344, 6698496000, 38716, 14821164, 166458, 7246899
2018-12-14 15:34:53.288946, 2.4, 28.1, 126373888, 250617344, 6756298752, 38716, 14950788, 166458, 7246899
2018-12-14 15:34:54.190870, 2.4, 28.1, 126492672, 250621440, 6813970432, 38724, 15080204, 166458, 7246899
2018-12-14 15:34:55.092821, 2.4, 28.1, 126443520, 250621440, 6871773184, 38724, 15209592, 166458, 7246899
2018-12-14 15:34:55.994799, 3.4, 28.1, 126382080, 250625536, 6929444864, 38728, 15338720, 166458, 7246899
2018-12-14 15:34:56.896782, 2.4, 28.1, 126390272, 250625536, 6987116544, 38728, 15467824, 166458, 7246899
2018-12-14 15:34:57.798784, 3.5, 28.1, 126337024, 250629632, 7044919296, 38732, 15597544, 166458, 7246899
2018-12-14 15:34:58.700744, 2.4, 28.2, 126959616, 250629632, 7102590976, 38732, 15726816, 166458, 7246899
2018-12-14 15:34:59.602670, 3.5, 28.1, 126476288, 250629632, 7160393728, 38732, 15856124, 166458, 7246899
2018-12-14 15:35:00.504677, 3.5, 28.1, 126365696, 250715648, 7218065408, 38744, 15985384, 166458, 7246899
2018-12-14 15:35:01.406596, 2.4, 28.3, 127938560, 254795264, 7275606016, 39388, 16114512, 168069, 7248425
2018-12-14 15:35:02.308654, 29.5, 28.4, 129359872, 264211968, 7333470208, 40856, 16257560, 170001, 7250217
2018-12-14 15:35:03.210574, 3.5, 28.3, 128688128, 264216064, 7391277056, 40856, 16374000, 184561, 7265597
2018-12-14 15:35:04.112563, 1.2, 28.4, 128999424, 264220160, 7448948736, 40860, 16503100, 184561, 7265597
2018-12-14 15:35:05.014498, 3.5, 28.4, 128872448, 264220160, 7506751488, 40860, 16632528, 184561, 7265597
2018-12-14 15:35:05.916493, 3.5, 28.4, 128802816, 264220160, 7564423168, 40860, 16761900, 184561, 7265597
2018-12-14 15:35:06.818439, 1.2, 28.4, 128753664, 264224256, 7622094848, 40864, 16890760, 184561, 7265597
2018-12-14 15:35:07.720436, 3.4, 28.4, 128782336, 264224256, 7679897600, 40864, 17020180, 184561, 7265597
2018-12-14 15:35:08.622378, 2.4, 28.4, 128757760, 264228352, 7737569280, 40868, 17149240, 184561, 7265597
2018-12-14 15:35:09.524286, 1.2, 28.4, 128839680, 264228352, 7795372032, 40868, 17278936, 184561, 7265597
2018-12-14 15:35:10.426289, 3.4, 28.4, 128806912, 264232448, 7853043712, 40872, 17408000, 184561, 7265597
2018-12-14 15:35:11.328218, 3.5, 28.4, 128794624, 264232448, 7910715392, 40872, 17537020, 184561, 7265597
2018-12-14 15:35:12.229252, 2.4, 28.4, 128925696, 264236544, 7968387072, 40876, 17666144, 184561, 7265597
2018-12-14 15:35:13.131236, 3.5, 28.4, 129409024, 264236544, 8026189824, 40876, 17795536, 184561, 7265597
2018-12-14 15:35:14.033235, 2.3, 28.4, 128843776, 264236544, 8083861504, 40876, 17924892, 184561, 7265597
2018-12-14 15:35:14.935137, 2.4, 28.4, 128704512, 264240640, 8141664256, 40880, 18054160, 184561, 7265597
2018-12-14 15:35:15.837138, 2.4, 28.4, 128782336, 264240640, 8199335936, 40880, 18183252, 184561, 7265597
2018-12-14 15:35:16.739155, 2.4, 28.4, 128819200, 264244736, 8257007616, 40884, 18312404, 184561, 7265597
2018-12-14 15:35:17.641151, 3.5, 28.4, 128741376, 264244736, 8314810368, 40884, 18442024, 184561, 7265597
2018-12-14 15:35:18.543159, 2.4, 28.4, 128987136, 264252928, 8372482048, 40892, 18571260, 184561, 7265597
2018-12-14 15:35:19.447628, 2.4, 28.4, 128684032, 264257024, 8430428160, 40892, 18700888, 184561, 7265597
2018-12-14 15:35:20.349279, 2.3, 28.4, 128847872, 264257024, 8488099840, 40892, 18829964, 184603, 7265639
2018-12-14 15:35:21.251232, 3.5, 28.4, 128671744, 264261120, 8545902592, 40896, 18959392, 184603, 7265639
2018-12-14 15:35:22.153257, 1.2, 28.4, 128716800, 264261120, 8603574272, 40896, 19088716, 184603, 7265639
2018-12-14 15:35:23.055160, 3.5, 28.4, 128843776, 264265216, 8661245952, 40900, 19217836, 184603, 7265639
2018-12-14 15:35:23.957106, 2.4, 28.4, 128757760, 264265216, 8719048704, 40900, 19347280, 184603, 7265639
2018-12-14 15:35:24.859133, 4.6, 28.4, 128925696, 264269312, 8776720384, 40904, 19476504, 184603, 7265639
2018-12-14 15:35:25.761113, 3.5, 28.4, 128688128, 264269312, 8834523136, 40904, 19605976, 184603, 7265639
2018-12-14 15:35:26.663116, 2.4, 28.4, 128798720, 264269312, 8892194816, 40904, 19735264, 184603, 7265639
2018-12-14 15:35:27.565102, 3.4, 28.4, 128765952, 264273408, 8949866496, 40908, 19864324, 184603, 7265639
2018-12-14 15:35:28.467068, 2.4, 28.4, 128659456, 264273408, 9007669248, 40908, 19993792, 184603, 7265639
2018-12-14 15:35:29.369035, 3.5, 28.4, 128790528, 264277504, 9065340928, 40912, 20122900, 184603, 7265639
2018-12-14 15:35:30.271007, 1.2, 28.4, 128839680, 264277504, 9123143680, 40912, 20252428, 184603, 7265639
2018-12-14 15:35:31.173001, 3.5, 28.4, 128946176, 264281600, 9180815360, 40916, 20381484, 184603, 7265639
2018-12-14 15:35:32.074898, 3.5, 28.4, 128720896, 264281600, 9238487040, 40916, 20510536, 184603, 7265639
2018-12-14 15:35:32.976880, 2.3, 28.4, 128786432, 264281600, 9296289792, 40916, 20640032, 184603, 7265639
2018-12-14 15:35:33.878808, 3.5, 28.4, 128729088, 264285696, 9353961472, 40920, 20769196, 184603, 7265639
2018-12-14 15:35:34.780922, 2.4, 28.4, 128802816, 264285696, 9411764224, 40920, 20898712, 184603, 7265639
2018-12-14 15:35:35.682869, 3.5, 28.4, 128684032, 264289792, 9469435904, 40924, 21027740, 184603, 7265639
2018-12-14 15:35:36.584845, 2.4, 28.4, 128819200, 264289792, 9527238656, 40924, 21157176, 184603, 7265639
2018-12-14 15:35:37.486778, 3.5, 28.4, 128688128, 264293888, 9584910336, 40928, 21286400, 184603, 7265639
2018-12-14 15:35:38.388787, 2.4, 28.4, 128794624, 264293888, 9642582016, 40928, 21415548, 184603, 7265639
2018-12-14 15:35:39.290745, 3.5, 28.4, 128765952, 264293888, 9700384768, 40928, 21544928, 184603, 7265639
2018-12-14 15:35:40.192688, 2.4, 28.4, 128647168, 264297984, 9758056448, 40932, 21673916, 184603, 7265639
2018-12-14 15:35:41.094619, 2.4, 28.4, 128798720, 264297984, 9815859200, 40932, 21803388, 184603, 7265639
2018-12-14 15:35:41.996607, 2.4, 28.4, 128704512, 264302080, 9873530880, 40936, 21932632, 184603, 7265639
2018-12-14 15:35:42.898578, 3.4, 28.4, 128827392, 264302080, 9931202560, 40936, 22061872, 184603, 7265639
2018-12-14 15:35:43.800562, 1.2, 28.4, 128647168, 264306176, 9989005312, 40940, 22191244, 184603, 7265639
2018-12-14 15:35:44.702492, 3.5, 28.4, 128684032, 264306176, 10046676992, 40940, 22320364, 184603, 7265639
2018-12-14 15:35:45.604472, 2.4, 28.4, 128831488, 264306176, 10104479744, 40940, 22449980, 184603, 7265639
2018-12-14 15:35:46.506559, 2.3, 28.4, 128724992, 264310272, 10162151424, 40944, 22579304, 184603, 7265639
2018-12-14 15:35:47.408503, 2.4, 28.4, 128753664, 264310272, 10219954176, 40944, 22708596, 184603, 7265639
2018-12-14 15:35:48.310615, 3.5, 28.5, 128917504, 264314368, 10277625856, 40948, 22837668, 184603, 7265639
2018-12-14 15:35:49.212575, 3.4, 28.4, 128741376, 264314368, 10335297536, 40948, 22966880, 184603, 7265639
2018-12-14 15:35:50.114528, 1.2, 28.4, 128819200, 264322560, 10393100288, 40956, 23096540, 184603, 7265639
2018-12-14 15:35:51.016534, 3.5, 28.4, 128733184, 264322560, 10450771968, 40956, 23225796, 184603, 7265639
2018-12-14 15:35:51.918475, 2.4, 28.4, 128716800, 264322560, 10508574720, 40956, 23355164, 184603, 7265639
2018-12-14 15:35:52.820461, 1.2, 28.5, 128880640, 264326656, 10566246400, 40960, 23484260, 184603, 7265639
2018-12-14 15:35:53.722404, 3.5, 28.4, 128729088, 264326656, 10623918080, 40960, 23613596, 184603, 7265639
2018-12-14 15:35:54.624408, 2.4, 28.4, 128778240, 264330752, 10681720832, 40964, 23743188, 184603, 7265639
2018-12-14 15:35:55.526305, 1.2, 28.4, 128892928, 264330752, 10739392512, 40964, 23872304, 184603, 7265639
2018-12-14 15:35:56.428219, 3.5, 28.5, 128946176, 264334848, 10797195264, 40968, 24001704, 184603, 7265639
2018-12-14 15:35:57.330345, 3.5, 28.4, 128823296, 264334848, 10854866944, 40968, 24130964, 184603, 7265639
2018-12-14 15:35:58.232329, 2.4, 28.4, 128811008, 264334848, 10912669696, 40968, 24260680, 184603, 7265639
2018-12-14 15:35:59.134337, 4.6, 28.4, 128679936, 264338944, 10970341376, 40972, 24390092, 184603, 7265639
2018-12-14 15:36:00.036266, 4.5, 28.4, 128794624, 264338944, 11028013056, 40972, 24519224, 184603, 7265639
2018-12-14 15:36:00.938273, 2.4, 28.4, 128733184, 265383424, 11085815808, 41200, 24648748, 184673, 7265639
2018-12-14 15:36:01.840235, 3.5, 28.5, 129310720, 265383424, 11143487488, 41200, 24778052, 184673, 7265639
2018-12-14 15:36:02.741548, 2.4, 28.4, 128880640, 265387520, 11201159168, 41208, 24907452, 184673, 7265639
2018-12-14 15:36:03.643480, 2.4, 28.2, 126779392, 273841664, 11258961920, 42484, 25037120, 184959, 7265871
2018-12-14 15:36:04.545442, 3.5, 28.2, 126697472, 273841664, 11316600832, 42484, 25166136, 184959, 7265871
2018-12-14 15:36:05.447361, 2.3, 28.2, 126611456, 273845760, 11374403584, 42488, 25295444, 184959, 7265871
2018-12-14 15:36:06.349289, 3.5, 28.2, 126656512, 273845760, 11432075264, 42488, 25424632, 184959, 7265871
2018-12-14 15:36:07.251260, 2.4, 28.2, 126717952, 273849856, 11489878016, 42492, 25554092, 184959, 7265871
2018-12-14 15:36:08.153227, 2.4, 28.2, 126627840, 273849856, 11547549696, 42492, 25683404, 185001, 7265913
2018-12-14 15:36:09.055142, 3.4, 28.3, 126967808, 273853952, 11605221376, 42496, 25812556, 185001, 7265913
2018-12-14 15:36:09.957101, 3.5, 28.2, 126595072, 273853952, 11663024128, 42496, 25941988, 185001, 7265913
2018-12-14 15:36:10.859043, 1.2, 28.2, 126742528, 273853952, 11720695808, 42496, 26071300, 185091, 7265989
2018-12-14 15:36:11.761007, 3.5, 28.2, 126611456, 273858048, 11778367488, 42500, 26200612, 185091, 7265989
2018-12-14 15:36:12.663558, 3.4, 28.2, 126697472, 273858048, 11836170240, 42500, 26330016, 185091, 7265989
2018-12-14 15:36:13.565487, 2.4, 28.2, 126664704, 273862144, 11893972992, 42504, 26459416, 185133, 7266031
2018-12-14 15:36:14.467420, 3.5, 28.2, 126660608, 273862144, 11951644672, 42504, 26588672, 185133, 7266031
2018-12-14 15:36:15.369317, 3.5, 28.2, 126627840, 273866240, 12009316352, 42512, 26718040, 185133, 7266031
2018-12-14 15:36:16.271300, 1.2, 28.2, 126746624, 273866240, 12067119104, 42512, 26847336, 185133, 7266031
2018-12-14 15:36:17.173230, 3.5, 28.2, 126672896, 273866240, 12124790784, 42512, 26976324, 185133, 7266031
2018-12-14 15:36:18.075142, 2.3, 28.2, 126689280, 273870336, 12182593536, 42516, 27105588, 185133, 7266031
2018-12-14 15:36:18.977119, 3.5, 28.2, 126541824, 273870336, 12240265216, 42516, 27234844, 185133, 7266031
2018-12-14 15:36:19.879030, 2.3, 28.2, 126582784, 273874432, 12297936896, 42520, 27364156, 185133, 7266031
2018-12-14 15:36:20.781413, 1.2, 28.2, 126750720, 273874432, 12355739648, 42520, 27493508, 185133, 7266031
2018-12-14 15:36:21.683372, 2.4, 28.2, 126705664, 273882624, 12413411328, 42528, 27622568, 185133, 7266031
2018-12-14 15:36:22.585363, 2.4, 28.2, 126726144, 273882624, 12471214080, 42528, 27751936, 185133, 7266031
2018-12-14 15:36:23.487257, 3.4, 28.2, 126889984, 273886720, 12528885760, 42532, 27881296, 185133, 7266031
2018-12-14 15:36:24.389225, 2.4, 28.2, 126722048, 273886720, 12586688512, 42532, 28010796, 185133, 7266031
2018-12-14 15:36:25.291392, 2.4, 28.2, 126705664, 273886720, 12644360192, 42532, 28139788, 185133, 7266031
2018-12-14 15:36:26.193293, 3.5, 28.2, 126615552, 273890816, 12702162944, 42536, 28269184, 185133, 7266031
2018-12-14 15:36:27.095327, 2.4, 28.2, 126607360, 273890816, 12759834624, 42536, 28398456, 185133, 7266031
2018-12-14 15:36:27.997373, 1.2, 28.2, 126738432, 273894912, 12817506304, 42540, 28527824, 185133, 7266031
2018-12-14 15:36:28.904045, 3.4, 28.2, 126648320, 273899008, 12875583488, 42544, 28658112, 185133, 7266031
2018-12-14 15:36:29.805951, 1.1, 28.2, 126803968, 273903104, 12933255168, 42576, 28788240, 185133, 7266031
2018-12-14 15:36:30.707970, 4.4, 27.8, 122675200, 281841152, 12990926848, 42872, 28948628, 185133, 7266031
2018-12-14 15:36:31.609274, 23.5, 28.3, 127455232, 289603072, 13046923264, 43712, 29046276, 185133, 7266031
2018-12-14 15:36:32.511252, 14.1, 28.8, 132497408, 296345088, 13104603136, 44884, 29176144, 185133, 7266031
2018-12-14 15:36:33.413184, 10.8, 29.1, 136126464, 303730176, 13163225088, 45992, 29306512, 185133, 7266031
2018-12-14 15:36:34.315119, 30.2, 29.1, 136515584, 311344640, 13221847040, 49968, 29437504, 185133, 7266031
2018-12-14 15:36:35.217109, 7.2, 29.4, 139468800, 321154560, 13279199232, 50864, 29567600, 185133, 7266031
2018-12-14 15:36:36.119132, 24.1, 30.0, 145817600, 323464704, 13337354240, 51712, 29697496, 185133, 7266031
2018-12-14 15:36:37.021031, 36.0, 30.6, 151736320, 328928768, 13395058688, 52440, 29827404, 185133, 7266031
2018-12-14 15:36:37.922965, 33.7, 31.1, 157159424, 334409216, 13452746752, 53136, 29963268, 185133, 7266031
2018-12-14 15:36:38.824921, 40.2, 31.7, 163635200, 337559040, 13510492160, 54120, 30086304, 186422, 7267414
2018-12-14 15:36:39.726823, 55.8, 32.3, 170024960, 340016640, 13568270336, 54564, 30215856, 186422, 7267414
2018-12-14 15:36:40.628810, 71.6, 33.0, 177491968, 345812480, 13625974784, 55952, 30344796, 187552, 7267534
2018-12-14 15:36:41.530716, 25.9, 33.4, 181280768, 348339712, 13683666944, 56636, 30474016, 195493, 7275475
2018-12-14 15:36:42.432703, 58.0, 34.1, 189136896, 350936576, 13741223936, 57420, 30606236, 195493, 7275475
2018-12-14 15:36:43.336541, 52.8, 35.3, 201789440, 353762816, 13799190528, 57948, 30733524, 195493, 7275475
2018-12-14 15:36:44.238481, 98.9, 38.1, 231059456, 356380160, 13857009664, 58440, 30863120, 195493, 7275475
2018-12-14 15:36:45.140480, 71.3, 38.8, 238166016, 359624192, 13914714112, 59200, 30993204, 195493, 7275475
2018-12-14 15:36:46.042389, 91.3, 39.6, 246173696, 361688576, 13972459520, 59676, 31122420, 201309, 7281291
2018-12-14 15:36:46.944314, 51.8, 40.1, 251977728, 363908608, 14030090240, 60160, 31251824, 201309, 7281291
2018-12-14 15:36:47.846276, 62.1, 40.8, 259338240, 366390784, 14087987200, 60792, 31381564, 234283, 7314265
2018-12-14 15:36:48.749385, 51.7, 40.3, 254590976, 368930304, 14145675264, 61272, 31510984, 234335, 7314317
2018-12-14 15:36:49.651342, 75.9, 41.0, 260952064, 370277888, 14203363328, 61972, 31640244, 234335, 7314317
2018-12-14 15:36:50.553278, 51.1, 39.5, 245563392, 376454656, 14261067776, 63276, 31769260, 300965, 7325779
2018-12-14 15:36:51.455254, 2.4, 26.0, 105893888, 377019904, 14318809088, 64108, 31898636, 300965, 7325779
2018-12-14 15:36:52.357196, 3.4, 26.1, 105844736, 377019904, 14376611840, 64108, 32028256, 300965, 7325779
2018-12-14 15:36:53.259153, 2.4, 26.1, 105213952, 377024000, 14434340864, 64112, 32157484, 300965, 7325779
2018-12-14 15:36:54.161129, 2.4, 26.1, 105394176, 377024000, 14491955200, 64112, 32286620, 300965, 7325779
2018-12-14 15:36:55.063270, 3.5, 26.1, 105259008, 377024000, 14549757952, 64112, 32416332, 300965, 7325779
2018-12-14 15:36:55.965237, 2.4, 26.1, 105295872, 377024000, 14607429632, 64112, 32545492, 300965, 7325779
2018-12-14 15:36:56.867203, 2.4, 26.1, 105209856, 377028096, 14665232384, 64116, 32675060, 300965, 7325779
2018-12-14 15:36:57.769129, 3.5, 26.1, 105209856, 377028096, 14722904064, 64116, 32803888, 300965, 7325779
2018-12-14 15:36:58.671078, 5.8, 26.2, 105967616, 377386496, 14780706816, 65080, 32933528, 300965, 7325779
2018-12-14 15:36:59.573172, 46.6, 26.1, 105492480, 386185728, 14838378496, 81688, 33062368, 300965, 7325779
2018-12-14 15:37:00.475056, 4.8, 26.1, 105246720, 386505216, 14896115712, 81692, 33191652, 301462, 7326535
2018-12-14 15:37:01.376996, 2.4, 26.1, 105435136, 386509312, 14953861120, 81696, 33321140, 301462, 7326535
2018-12-14 15:37:02.279226, 2.3, 26.1, 105394176, 386509312, 15011606528, 81696, 33442660, 301462, 7326535
2018-12-14 15:37:03.181186, 1.1, 26.1, 105488384, 386513408, 15069335552, 81696, 33643460, 301462, 7326535
2018-12-14 15:37:04.083159, 1.1, 26.1, 105508864, 386513408, 15127007232, 81696, 33830936, 301462, 7326535
2018-12-14 15:37:04.985182, 3.7, 26.1, 105308160, 492005888, 15173021696, 83036, 33892308, 301462, 7326535
2018-12-14 15:37:05.887146, 3.6, 26.1, 105414656, 549808640, 15225188352, 84812, 33934736, 301462, 7326535
2018-12-14 15:37:06.789076, 4.7, 26.1, 105336832, 607480320, 15281549312, 86596, 33981484, 301462, 7326535
2018-12-14 15:37:07.690978, 4.7, 26.1, 105365504, 665283072, 15344463872, 88368, 34027828, 301462, 7326535
2018-12-14 15:37:08.592968, 3.6, 26.1, 105353216, 722954752, 15407378432, 90120, 34064060, 301462, 7326535
2018-12-14 15:37:09.494900, 2.4, 26.1, 105390080, 780495360, 15464656896, 91896, 34091176, 301462, 7326535
2018-12-14 15:37:10.396925, 4.6, 26.1, 105320448, 814180864, 15531110400, 93332, 34206848, 301462, 7326535
2018-12-14 15:37:11.298906, 2.3, 26.1, 105324544, 852847104, 15587078144, 95472, 34331940, 301462, 7326535
2018-12-14 15:37:12.200875, 6.0, 26.1, 105385984, 953903616, 15629021184, 97200, 34366652, 301462, 7326535
2018-12-14 15:37:13.102763, 3.6, 26.1, 105336832, 1011575296, 15691935744, 98968, 34414644, 301462, 7326535
2018-12-14 15:37:14.004757, 4.7, 26.1, 105426944, 1069018624, 15751311360, 100848, 34457004, 301462, 7326535
2018-12-14 15:37:14.906878, 3.6, 26.1, 105345024, 1121840640, 15819730944, 102444, 34512804, 301462, 7326535
2018-12-14 15:37:15.808921, 3.4, 26.1, 105279488, 1150152192, 15877402624, 104032, 34640324, 301462, 7326535
2018-12-14 15:37:16.710846, 3.7, 26.1, 105275392, 1241771520, 15916462080, 106136, 34720916, 301462, 7326535
2018-12-14 15:37:17.612808, 3.6, 26.2, 105394176, 1300360704, 15975706624, 107956, 34771160, 301504, 7326577
2018-12-14 15:37:18.514814, 4.7, 26.1, 105353216, 1358032384, 16038621184, 109684, 34818428, 301504, 7326577
2018-12-14 15:37:19.416807, 3.5, 26.1, 105291776, 1415572992, 16092884992, 111448, 34854828, 301504, 7326577
2018-12-14 15:37:20.319003, 3.5, 26.1, 105308160, 1466560000, 16166154240, 113108, 34946368, 301504, 7326577
2018-12-14 15:37:21.220992, 2.3, 26.2, 105480192, 1495920128, 16223432704, 114944, 35074796, 301504, 7326577
2018-12-14 15:37:22.122910, 2.5, 26.1, 105349120, 1588325888, 16264065024, 116760, 35127504, 301504, 7326577
2018-12-14 15:37:23.024929, 3.5, 26.1, 105299968, 1646652928, 16322260992, 118556, 35174520, 301504, 7326577
2018-12-14 15:37:23.926875, 3.5, 26.2, 105377792, 1704455680, 16385175552, 120340, 35221788, 301504, 7326577
2018-12-14 15:37:24.829009, 5.9, 26.1, 105299968, 1762127360, 16442060800, 122084, 35253808, 301504, 7326577
2018-12-14 15:37:25.730950, 1.2, 26.2, 105492480, 1795288576, 16512446464, 123468, 35373164, 301504, 7326577
2018-12-14 15:37:26.632881, 2.4, 26.2, 105398272, 1838018048, 16567496704, 125660, 35496348, 301504, 7326577
2018-12-14 15:37:27.534809, 6.0, 26.2, 105328640, 1935273472, 16609439744, 127408, 35531648, 301504, 7326577
2018-12-14 15:37:28.437052, 1.2, 26.1, 105271296, 1993076224, 16672354304, 129188, 35579392, 301504, 7326577
2018-12-14 15:37:29.338981, 4.7, 26.2, 105377792, 2050747904, 16731729920, 130956, 35621792, 301504, 7326577
2018-12-14 15:37:30.240990, 4.7, 26.1, 105308160, 2102128128, 16801067008, 132528, 35679468, 301504, 7326577
2018-12-14 15:37:31.142981, 3.4, 26.2, 105410560, 2131619328, 16858869760, 134084, 35807572, 301504, 7326577
2018-12-14 15:37:32.044966, 2.5, 26.1, 105361408, 2223762944, 16895963136, 136264, 35888076, 301504, 7326577
2018-12-14 15:37:32.946902, 3.5, 26.1, 105259008, 2281696768, 16957829120, 138036, 35939212, 301504, 7326577
2018-12-14 15:37:33.848844, 3.6, 26.1, 105287680, 2339368448, 17020743680, 139816, 35986204, 301504, 7326577
2018-12-14 15:37:34.750772, 2.4, 26.1, 105287680, 2397171200, 17073475584, 141532, 36011428, 301504, 7326577
2018-12-14 15:37:35.652744, 4.6, 26.1, 105263104, 2438327808, 17147404288, 142888, 36101244, 301504, 7326577
2018-12-14 15:37:36.554664, 2.3, 26.1, 105357312, 2468998656, 17205207040, 144856, 36230784, 301504, 7326577
2018-12-14 15:37:37.573050, 3.6, 26.1, 105410560, 2537700864, 17270349824, 145968, 36315748, 301504, 7326577
2018-12-14 15:37:38.475140, 64.4, 26.1, 105361408, 2539126272, 17290436608, 145980, 36360996, 301504, 7326577
2018-12-14 15:37:39.377114, 100.0, 26.1, 105439232, 2540961280, 17290436608, 145992, 36360996, 301504, 7326577
2018-12-14 15:37:40.279074, 7.1, 26.0, 105259008, 2660367872, 17290448896, 147692, 36361000, 301504, 7326577
2018-12-14 15:37:41.181084, 1.2, 26.0, 105254912, 2718039552, 17290448896, 149476, 36361000, 301504, 7326577
2018-12-14 15:37:42.083010, 3.4, 25.9, 105308160, 2775711232, 17290448896, 151268, 36361000, 301504, 7326577
2018-12-14 15:37:42.984992, 1.2, 25.8, 105373696, 2833513984, 17290448896, 153048, 36361000, 301504, 7326577
2018-12-14 15:37:43.886880, 2.3, 25.8, 105324544, 2891185664, 17290448896, 154832, 36361000, 301504, 7326577
2018-12-14 15:37:44.788843, 2.3, 25.7, 105328640, 2948988416, 17290448896, 156612, 36361000, 301504, 7326577
2018-12-14 15:37:45.690814, 2.3, 25.6, 105349120, 3006660096, 17290448896, 158400, 36361000, 301504, 7326577
2018-12-14 15:37:46.592885, 0.0, 25.6, 105336832, 3064331776, 17290448896, 160184, 36361000, 301504, 7326577
2018-12-14 15:37:47.494916, 3.4, 25.5, 105320448, 3122134528, 17290448896, 161952, 36361000, 301504, 7326577
2018-12-14 15:37:48.396886, 2.3, 25.4, 105357312, 3179806208, 17290448896, 163732, 36361000, 301504, 7326577
2018-12-14 15:37:49.298868, 2.3, 25.3, 105295872, 3237608960, 17290448896, 165508, 36361000, 301504, 7326577
2018-12-14 15:37:50.200815, 2.3, 25.3, 105279488, 3295280640, 17290448896, 167276, 36361000, 301504, 7326577
2018-12-14 15:37:51.102756, 1.1, 25.3, 105279488, 3353083392, 17290448896, 169080, 36361000, 301504, 7326577
2018-12-14 15:37:52.004698, 2.3, 25.3, 105349120, 3410755072, 17290448896, 170856, 36361000, 301504, 7326577
2018-12-14 15:37:52.906607, 0.0, 25.3, 105308160, 3468426752, 17290448896, 172652, 36361000, 301504, 7326577
2018-12-14 15:37:53.808565, 2.3, 25.3, 105369600, 3526229504, 17290448896, 174452, 36361000, 301504, 7326577
2018-12-14 15:37:54.710676, 1.1, 25.3, 105308160, 3583901184, 17290448896, 176236, 36361000, 301504, 7326577
2018-12-14 15:37:55.612669, 3.4, 25.3, 105287680, 3641703936, 17290448896, 178028, 36361000, 301504, 7326577
2018-12-14 15:37:56.514629, 0.0, 25.3, 105287680, 3699375616, 17290448896, 179816, 36361000, 301504, 7326577
2018-12-14 15:37:57.416627, 2.3, 25.3, 105332736, 3757178368, 17290448896, 181596, 36361000, 301504, 7326577
2018-12-14 15:37:58.318604, 1.1, 25.3, 105299968, 3814850048, 17290448896, 183380, 36361000, 301504, 7326577
2018-12-14 15:37:59.220585, 2.3, 25.3, 105259008, 3872652800, 17290448896, 185172, 36361000, 301504, 7326577
2018-12-14 15:38:00.122535, 1.2, 25.3, 105340928, 3930425856, 17290448896, 187184, 36361000, 301504, 7326577
2018-12-14 15:38:01.024518, 2.3, 25.3, 105263104, 3988097536, 17290448896, 188976, 36361000, 301504, 7326577
2018-12-14 15:38:01.926452, 2.3, 25.3, 105332736, 4045769216, 17290448896, 190752, 36361000, 301504, 7326577
2018-12-14 15:38:02.828450, 0.0, 25.3, 105259008, 4103571968, 17290448896, 192556, 36361000, 301504, 7326577
2018-12-14 15:38:03.730380, 2.3, 25.3, 105267200, 4161243648, 17290448896, 194328, 36361000, 301504, 7326577
2018-12-14 15:38:04.632321, 1.1, 25.3, 105275392, 4219021824, 17290448896, 196140, 36361000, 301504, 7326577
2018-12-14 15:38:05.534289, 2.3, 25.3, 105316352, 4276693504, 17290448896, 197916, 36361000, 301504, 7326577
2018-12-14 15:38:06.436263, 0.0, 25.3, 105316352, 4334496256, 17290448896, 199712, 36361000, 301504, 7326577
2018-12-14 15:38:07.338264, 2.3, 25.3, 105369600, 4392172032, 17290461184, 201504, 36361004, 301504, 7326577
2018-12-14 15:38:08.240236, 1.1, 25.3, 105291776, 4449843712, 17290461184, 203300, 36361004, 301504, 7326577
2018-12-14 15:38:09.142150, 1.2, 25.3, 105324544, 4507646464, 17290461184, 205092, 36361004, 301504, 7326577
2018-12-14 15:38:10.044106, 1.2, 25.3, 105287680, 4565318144, 17290461184, 206884, 36361004, 301504, 7326577
2018-12-14 15:38:10.946034, 3.4, 25.3, 105250816, 4623120896, 17290461184, 208656, 36361004, 301504, 7326577
2018-12-14 15:38:11.848002, 1.2, 25.3, 105279488, 4680792576, 17290461184, 210452, 36361004, 301504, 7326577
2018-12-14 15:38:12.749935, 0.0, 25.3, 105492480, 4685920768, 17290465280, 210608, 36361008, 301504, 7326577
2018-12-14 15:38:13.651903, 0.0, 25.3, 105492480, 4685920768, 17290465280, 210608, 36361008, 301504, 7326577
2018-12-14 15:38:14.553846, 0.0, 25.3, 105492480, 4685920768, 17290465280, 210608, 36361008, 301504, 7326577
2018-12-14 15:38:15.455893, 2.5, 25.3, 105832448, 4724259328, 17290465280, 213168, 36361008, 301504, 7326577
2018-12-14 15:38:16.357839, 42.5, 24.1, 106778624, 4730104320, 17307185152, 214284, 36400112, 301546, 7326619
2018-12-14 15:38:17.259741, 48.9, 23.2, 104448000, 4735228416, 17333927936, 214452, 36402436, 307822, 7326779
2018-12-14 15:38:18.161721, 0.0, 23.2, 104448000, 4735228416, 17333927936, 214452, 36402436, 307822, 7326779
2018-12-14 15:38:19.063720, 0.0, 23.2, 104448000, 4735228416, 17333927936, 214452, 36402436, 307822, 7326779
2018-12-14 15:38:19.965821, 0.0, 23.2, 104448000, 4735228416, 17333927936, 214452, 36402436, 307822, 7326779
2018-12-14 15:38:20.867819, 0.0, 23.2, 104448000, 4735228416, 17333927936, 214452, 36402436, 307822, 7326779
2018-12-14 15:38:21.769787, 0.0, 23.2, 104448000, 4735228416, 17333927936, 214452, 36402436, 307822, 7326779
2018-12-14 15:38:22.671742, 0.0, 23.2, 104448000, 4735228416, 17333927936, 214452, 36402436, 307822, 7326779
2018-12-14 15:38:23.573791, 0.0, 23.2, 104448000, 4735228416, 17333927936, 214452, 36402436, 307822, 7326779
2018-12-14 15:38:24.475792, 0.0, 23.2, 104448000, 4735228416, 17333927936, 214452, 36402436, 307822, 7326779
2018-12-14 15:38:25.377774, 0.0, 23.2, 104448000, 4735228416, 17333927936, 214452, 36402436, 307822, 7326779
2018-12-14 15:38:26.279722, 0.0, 23.2, 104448000, 4735228416, 17333927936, 214452, 36402436, 307822, 7326779
2018-12-14 15:38:27.181722, 0.0, 23.2, 104448000, 4735228416, 17333927936, 214452, 36402436, 307822, 7326779
2018-12-14 15:38:28.083661, 0.0, 23.2, 104448000, 4735228416, 17333927936, 214452, 36402436, 307822, 7326779
2018-12-14 15:38:28.985596, 0.0, 23.2, 104448000, 4735228416, 17333927936, 214452, 36402436, 307822, 7326779
2018-12-14 15:38:29.887542, 0.0, 23.2, 104448000, 4735228416, 17333927936, 214452, 36402436, 307822, 7326779
2018-12-14 15:38:30.789560, 0.0, 23.2, 104448000, 4735228416, 17333927936, 214452, 36402436, 307822, 7326779
2018-12-14 15:38:31.691494, 0.0, 23.2, 104448000, 4735228416, 17333927936, 214452, 36402436, 307822, 7326779
2018-12-14 15:38:32.593507, 0.0, 23.2, 104448000, 4735228416, 17333927936, 214452, 36402436, 307822, 7326779
2018-12-14 15:38:33.495558, 0.0, 23.2, 104448000, 4735228416, 17333927936, 214452, 36402436, 307822, 7326779
2018-12-14 15:38:34.397617, 0.0, 23.2, 104448000, 4735228416, 17333927936, 214452, 36402436, 307822, 7326779
2018-12-14 15:38:35.299732, 0.0, 23.2, 104448000, 4735228416, 17333927936, 214452, 36402436, 307822, 7326779
2018-12-14 15:38:36.201729, 0.0, 23.2, 104448000, 4735228416, 17333927936, 214452, 36402436, 307822, 7326779
2018-12-14 15:38:37.103703, 0.0, 23.2, 104448000, 4735228416, 17333927936, 214452, 36402436, 307822, 7326779
2018-12-14 15:38:38.005693, 0.0, 23.2, 104448000, 4735228416, 17333927936, 214452, 36402436, 307822, 7326779
2018-12-14 15:38:38.907640, 0.0, 23.2, 104448000, 4735228416, 17333927936, 214452, 36402436, 307822, 7326779
2018-12-14 15:38:39.809782, 0.0, 23.2, 104448000, 4735228416, 17333927936, 214452, 36402436, 307822, 7326779
2018-12-14 15:38:40.711739, 0.0, 23.2, 104448000, 4735228416, 17333927936, 214452, 36402436, 307822, 7326779
2018-12-14 15:38:41.613743, 0.0, 23.2, 104448000, 4735228416, 17333927936, 214452, 36402436, 307822, 7326779
2018-12-14 15:38:42.515706, 0.0, 23.2, 104448000, 4735228416, 17333927936, 214452, 36402436, 307822, 7326779
2018-12-14 15:38:43.417706, 0.0, 23.2, 104448000, 4735228416, 17333927936, 214452, 36402436, 307822, 7326779
2018-12-14 15:38:44.319719, 0.0, 23.2, 104521728, 4735277568, 17333927936, 214452, 36402436, 307822, 7326779
2018-12-14 15:38:45.221720, 0.0, 23.2, 104525824, 4735277568, 17333927936, 214452, 36402436, 307822, 7326779
2018-12-14 15:38:46.124077, 0.0, 23.2, 104513536, 4735281664, 17333927936, 214452, 36402436, 307822, 7326779
2018-12-14 15:38:47.026053, 0.0, 23.2, 104513536, 4735281664, 17333927936, 214452, 36402436, 307822, 7326779
2018-12-14 15:38:47.928055, 0.0, 23.2, 104505344, 4735281664, 17334140928, 214452, 36402436, 307822, 7326779
2018-12-14 15:38:48.830071, 0.0, 23.2, 104505344, 4735281664, 17334140928, 214452, 36402436, 307822, 7326779
2018-12-14 15:38:49.732047, 0.0, 23.2, 104505344, 4735281664, 17334140928, 214452, 36402436, 307822, 7326779
2018-12-14 15:38:50.633974, 0.0, 23.2, 104505344, 4735281664, 17334140928, 214452, 36402436, 307822, 7326779
2018-12-14 15:38:51.535916, 0.0, 23.2, 104505344, 4735281664, 17334140928, 214452, 36402436, 307822, 7326779
2018-12-14 15:38:52.437872, 0.0, 23.2, 104505344, 4735281664, 17334140928, 214452, 36402436, 307822, 7326779
2018-12-14 15:38:53.339832, 0.0, 23.2, 104505344, 4735281664, 17334140928, 214452, 36402436, 307822, 7326779
2018-12-14 15:38:54.241823, 0.0, 23.2, 104505344, 4735281664, 17334140928, 214452, 36402436, 307822, 7326779
2018-12-14 15:38:55.143830, 0.0, 23.2, 104505344, 4735281664, 17334140928, 214452, 36402436, 307822, 7326779
2018-12-14 15:38:56.046014, 0.0, 23.2, 104505344, 4735281664, 17334140928, 214452, 36402436, 307822, 7326779
2018-12-14 15:38:56.948061, 0.0, 23.2, 104505344, 4735281664, 17334140928, 214452, 36402436, 307822, 7326779
2018-12-14 15:38:57.850040, 0.0, 23.2, 104505344, 4735281664, 17334140928, 214452, 36402436, 307822, 7326779
2018-12-14 15:38:58.752018, 0.0, 23.2, 104505344, 4735281664, 17334140928, 214452, 36402436, 307822, 7326779
2018-12-14 15:38:59.654013, 0.0, 23.2, 104505344, 4735281664, 17334140928, 214452, 36402436, 307822, 7326779
2018-12-14 15:39:00.555979, 0.0, 23.2, 104505344, 4735281664, 17334140928, 214452, 36402436, 307822, 7326779
2018-12-14 15:39:01.457921, 0.0, 23.2, 104505344, 4735281664, 17334140928, 214452, 36402436, 307822, 7326779
2018-12-14 15:39:02.359897, 0.0, 23.2, 104505344, 4735281664, 17334140928, 214452, 36402436, 307822, 7326779
2018-12-14 15:39:03.261890, 0.0, 23.2, 104505344, 4735281664, 17334140928, 214452, 36402436, 307822, 7326779
2018-12-14 15:39:04.164028, 0.0, 23.2, 104505344, 4735281664, 17334140928, 214452, 36402436, 307822, 7326779
2018-12-14 15:39:05.066069, 0.0, 23.2, 104505344, 4735281664, 17334140928, 214452, 36402436, 307822, 7326779
2018-12-14 15:39:05.968048, 0.0, 23.2, 104505344, 4735281664, 17334140928, 214452, 36402436, 307822, 7326779
2018-12-14 15:39:06.869985, 0.0, 23.2, 104505344, 4735281664, 17334140928, 214452, 36402436, 307822, 7326779
2018-12-14 15:39:07.771977, 0.0, 23.2, 104505344, 4735281664, 17334140928, 214452, 36402436, 307822, 7326779
2018-12-14 15:39:08.673899, 0.0, 23.2, 104505344, 4735281664, 17334140928, 214452, 36402436, 307822, 7326779
2018-12-14 15:39:09.575866, 0.0, 23.2, 104505344, 4735281664, 17334140928, 214452, 36402436, 307822, 7326779
2018-12-14 15:39:10.477835, 0.0, 23.2, 104505344, 4735281664, 17334140928, 214452, 36402436, 307822, 7326779
2018-12-14 15:39:11.379799, 0.0, 23.2, 104505344, 4735281664, 17334140928, 214452, 36402436, 307822, 7326779
2018-12-14 15:39:12.281774, 0.0, 23.2, 104505344, 4735281664, 17334140928, 214452, 36402436, 307822, 7326779
2018-12-14 15:39:13.183789, 0.0, 23.2, 104505344, 4735281664, 17334140928, 214452, 36402436, 307822, 7326779
2018-12-14 15:39:14.085770, 4.5, 23.3, 104460288, 4736479744, 17334140928, 214688, 36402436, 307822, 7326779
2018-12-14 15:39:14.987774, 0.0, 23.3, 104460288, 4736479744, 17334140928, 214688, 36402436, 307864, 7326821
2018-12-14 15:39:15.889765, 0.0, 23.3, 104460288, 4736479744, 17334140928, 214688, 36402436, 307864, 7326821
2018-12-14 15:39:16.791869, 0.0, 23.3, 104460288, 4736479744, 17334140928, 214688, 36402436, 307864, 7326821
2018-12-14 15:39:17.693830, 0.0, 23.3, 104460288, 4736479744, 17334140928, 214688, 36402436, 307864, 7326821
2018-12-14 15:39:18.595791, 0.0, 23.3, 104460288, 4736479744, 17334177792, 214688, 36402436, 307864, 7326821
2018-12-14 15:39:19.497768, 0.0, 23.3, 104460288, 4736479744, 17334177792, 214688, 36402436, 307864, 7326821
2018-12-14 15:39:20.399786, 0.0, 23.3, 104460288, 4736479744, 17334177792, 214688, 36402436, 307864, 7326821
2018-12-14 15:39:21.301780, 0.0, 23.3, 104460288, 4736479744, 17334177792, 214688, 36402436, 307864, 7326821
2018-12-14 15:39:22.203720, 0.0, 23.3, 104460288, 4736479744, 17334177792, 214688, 36402436, 308142, 7326965
2018-12-14 15:39:23.105852, 0.0, 23.3, 104460288, 4736479744, 17334177792, 214688, 36402436, 308142, 7326965
2018-12-14 15:39:24.007851, 0.0, 23.3, 104460288, 4736479744, 17334177792, 214688, 36402436, 308142, 7326965
2018-12-14 15:39:24.909854, 0.0, 23.3, 104460288, 4736479744, 17334177792, 214688, 36402436, 308260, 7327069
2018-12-14 15:39:25.811787, 0.0, 23.3, 104579072, 4736672256, 17334177792, 214696, 36402436, 311836, 7327517
2018-12-14 15:39:26.713744, 0.0, 23.3, 104521728, 4736672256, 17334177792, 214696, 36402436, 311836, 7327517
2018-12-14 15:39:27.615896, 0.0, 23.3, 104521728, 4736672256, 17334177792, 214696, 36402436, 313016, 7328917
2018-12-14 15:39:28.517889, 0.0, 23.3, 104521728, 4736672256, 17334177792, 214696, 36402436, 313016, 7328957
2018-12-14 15:39:29.419825, 0.0, 23.3, 104521728, 4736672256, 17334177792, 214696, 36402436, 313016, 7328957
2018-12-14 15:39:30.321838, 0.0, 23.3, 104521728, 4736672256, 17334177792, 214696, 36402436, 313016, 7328957
2018-12-14 15:39:31.223785, 0.0, 23.3, 104521728, 4736672256, 17334177792, 214696, 36402436, 313016, 7328957
2018-12-14 15:39:32.125777, 0.0, 23.3, 104521728, 4736672256, 17334177792, 214696, 36402436, 313252, 7329205
2018-12-14 15:39:33.027734, 0.0, 23.3, 104509440, 4736938496, 17334177792, 214824, 36402436, 313370, 7329389
2018-12-14 15:39:33.929713, 2.2, 23.3, 104509440, 4736938496, 17334177792, 214824, 36402436, 314900, 7329573
2018-12-14 15:39:34.831863, 0.0, 23.3, 104529920, 4736938496, 17334177792, 214824, 36402436, 315254, 7329861
2018-12-14 15:39:35.733817, 1.1, 23.3, 104509440, 4736938496, 17334177792, 214824, 36402436, 315506, 7330149
2018-12-14 15:39:36.635779, 40.2, 48.0, 345759744, 4763501056, 17334214656, 215264, 36402440, 316236, 7330954
2018-12-14 15:39:37.537294, 100.0, 48.0, 345731072, 4763501056, 17334214656, 215264, 36402440, 316236, 7330954
2018-12-14 15:39:38.439192, 100.0, 48.0, 345731072, 4763501056, 17334214656, 215264, 36402440, 316236, 7330954
2018-12-14 15:39:39.341152, 100.0, 48.0, 345731072, 4763501056, 17334214656, 215264, 36402440, 316236, 7330954
2018-12-14 15:39:40.243030, 100.0, 48.0, 345731072, 4763501056, 17334214656, 215264, 36402440, 316236, 7330954
2018-12-14 15:39:41.144942, 100.0, 48.0, 345731072, 4763501056, 17334214656, 215264, 36402440, 316236, 7330954
2018-12-14 15:39:42.046876, 100.0, 48.0, 345731072, 4763501056, 17334214656, 215264, 36402440, 316236, 7330954
2018-12-14 15:39:42.948834, 2.2, 24.6, 104579072, 4763501056, 17334214656, 215264, 36402440, 316750, 7331138
2018-12-14 15:39:43.850839, 0.0, 24.6, 104579072, 4763501056, 17334214656, 215264, 36402440, 317458, 7331962
2018-12-14 15:39:44.752957, 0.0, 24.6, 104579072, 4763501056, 17334214656, 215264, 36402440, 317930, 7332538
2018-12-14 15:39:45.654919, 0.0, 24.6, 104579072, 4763501056, 17334214656, 215264, 36402440, 317930, 7332538
2018-12-14 15:39:46.556931, 0.0, 24.6, 104579072, 4763501056, 17334214656, 215264, 36402440, 317930, 7332538
2018-12-14 15:39:47.458930, 1.1, 24.6, 104579072, 4763501056, 17334214656, 215264, 36402440, 318048, 7332786
2018-12-14 15:39:48.360904, 0.0, 24.6, 104579072, 4763501056, 17334214656, 215264, 36402440, 318402, 7332970
2018-12-14 15:39:49.262908, 1.1, 24.6, 104579072, 4763501056, 17334308864, 215264, 36402440, 318772, 7333402
2018-12-14 15:39:50.164894, 88.9, 25.4, 111091712, 4766917120, 17334317056, 215500, 36402444, 319548, 7333966
2018-12-14 15:39:51.066802, 100.0, 25.4, 111071232, 4766917120, 17334317056, 215500, 36402444, 320256, 7334790
2018-12-14 15:39:51.968787, 100.0, 25.4, 111218688, 4766917120, 17334317056, 215500, 36402444, 321200, 7335838
2018-12-14 15:39:52.870707, 100.0, 25.4, 111198208, 4766917120, 17334317056, 215500, 36402444, 321270, 7335838
2018-12-14 15:39:53.772691, 100.0, 25.4, 111210496, 4766917120, 17334317056, 215500, 36402444, 321522, 7336126
2018-12-14 15:39:54.674582, 100.0, 25.4, 111190016, 4766917120, 17334317056, 215500, 36402444, 321576, 7336230
2018-12-14 15:39:55.576539, 100.0, 25.4, 111190016, 4766917120, 17334317056, 215500, 36402444, 321748, 7336374
2018-12-14 15:39:56.478428, 100.0, 25.4, 111190016, 4766917120, 17334317056, 215500, 36402444, 321984, 7336662
2018-12-14 15:39:57.380340, 100.0, 25.4, 111190016, 4766917120, 17334317056, 215500, 36402444, 321984, 7336662
2018-12-14 15:39:58.282244, 100.0, 25.4, 111190016, 4766917120, 17334317056, 215500, 36402444, 321984, 7336662
2018-12-14 15:39:59.184145, 100.0, 25.4, 111190016, 4766917120, 17334317056, 215500, 36402444, 321984, 7336662
2018-12-14 15:40:00.085208, 100.0, 25.4, 111190016, 4766917120, 17334317056, 215500, 36402444, 321984, 7336662
2018-12-14 15:40:00.987100, 100.0, 25.4, 111190016, 4766917120, 17334317056, 215500, 36402444, 321984, 7336662
2018-12-14 15:40:01.889066, 100.0, 25.4, 111190016, 4766917120, 17334317056, 215500, 36402444, 321984, 7336662
2018-12-14 15:40:02.790979, 100.0, 25.4, 111190016, 4766917120, 17334317056, 215500, 36402444, 321984, 7336662
2018-12-14 15:40:03.692903, 100.0, 25.4, 111190016, 4766917120, 17334317056, 215500, 36402444, 322038, 7336766
2018-12-14 15:40:04.594790, 100.0, 25.4, 111190016, 4766917120, 17334317056, 215500, 36402444, 322258, 7336958
2018-12-14 15:40:05.496702, 100.0, 25.7, 114069504, 4767515136, 17334317056, 215516, 36402444, 85605844, 7564868
2018-12-14 15:40:06.398686, 100.0, 25.7, 114397184, 4767515136, 17334558720, 215516, 36402444, 199319833, 7860608
2018-12-14 15:40:07.300617, 100.0, 25.7, 114069504, 4767515136, 17334558720, 215516, 36402444, 313285450, 8155732
2018-12-14 15:40:08.202636, 100.0, 25.7, 114528256, 4767515136, 17334558720, 215516, 36402444, 425954254, 8453740
2018-12-14 15:40:09.104829, 100.0, 25.7, 114429952, 4767515136, 17334558720, 215516, 36402444, 539588758, 8752904
2018-12-14 15:40:10.006877, 100.0, 25.7, 114102272, 4767515136, 17334558720, 215516, 36402444, 653272495, 9052692
2018-12-14 15:40:10.908968, 100.0, 25.8, 114593792, 4767515136, 17334558720, 215516, 36402444, 766749877, 9359144
2018-12-14 15:40:11.811049, 100.0, 25.7, 114200576, 4767515136, 17334575104, 215516, 36402444, 880081633, 9663912
2018-12-14 15:40:12.713139, 100.0, 25.7, 114364416, 4767515136, 17334575104, 215516, 36402444, 992721478, 9951476
2018-12-14 15:40:13.615150, 100.0, 25.8, 114724864, 4767515136, 17334575104, 215516, 36402444, 1105701913, 10265536
2018-12-14 15:40:14.517182, 100.0, 25.6, 112504832, 4767515136, 17334575104, 215516, 36402444, 1217153521, 10564456
2018-12-14 15:40:15.419226, 100.0, 25.5, 111816704, 4767515136, 17334575104, 215516, 36402444, 1330071115, 10871620
2018-12-14 15:40:16.321279, 100.0, 25.5, 112144384, 4767515136, 17334575104, 215516, 36402444, 1442674729, 11192172
2018-12-14 15:40:17.223267, 100.0, 25.5, 112472064, 4767515136, 17334575104, 215516, 36402444, 1555121524, 11512024
2018-12-14 15:40:18.125281, 100.0, 25.5, 112144384, 4767515136, 17334575104, 215516, 36402444, 1666084936, 11805988
2018-12-14 15:40:19.027286, 100.0, 25.5, 111882240, 4767515136, 17334575104, 215516, 36402444, 1777724143, 12103016
2018-12-14 15:40:19.929325, 100.0, 25.5, 111718400, 4767515136, 17334575104, 215516, 36402444, 1889533645, 12407876
2018-12-14 15:40:20.831342, 100.0, 25.6, 112570368, 4767515136, 17334685696, 215516, 36402444, 2001007852, 12694830
2018-12-14 15:40:21.733284, 100.0, 25.5, 112070656, 4767515136, 17334800384, 215516, 36402444, 2112210142, 12995002
2018-12-14 15:40:22.635292, 100.0, 25.5, 111939584, 4767515136, 17334800384, 215516, 36402444, 2222810869, 13293206
2018-12-14 15:40:23.537292, 100.0, 25.5, 112431104, 4767515136, 17334800384, 215516, 36402444, 2332916563, 13594522
2018-12-14 15:40:24.439300, 100.0, 25.5, 111939584, 4767515136, 17334800384, 215516, 36402444, 2443159594, 13898154
2018-12-14 15:40:25.341380, 100.0, 25.5, 111939584, 4767515136, 17334800384, 215516, 36402444, 2553902911, 14213990
2018-12-14 15:40:26.243456, 100.0, 25.5, 112037888, 4767515136, 17334800384, 215516, 36402444, 2664615487, 14526370
2018-12-14 15:40:27.145350, 100.0, 25.5, 111906816, 4767515136, 17334812672, 215516, 36402444, 2774410564, 14831894
2018-12-14 15:40:28.047328, 100.0, 25.6, 112529408, 4767515136, 17334812672, 215516, 36402444, 2884578703, 15135294
2018-12-14 15:40:28.949507, 100.0, 25.5, 112136192, 4767515136, 17334812672, 215516, 36402444, 2993879251, 15444322
2018-12-14 15:40:29.851550, 100.0, 25.5, 112136192, 4767515136, 17334812672, 215516, 36402444, 3103459792, 15751462
2018-12-14 15:40:30.753369, 100.0, 25.5, 112136192, 4767515136, 17334812672, 215516, 36402444, 3213033799, 16059578
2018-12-14 15:40:31.655417, 100.0, 25.5, 112070656, 4767515136, 17334812672, 215516, 36402444, 3321834721, 16365602
2018-12-14 15:40:32.557360, 100.0, 25.5, 112463872, 4767515136, 17334812672, 215516, 36402444, 3430840744, 16675286
2018-12-14 15:40:33.459343, 100.0, 25.5, 112005120, 4767515136, 17334812672, 215516, 36402444, 3539848984, 16979298
2018-12-14 15:40:34.361331, 100.0, 25.5, 112005120, 4767515136, 17334812672, 215516, 36402444, 3647993461, 17261854
2018-12-14 15:40:35.263343, 100.0, 25.5, 112234496, 4767515136, 17334812672, 215516, 36402444, 3755500288, 17450282
2018-12-14 15:40:36.165365, 100.0, 25.5, 111972352, 4767515136, 17334812672, 215516, 36402444, 3863820907, 17738482
2018-12-14 15:40:37.067428, 100.0, 25.5, 112201728, 4767515136, 17334812672, 215516, 36402444, 3971818069, 18040038
2018-12-14 15:40:37.969359, 100.0, 25.5, 111972352, 4767515136, 17334812672, 215516, 36402444, 4078967293, 18332406
2018-12-14 15:40:38.871352, 100.0, 25.5, 112070656, 4767515136, 17334812672, 215516, 36402444, 4186865065, 18636610
2018-12-14 15:40:39.773305, 100.0, 25.6, 112529408, 4767515136, 17334812672, 215516, 36402444, 4292654173, 18921430
2018-12-14 15:40:40.675332, 100.0, 25.5, 111972352, 4767515136, 17334812672, 215516, 36402444, 4398861442, 19204830
2018-12-14 15:40:41.577339, 100.0, 25.6, 112627712, 4767515136, 17334812672, 215516, 36402444, 4505365282, 19504922
2018-12-14 15:40:42.479363, 100.0, 25.5, 112300032, 4767515136, 17334812672, 215516, 36402444, 4612359469, 19809846
2018-12-14 15:40:43.381326, 100.0, 25.5, 112005120, 4767515136, 17334812672, 215516, 36402444, 4718246752, 20112278
2018-12-14 15:40:44.283328, 100.0, 25.6, 112693248, 4767515136, 17334812672, 215516, 36402444, 4824810595, 20419750
2018-12-14 15:40:45.185396, 100.0, 25.6, 112758784, 4767515136, 17334812672, 215516, 36402444, 4931227123, 20729734
2018-12-14 15:40:46.087454, 100.0, 25.6, 112660480, 4767515136, 17334812672, 215516, 36402444, 5036696311, 21035862
2018-12-14 15:40:46.989345, 100.0, 25.6, 112594944, 4767515136, 17334812672, 215516, 36402444, 5142661891, 21343810
2018-12-14 15:40:47.891381, 100.0, 25.5, 112234496, 4767515136, 17334812672, 215516, 36402444, 5248254979, 21660450
2018-12-14 15:40:48.793332, 100.0, 25.5, 112496640, 4767515136, 17334812672, 215516, 36402444, 5353845295, 21969586
2018-12-14 15:40:49.695362, 100.0, 25.5, 112300032, 4767515136, 17334812672, 215516, 36402444, 5458792603, 22266874
2018-12-14 15:40:50.597454, 100.0, 25.5, 112005120, 4767515136, 17334812672, 215516, 36402444, 5563870780, 22569034
2018-12-14 15:40:51.499537, 100.0, 25.5, 112365568, 4767515136, 17334812672, 215516, 36402444, 5668700233, 22869850
2018-12-14 15:40:52.401362, 100.0, 25.5, 112168960, 4767515136, 17334812672, 215516, 36402444, 5772621019, 23158130
2018-12-14 15:40:53.303394, 100.0, 25.6, 112783360, 4767515136, 17334837248, 215516, 36402444, 5876937700, 23461042
2018-12-14 15:40:54.205525, 100.0, 25.5, 112259072, 4767515136, 17334837248, 215516, 36402444, 5981112820, 23767346
2018-12-14 15:40:55.107612, 100.0, 25.6, 112783360, 4767515136, 17334837248, 215516, 36402444, 6085107838, 24074754
2018-12-14 15:40:56.009307, 100.0, 25.6, 112783360, 4767515136, 17334837248, 215516, 36402444, 6188685619, 24385294
2018-12-14 15:40:56.911294, 100.0, 25.6, 112586752, 4767515136, 17334837248, 215516, 36402444, 6291436000, 24685538
2018-12-14 15:40:57.813333, 100.0, 25.5, 112029696, 4767515136, 17334837248, 215516, 36402444, 6394403335, 24987166
2018-12-14 15:40:58.715412, 100.0, 25.6, 112578560, 4767515136, 17334837248, 215516, 36402444, 6497511082, 25285658
2018-12-14 15:40:59.617329, 100.0, 25.6, 112513024, 4767515136, 17334837248, 215516, 36402444, 6600104275, 25591518
2018-12-14 15:41:00.519334, 100.0, 25.5, 111988736, 4767515136, 17334837248, 215516, 36402444, 6702647113, 25893018
2018-12-14 15:41:01.421379, 100.0, 25.6, 112807936, 4767515136, 17334837248, 215516, 36402444, 6805100197, 26187974
2018-12-14 15:41:02.323392, 100.0, 25.5, 112119808, 4767515136, 17334837248, 215516, 36402444, 6906920608, 26482302
2018-12-14 15:41:03.225191, 100.0, 25.6, 112644096, 4767515136, 17334837248, 215516, 36402444, 7008494275, 26773962
2018-12-14 15:41:04.127161, 100.0, 25.5, 112480256, 4767515136, 17334837248, 215516, 36402444, 7110116620, 27063682
2018-12-14 15:41:05.029237, 100.0, 25.3, 110022656, 4767515136, 17334837248, 215516, 36402444, 7188715833, 27335735
2018-12-14 15:41:05.931145, 100.0, 25.3, 110022656, 4767515136, 17334837248, 215516, 36402444, 7188928357, 27503851
2018-12-14 15:41:06.833080, 100.0, 25.3, 110022656, 4767515136, 17334837248, 215516, 36402444, 7189143628, 27674140
2018-12-14 15:41:07.734948, 100.0, 25.3, 110022656, 4767515136, 17334837248, 215516, 36402444, 7189360440, 27845648
2018-12-14 15:41:08.636925, 100.0, 25.3, 110022656, 4767515136, 17334837248, 215516, 36402444, 7189563517, 28006291
2018-12-14 15:41:09.538872, 100.0, 25.3, 110022656, 4767515136, 17334837248, 215516, 36402444, 7189785756, 28182092
2018-12-14 15:41:10.440835, 100.0, 25.3, 110022656, 4767515136, 17334837248, 215516, 36402444, 7190001471, 28352741
2018-12-14 15:41:11.342743, 100.0, 25.3, 110022656, 4767515136, 17334837248, 215516, 36402444, 7190219556, 28525203
2018-12-14 15:41:12.244720, 100.0, 25.3, 110022656, 4767515136, 17334837248, 215516, 36402444, 7190449098, 28706834
2018-12-14 15:41:13.146638, 100.0, 25.3, 110022656, 4767515136, 17334837248, 215516, 36402444, 7190648892, 28864827
2018-12-14 15:41:14.048563, 100.0, 25.3, 110022656, 4767515136, 17334837248, 215516, 36402444, 7190856793, 29029339
2018-12-14 15:41:14.950475, 100.0, 25.3, 110022656, 4767515136, 17334837248, 215516, 36402444, 7191066905, 29195547
2018-12-14 15:41:15.852422, 100.0, 25.3, 110022656, 4767515136, 17334837248, 215516, 36402444, 7191285258, 29368274
2018-12-14 15:41:16.754279, 100.0, 25.3, 110022656, 4767515136, 17334837248, 215516, 36402444, 7191513460, 29548792
2018-12-14 15:41:17.656148, 100.0, 25.3, 110022656, 4767515136, 17334837248, 215516, 36402444, 7191740657, 29728515
2018-12-14 15:41:18.557241, 100.0, 25.3, 110022656, 4767515136, 17334837248, 215516, 36402444, 7191986279, 29922760
2018-12-14 15:41:19.459140, 100.0, 25.3, 110022656, 4767515136, 17334837248, 215516, 36402444, 7192229824, 30115468
2018-12-14 15:41:20.361059, 100.0, 25.3, 110022656, 4767515136, 17334837248, 215516, 36402444, 7192454542, 30293230
2018-12-14 15:41:21.262950, 100.0, 25.3, 110022656, 4767515136, 17334837248, 215516, 36402444, 7192671354, 30464738
2018-12-14 15:41:22.164909, 100.0, 25.3, 110022656, 4767515136, 17334837248, 215516, 36402444, 7192897077, 30643295
2018-12-14 15:41:23.066802, 100.0, 25.3, 110022656, 4767515136, 17334837248, 215516, 36402444, 7193120924, 30820368
2018-12-14 15:41:23.968811, 100.0, 25.3, 110022656, 4767515136, 17334837248, 215516, 36402444, 7193340550, 30994102
2018-12-14 15:41:24.870703, 100.0, 25.3, 110022656, 4767515136, 17334837248, 215516, 36402444, 7193564439, 31171164
2018-12-14 15:41:25.772665, 100.0, 25.3, 110022656, 4767515136, 17334837248, 215516, 36402444, 7193794383, 31353113
2018-12-14 15:41:26.674543, 100.0, 25.3, 110022656, 4767515136, 17334837248, 215516, 36402444, 7194018900, 31530716
2018-12-14 15:41:27.576450, 100.0, 25.3, 110022656, 4767515136, 17334837248, 215516, 36402444, 7194250318, 31713778
2018-12-14 15:41:28.478315, 100.0, 25.3, 110014464, 4767515136, 17334882304, 215516, 36402444, 7194491652, 31904684
2018-12-14 15:41:29.380200, 100.0, 25.3, 110014464, 4767515136, 17334882304, 215516, 36402444, 7194734058, 32096438
2018-12-14 15:41:30.281223, 100.0, 25.3, 110014464, 4767515136, 17334882304, 215516, 36402444, 7194966481, 32280295
2018-12-14 15:41:31.183118, 100.0, 25.3, 110014464, 4767515136, 17334882304, 215516, 36402444, 7195201852, 32466484
2018-12-14 15:41:32.085106, 100.0, 25.3, 110014464, 4767515136, 17334882304, 215516, 36402444, 7195426302, 32644034
2018-12-14 15:41:32.987000, 100.0, 25.3, 110014464, 4767515136, 17334882304, 215516, 36402444, 7195654973, 32824923
2018-12-14 15:41:33.888955, 100.0, 25.3, 110014464, 4767515136, 17334882304, 215516, 36402444, 7195894498, 33014398
2018-12-14 15:41:34.790840, 100.0, 25.3, 110014464, 4767515136, 17334882304, 215516, 36402444, 7196141460, 33209756
2018-12-14 15:41:35.692792, 100.0, 25.3, 110014464, 4767515136, 17334882304, 215516, 36402444, 7196382727, 33400609
2018-12-14 15:41:36.594656, 100.0, 25.3, 110014464, 4767515136, 17334882304, 215516, 36402444, 7196630024, 33596179
2018-12-14 15:41:37.496642, 100.0, 25.3, 110014464, 4767515136, 17334882304, 215516, 36402444, 7196880202, 33794134
2018-12-14 15:41:38.398534, 100.0, 25.3, 110014464, 4767515136, 17334882304, 215516, 36402444, 7197131318, 33992778
2018-12-14 15:41:39.300458, 100.0, 25.3, 110014464, 4767515136, 17334882304, 215516, 36402444, 7197375466, 34185910
2018-12-14 15:41:40.202355, 100.0, 25.3, 110014464, 4767515136, 17334882304, 215516, 36402444, 7197616063, 34376233
2018-12-14 15:41:41.104266, 100.0, 25.3, 110014464, 4767515136, 17334882304, 215516, 36402444, 7197831267, 34546469
2018-12-14 15:41:42.005246, 100.0, 25.3, 110014464, 4767515136, 17334882304, 215516, 36402444, 7198050424, 34719832
2018-12-14 15:41:42.907136, 100.0, 25.3, 110014464, 4767515136, 17334882304, 215516, 36402444, 7198278157, 34899979
2018-12-14 15:41:43.809047, 100.0, 25.3, 110014464, 4767515136, 17334882304, 215516, 36402444, 7198498788, 35074508
2018-12-14 15:41:44.710920, 100.0, 25.3, 110014464, 4767515136, 17334882304, 215516, 36402444, 7198752852, 35275484
2018-12-14 15:41:45.612894, 100.0, 25.3, 110014464, 4767515136, 17334882304, 215516, 36402444, 7198998407, 35469729
2018-12-14 15:41:46.514777, 100.0, 25.3, 110014464, 4767515136, 17334882304, 215516, 36402444, 7199252002, 35670281
2018-12-14 15:41:47.416735, 100.0, 25.3, 110014464, 4767515136, 17334882304, 215516, 36402444, 7199493135, 35861081
2018-12-14 15:41:48.318658, 100.0, 25.3, 110014464, 4767515136, 17334882304, 215516, 36402444, 7199749812, 36064071
2018-12-14 15:41:49.220583, 100.0, 25.3, 110014464, 4767515136, 17334882304, 215516, 36402444, 7199999521, 36261655
2018-12-14 15:41:50.122502, 100.0, 25.3, 110014464, 4767515136, 17334882304, 215516, 36402444, 7200230068, 36444028
2018-12-14 15:41:51.024514, 100.0, 25.3, 110014464, 4767515136, 17334882304, 215516, 36402444, 7200448823, 36617073
2018-12-14 15:41:51.926435, 100.0, 25.3, 110014464, 4767515136, 17334882304, 215516, 36402444, 7200666707, 36789429
2018-12-14 15:41:52.828333, 100.0, 25.3, 110014464, 4767515136, 17334882304, 215516, 36402444, 7200887204, 36963852
2018-12-14 15:41:53.730292, 100.0, 25.3, 110014464, 4767515136, 17334882304, 215516, 36402444, 7201121436, 37149140
2018-12-14 15:41:54.632209, 100.0, 25.3, 110014464, 4767515136, 17334882304, 215516, 36402444, 7201381329, 37354727
2018-12-14 15:41:55.533206, 100.0, 25.3, 110014464, 4767515136, 17334882304, 215516, 36402444, 7201635125, 37555491
2018-12-14 15:41:56.435066, 100.0, 25.3, 110014464, 4767515136, 17334882304, 215516, 36402444, 7201894482, 37760654
2018-12-14 15:41:57.337067, 100.0, 25.3, 109961216, 4767584768, 17334882304, 215516, 36402444, 7202147943, 37961153
2018-12-14 15:41:58.238983, 100.0, 25.3, 109944832, 4767584768, 17334882304, 215516, 36402444, 7202408104, 38166952
2018-12-14 15:41:59.140984, 100.0, 25.5, 109473792, 4770757120, 17334894592, 216420, 36402444, 7202627998, 38340898
2018-12-14 15:42:00.042912, 100.0, 25.6, 109629440, 4770888192, 17334910976, 216424, 36402448, 7202846016, 38513360
2018-12-14 15:42:00.944872, 100.0, 25.5, 109596672, 4770888192, 17334910976, 216424, 36402448, 7203052711, 38676865
2018-12-14 15:42:01.846741, 100.0, 25.5, 109596672, 4770888192, 17334910976, 216424, 36402448, 7203249222, 38832261
2018-12-14 15:42:02.748771, 100.0, 25.5, 109588480, 4770888192, 17334910976, 216424, 36402448, 7203449954, 38991102
2018-12-14 15:42:03.650643, 100.0, 25.5, 109588480, 4770888192, 17334910976, 216424, 36402448, 7203653701, 39152222
2018-12-14 15:42:04.552599, 100.0, 25.5, 109588480, 4770888192, 17334910976, 216424, 36402448, 7203893561, 39342015
2018-12-14 15:42:05.454476, 100.0, 25.5, 108756992, 4770888192, 17334939648, 216424, 36402448, 7203973724, 39405365
2018-12-14 15:42:06.356416, 100.0, 25.5, 108756992, 4770888192, 17334939648, 216424, 36402448, 7203973724, 39405365
2018-12-14 15:42:07.258357, 100.0, 25.5, 108756992, 4770888192, 17334939648, 216424, 36402448, 7203973724, 39405365
2018-12-14 15:42:08.160289, 100.0, 25.5, 108756992, 4770888192, 17334939648, 216424, 36402448, 7203973724, 39405365
2018-12-14 15:42:09.062254, 100.0, 25.5, 108756992, 4770888192, 17334939648, 216424, 36402448, 7203973724, 39405365
2018-12-14 15:42:09.964133, 100.0, 25.5, 108756992, 4770888192, 17334939648, 216424, 36402448, 7203973724, 39405365
2018-12-14 15:42:10.865213, 100.0, 25.5, 108756992, 4770888192, 17334939648, 216424, 36402448, 7203973766, 39405407
2018-12-14 15:42:11.767125, 100.0, 25.5, 108756992, 4770888192, 17334939648, 216424, 36402448, 7203973766, 39405407
2018-12-14 15:42:12.669059, 100.0, 25.5, 108756992, 4770888192, 17334939648, 216424, 36402448, 7203973766, 39405407
2018-12-14 15:42:13.570953, 100.0, 25.5, 108756992, 4770888192, 17334939648, 216424, 36402448, 7203973766, 39405407
2018-12-14 15:42:14.472897, 100.0, 25.5, 108756992, 4770888192, 17334939648, 216424, 36402448, 7203973766, 39405407
2018-12-14 15:42:15.374771, 100.0, 25.5, 108756992, 4770888192, 17334939648, 216424, 36402448, 7203973766, 39405407
2018-12-14 15:42:16.276679, 100.0, 25.5, 108756992, 4770888192, 17334939648, 216424, 36402448, 7203973766, 39405407
2018-12-14 15:42:17.178560, 100.0, 25.5, 108756992, 4770888192, 17334939648, 216424, 36402448, 7203973766, 39405407
2018-12-14 15:42:18.080499, 100.0, 25.5, 108756992, 4770888192, 17334939648, 216424, 36402448, 7203973766, 39405407
2018-12-14 15:42:18.982391, 100.0, 25.5, 108756992, 4770888192, 17334939648, 216424, 36402448, 7203973766, 39405407
2018-12-14 15:42:19.884403, 100.0, 25.5, 108756992, 4770888192, 17334939648, 216424, 36402448, 7203974710, 39406519
2018-12-14 15:42:20.786306, 100.0, 25.5, 108756992, 4770888192, 17334939648, 216424, 36402448, 7203974946, 39406847
2018-12-14 15:42:21.688203, 100.0, 25.5, 108756992, 4770888192, 17334939648, 216424, 36402448, 7203975064, 39406951
2018-12-14 15:42:22.589198, 100.0, 25.5, 108777472, 4770888192, 17334939648, 216424, 36402448, 7203975712, 39407529
2018-12-14 15:42:23.491113, 100.0, 25.6, 109961216, 4770888192, 17334939648, 216424, 36402448, 7203976442, 39408374
2018-12-14 15:42:24.393044, 100.0, 25.6, 109993984, 4770888192, 17334939648, 216424, 36402448, 7203976442, 39408374
2018-12-14 15:42:25.294958, 100.0, 25.6, 110034944, 4770888192, 17334939648, 216424, 36402448, 7203976442, 39408374
2018-12-14 15:42:26.196892, 100.0, 25.6, 110043136, 4770888192, 17334939648, 216424, 36402448, 7203976442, 39408374
2018-12-14 15:42:27.098797, 100.0, 25.6, 110071808, 4770888192, 17334939648, 216424, 36402448, 7203976442, 39408374
2018-12-14 15:42:28.000696, 100.0, 25.6, 110055424, 4770888192, 17334939648, 216424, 36402448, 7203976442, 39408374
2018-12-14 15:42:28.902571, 100.0, 25.6, 110075904, 4770888192, 17334939648, 216424, 36402448, 7203976442, 39408374
2018-12-14 15:42:29.804531, 100.0, 25.6, 109981696, 4770888192, 17334939648, 216424, 36402448, 7203976442, 39408374
2018-12-14 15:42:30.706435, 100.0, 25.6, 110022656, 4770888192, 17335132160, 216424, 36402448, 7203976442, 39408374
2018-12-14 15:42:31.608363, 100.0, 25.9, 109682688, 4770888192, 17434996736, 216424, 36452092, 7203976442, 39408374
2018-12-14 15:42:32.510282, 100.0, 25.9, 109735936, 4770892288, 17492668416, 216428, 36581308, 7203976442, 39408374
2018-12-14 15:42:33.412161, 100.0, 26.0, 109772800, 4770892288, 17550340096, 216428, 36710568, 7203976442, 39408374
2018-12-14 15:42:34.313242, 100.0, 26.1, 109690880, 4770896384, 17608142848, 216436, 36839848, 7203976442, 39408374
2018-12-14 15:42:35.215182, 100.0, 26.2, 109805568, 4770896384, 17665814528, 216436, 36969048, 7203976442, 39408374
2018-12-14 15:42:36.117093, 100.0, 26.2, 109875200, 4770900480, 17723617280, 216440, 37098688, 7203976442, 39408374
2018-12-14 15:42:37.019023, 100.0, 26.3, 109674496, 4770900480, 17781288960, 216440, 37227976, 7203976442, 39408374
2018-12-14 15:42:37.920943, 100.0, 26.4, 109764608, 4770900480, 17838960640, 216440, 37357084, 7203976442, 39408374
2018-12-14 15:42:38.822806, 100.0, 26.4, 109711360, 4770904576, 17896763392, 216444, 37486380, 7203976442, 39408374
2018-12-14 15:42:39.725553, 100.0, 26.4, 109629440, 4770904576, 17954566144, 216444, 37615928, 7203976442, 39408374
2018-12-14 15:42:40.627482, 100.0, 26.4, 109678592, 4770908672, 18012237824, 216448, 37745108, 7203976442, 39408374
2018-12-14 15:42:41.529205, 100.0, 26.4, 109723648, 4770908672, 18069909504, 216448, 37874408, 7203976442, 39408374
2018-12-14 15:42:42.431078, 100.0, 26.4, 109727744, 4770912768, 18127712256, 216452, 38003824, 7203976442, 39408374
2018-12-14 15:42:43.333095, 100.0, 26.4, 109699072, 4770912768, 18185383936, 216452, 38132980, 7203976442, 39408374
2018-12-14 15:42:44.235093, 100.0, 26.4, 109682688, 4770912768, 18243186688, 216452, 38262608, 7203976442, 39408374
2018-12-14 15:42:45.137760, 100.0, 26.4, 109637632, 4770916864, 18300858368, 216456, 38391852, 7203976442, 39408374
2018-12-14 15:42:46.039673, 100.0, 26.4, 109711360, 4770916864, 18358530048, 216456, 38520748, 7203976442, 39408374
2018-12-14 15:42:46.941187, 100.0, 26.5, 109756416, 4770920960, 18416332800, 216460, 38650172, 7203976442, 39408374
2018-12-14 15:42:47.843215, 100.0, 26.4, 109662208, 4770920960, 18474004480, 216460, 38779260, 7203976442, 39408374
2018-12-14 15:42:48.745131, 100.0, 26.4, 109658112, 4770925056, 18531807232, 216464, 38908968, 7203976442, 39408374
2018-12-14 15:42:49.647107, 100.0, 26.5, 109830144, 4770925056, 18589478912, 216464, 39037956, 7203976442, 39408374
2018-12-14 15:42:50.549024, 100.0, 26.5, 109592576, 4770925056, 18647150592, 216464, 39167056, 7203976442, 39408374
2018-12-14 15:42:51.450997, 100.0, 26.5, 109654016, 4770933248, 18704953344, 216472, 39296372, 7203976442, 39408374
2018-12-14 15:42:52.352984, 100.0, 26.5, 109801472, 4770933248, 18762625024, 216472, 39425656, 7203976442, 39408374
2018-12-14 15:42:53.254889, 100.0, 26.5, 109600768, 4770937344, 18820427776, 216476, 39555172, 7203976442, 39408374
2018-12-14 15:42:54.157447, 100.0, 26.5, 109740032, 4770937344, 18878099456, 216476, 39684124, 7203976442, 39408374
2018-12-14 15:42:55.059380, 100.0, 26.5, 109690880, 4770941440, 18935902208, 216480, 39813528, 7203976442, 39408374
2018-12-14 15:42:55.961332, 100.0, 26.5, 109686784, 4770941440, 18993573888, 216480, 39942668, 7203976442, 39408374
2018-12-14 15:42:56.863244, 100.0, 26.5, 109740032, 4770941440, 19051245568, 216480, 40072032, 7203976442, 39408374
2018-12-14 15:42:57.765181, 100.0, 26.5, 109703168, 4770945536, 19109048320, 216484, 40201408, 7203976442, 39408374
2018-12-14 15:42:58.667042, 100.0, 26.5, 109658112, 4770945536, 19166720000, 216484, 40330516, 7203976442, 39408374
2018-12-14 15:42:59.568996, 100.0, 26.5, 109678592, 4770949632, 19224522752, 216488, 40459900, 7203976442, 39408374
2018-12-14 15:43:00.471007, 100.0, 26.6, 109670400, 4770949632, 19282194432, 216488, 40589212, 7203976442, 39408374
2018-12-14 15:43:01.373694, 100.0, 26.5, 109576192, 4770953728, 19339980800, 216492, 40718236, 7203976442, 39408374
2018-12-14 15:43:02.275638, 100.0, 26.6, 109735936, 4770953728, 19397652480, 216492, 40847156, 7203976442, 39408374
2018-12-14 15:43:03.177216, 100.0, 26.6, 109735936, 4770953728, 19455455232, 216492, 41015164, 7203976442, 39408374
2018-12-14 15:43:04.079153, 100.0, 26.5, 109629440, 4860201472, 19506610176, 217176, 41099980, 7203976442, 39408374
2018-12-14 15:43:04.981127, 100.0, 26.5, 109568000, 4893100544, 19570835456, 218556, 41217556, 7203976442, 39408374
2018-12-14 15:43:05.883023, 100.0, 26.5, 109735936, 4924164608, 19628507136, 220384, 41346136, 7203976442, 39408374
